lab05/data/ice_water_forward_0000microA.CSV

Model,DPO2012,,,
Firmware Version,1.39,,,
,,,,
Point Format,Y,,,
Horizontal Units,S,,,
Horizontal Scale,4,,,
Sample Interval,0.00768049,,,
Filter Frequency,1.40E+06,,,
Record Length,5200,,,
Gating,0.0% to 100.0%,,0.0% to 100.0%,
Probe Attenuation,1,,1,
Vertical Units,V,,V,
Vertical Offset,0,,0,
Vertical Scale,0.1,,0.05,
Label,,,,
TIME,CH1,CH1 Peak Detect,CH2,CH2 Peak Detect
-2.00E+01,0.1,0.072,0.004,-0.004
-2.00E+01,0.1,0.124,0.004,0.014
-2.00E+01,0.1,0.072,0.004,-0.004
-2.00E+01,0.1,0.124,0.006,0.014
-2.00E+01,0.1,0.076,0.004,-0.004
-2.00E+01,0.1,0.124,0.004,0.012
-2.00E+01,0.1,0.072,0.004,-0.004
-1.99E+01,0.1,0.128,0.004,0.014
-1.99E+01,0.1,0.08,0.004,-0.004
-1.99E+01,0.1,0.128,0.004,0.01
-1.99E+01,0.1,0.072,0.004,-0.004
-1.99E+01,0.1,0.124,0.004,0.01
-1.99E+01,0.1,0.08,0.004,-0.004
-1.99E+01,0.1,0.128,0.004,0.012
-1.99E+01,0.1,0.072,0.004,-0.004
-1.99E+01,0.1,0.124,0.004,0.012
-1.99E+01,0.1,0.072,0.004,-0.004
-1.99E+01,0.104,0.128,0.006,0.014
-1.99E+01,0.104,0.076,0.004,-0.012
-1.99E+01,0.104,0.124,0.004,0.016
-1.98E+01,0.104,0.076,0.004,-0.004
-1.98E+01,0.104,0.128,0.004,0.014
-1.98E+01,0.104,0.076,0.006,-0.004
-1.98E+01,0.104,0.128,0.004,0.014
-1.98E+01,0.104,0.072,0.004,-0.004
-1.98E+01,0.104,0.128,0.004,0.01
-1.98E+01,0.104,0.08,0.004,-0.004
-1.98E+01,0.104,0.128,0.004,0.012
-1.98E+01,0.104,0.076,0.004,-0.004
-1.98E+01,0.104,0.128,0.006,0.012
-1.98E+01,0.104,0.084,0.004,-0.002
-1.98E+01,0.104,0.128,0.004,0.012
-1.98E+01,0.104,0.076,0.004,-0.004
-1.97E+01,0.104,0.128,0.004,0.012
-1.97E+01,0.104,0.076,0.004,-0.002
-1.97E+01,0.104,0.128,0.006,0.012
-1.97E+01,0.104,0.076,0.004,-0.004
-1.97E+01,0.104,0.128,0.006,0.014
-1.97E+01,0.104,0.076,0.002,-0.006
-1.97E+01,0.104,0.132,0.004,0.016
-1.97E+01,0.104,0.08,0.006,-0.004
-1.97E+01,0.104,0.128,0.006,0.014
-1.97E+01,0.104,0.076,0.004,-0.002
-1.97E+01,0.108,0.128,0.004,0.014
-1.97E+01,0.108,0.084,0.004,-0.002
-1.97E+01,0.108,0.132,0.004,0.014
-1.96E+01,0.108,0.076,0.004,-0.004
-1.96E+01,0.108,0.132,0.006,0.014
-1.96E+01,0.108,0.084,0.006,-0.002
-1.96E+01,0.108,0.132,0.006,0.012
-1.96E+01,0.108,0.08,0.006,-0.004
-1.96E+01,0.108,0.132,0.004,0.014
-1.96E+01,0.108,0.088,0.006,-0.002
-1.96E+01,0.108,0.132,0.006,0.012
-1.96E+01,0.108,0.088,0.006,-0.002
-1.96E+01,0.108,0.132,0.006,0.012
-1.96E+01,0.108,0.08,0.006,-0.004
-1.96E+01,0.108,0.132,0.002,0.014
-1.96E+01,0.108,0.088,0.006,-0.002
-1.95E+01,0.108,0.136,0.006,0.012
-1.95E+01,0.108,0.08,0.006,-0.008
-1.95E+01,0.108,0.136,0.006,0.018
-1.95E+01,0.108,0.088,0.006,-0.002
-1.95E+01,0.108,0.132,0.006,0.014
-1.95E+01,0.108,0.08,0.004,-0.002
-1.95E+01,0.108,0.132,0.006,0.016
-1.95E+01,0.108,0.088,0.006,-0.002
-1.95E+01,0.108,0.136,0.008,0.012
-1.95E+01,0.112,0.084,0.006,-0.002
-1.95E+01,0.108,0.132,0.006,0.014
-1.95E+01,0.112,0.08,0.004,-0.002
-1.95E+01,0.112,0.136,0.006,0.012
-1.94E+01,0.108,0.088,0.006,-0.002
-1.94E+01,0.112,0.136,0.008,0.012
-1.94E+01,0.112,0.084,0.006,-0.002
-1.94E+01,0.112,0.136,0.006,0.014
-1.94E+01,0.112,0.092,0.006,-0.002
-1.94E+01,0.112,0.136,0.006,0.012
-1.94E+01,0.112,0.084,0.006,-0.004
-1.94E+01,0.112,0.136,0.006,0.016
-1.94E+01,0.112,0.08,0.006,-0.004
-1.94E+01,0.112,0.136,0.006,0.016
-1.94E+01,0.112,0.084,0.006,-0.002
-1.94E+01,0.112,0.136,0.004,0.016
-1.94E+01,0.112,0.084,0.006,-0.002
-1.93E+01,0.112,0.136,0.006,0.014
-1.93E+01,0.112,0.084,0.006,-0.004
-1.93E+01,0.112,0.136,0.006,0.016
-1.93E+01,0.112,0.084,0.006,-0.002
-1.93E+01,0.112,0.136,0.004,0.012
-1.93E+01,0.112,0.088,0.006,-0.002
-1.93E+01,0.112,0.14,0.006,0.012
-1.93E+01,0.112,0.084,0.006,-0.002
-1.93E+01,0.112,0.14,0.006,0.012
-1.93E+01,0.112,0.092,0.006,-0.002
-1.93E+01,0.112,0.14,0.006,0.014
-1.93E+01,0.112,0.084,0.004,-0.002
-1.93E+01,0.112,0.136,0.006,0.014
-1.92E+01,0.112,0.092,0.006,-0.002
-1.92E+01,0.112,0.136,0.006,0.014
-1.92E+01,0.112,0.084,0.006,-0.002
-1.92E+01,0.116,0.14,0.006,0.014
-1.92E+01,0.116,0.088,0.006,-0.01
-1.92E+01,0.116,0.14,0.006,0.018
-1.92E+01,0.116,0.088,0.006,-2.38E-09
-1.92E+01,0.116,0.14,0.008,0.016
-1.92E+01,0.116,0.088,0.006,-0.002
-1.92E+01,0.116,0.14,0.006,0.016
-1.92E+01,0.116,0.096,0.006,-0.002
-1.92E+01,0.116,0.14,0.006,0.012
-1.92E+01,0.116,0.088,0.006,-0.002
-1.91E+01,0.116,0.14,0.006,0.014
-1.91E+01,0.116,0.096,0.006,-0.002
-1.91E+01,0.116,0.14,0.006,0.012
-1.91E+01,0.116,0.088,0.006,-0.004
-1.91E+01,0.116,0.14,0.006,0.012
-1.91E+01,0.116,0.088,0.006,-0.002
-1.91E+01,0.116,0.14,0.006,0.014
-1.91E+01,0.116,0.096,0.006,-0.002
-1.91E+01,0.116,0.14,0.006,0.012
-1.91E+01,0.116,0.088,0.006,-0.002
-1.91E+01,0.116,0.144,0.006,0.014
-1.91E+01,0.116,0.096,0.006,-0.006
-1.91E+01,0.116,0.144,0.006,0.018
-1.90E+01,0.12,0.088,0.008,-0.002
-1.90E+01,0.12,0.144,0.006,0.016
-1.90E+01,0.116,0.096,0.008,-0.002
-1.90E+01,0.12,0.144,0.006,0.016
-1.90E+01,0.12,0.092,0.006,-0.002
-1.90E+01,0.12,0.14,0.006,0.012
-1.90E+01,0.12,0.088,0.006,-2.38E-09
-1.90E+01,0.12,0.144,0.008,0.016
-1.90E+01,0.12,0.092,0.008,-0.002
-1.90E+01,0.12,0.144,0.006,0.014
-1.90E+01,0.12,0.092,0.006,-0.002
-1.90E+01,0.12,0.144,0.006,0.016
-1.90E+01,0.12,0.092,0.006,-2.38E-09
-1.89E+01,0.12,0.144,0.008,0.014
-1.89E+01,0.12,0.092,0.008,-2.38E-09
-1.89E+01,0.12,0.144,0.008,0.016
-1.89E+01,0.12,0.1,0.006,-0.002
-1.89E+01,0.12,0.144,0.006,0.016
-1.89E+01,0.12,0.092,0.006,-0.004
-1.89E+01,0.12,0.144,0.008,0.02
-1.89E+01,0.12,0.096,0.006,-0.006
-1.89E+01,0.12,0.148,0.008,0.016
-1.89E+01,0.12,0.092,0.006,-0.002
-1.89E+01,0.12,0.148,0.006,0.016
-1.89E+01,0.12,0.092,0.006,-0.002
-1.89E+01,0.12,0.144,0.006,0.016
-1.88E+01,0.12,0.096,0.008,-0.002
-1.88E+01,0.12,0.148,0.008,0.014
-1.88E+01,0.12,0.092,0.006,-0.002
-1.88E+01,0.124,0.148,0.006,0.014
-1.88E+01,0.124,0.096,0.008,-2.38E-09
-1.88E+01,0.124,0.148,0.006,0.016
-1.88E+01,0.124,0.096,0.008,-2.38E-09
-1.88E+01,0.124,0.148,0.006,0.014
-1.88E+01,0.124,0.1,0.008,-2.38E-09
-1.88E+01,0.124,0.148,0.006,0.014
-1.88E+01,0.124,0.096,0.008,-2.38E-09
-1.88E+01,0.124,0.148,0.008,0.016
-1.88E+01,0.124,0.1,0.008,-2.38E-09
-1.87E+01,0.124,0.148,0.008,0.016
-1.87E+01,0.124,0.096,0.008,-0.006
-1.87E+01,0.124,0.148,0.008,0.022
-1.87E+01,0.124,0.1,0.008,-2.38E-09
-1.87E+01,0.124,0.148,0.008,0.018
-1.87E+01,0.124,0.096,0.008,-2.38E-09
-1.87E+01,0.124,0.152,0.01,0.018
-1.87E+01,0.124,0.096,0.008,-2.38E-09
-1.87E+01,0.124,0.148,0.008,0.016
-1.87E+01,0.124,0.104,0.008,-2.38E-09
-1.87E+01,0.124,0.152,0.008,0.016
-1.87E+01,0.124,0.096,0.008,-2.38E-09
-1.87E+01,0.124,0.148,0.01,0.016
-1.86E+01,0.124,0.104,0.008,0.002
-1.86E+01,0.124,0.152,0.008,0.016
-1.86E+01,0.124,0.096,0.008,-2.38E-09
-1.86E+01,0.128,0.152,0.008,0.016
-1.86E+01,0.128,0.1,0.008,-2.38E-09
-1.86E+01,0.128,0.152,0.008,0.016
-1.86E+01,0.128,0.1,0.01,-2.38E-09
-1.86E+01,0.128,0.148,0.008,0.018
-1.86E+01,0.128,0.096,0.008,-2.38E-09
-1.86E+01,0.128,0.152,0.008,0.02
-1.86E+01,0.128,0.104,0.008,-0.008
-1.86E+01,0.128,0.152,0.008,0.02
-1.86E+01,0.128,0.1,0.01,-2.38E-09
-1.85E+01,0.128,0.156,0.008,0.018
-1.85E+01,0.128,0.104,0.008,-2.38E-09
-1.85E+01,0.128,0.152,0.008,0.018
-1.85E+01,0.128,0.1,0.008,-2.38E-09
-1.85E+01,0.128,0.152,0.008,0.014
-1.85E+01,0.128,0.1,0.008,-2.38E-09
-1.85E+01,0.128,0.152,0.008,0.016
-1.85E+01,0.128,0.1,0.008,-2.38E-09
-1.85E+01,0.128,0.152,0.008,0.016
-1.85E+01,0.128,0.1,0.008,0.002
-1.85E+01,0.128,0.156,0.008,0.016
-1.85E+01,0.128,0.104,0.008,-2.38E-09
-1.85E+01,0.128,0.152,0.008,0.016
-1.84E+01,0.128,0.1,0.008,-2.38E-09
-1.84E+01,0.128,0.156,0.008,0.016
-1.84E+01,0.128,0.104,0.008,-0.002
-1.84E+01,0.128,0.156,0.008,0.02
-1.84E+01,0.132,0.1,0.008,-0.002
-1.84E+01,0.132,0.156,0.01,0.02
-1.84E+01,0.132,0.108,0.008,-2.38E-09
-1.84E+01,0.132,0.156,0.008,0.018
-1.84E+01,0.132,0.1,0.006,-2.38E-09
-1.84E+01,0.132,0.156,0.008,0.018
-1.84E+01,0.132,0.104,0.01,-2.38E-09
-1.84E+01,0.132,0.156,0.008,0.014
-1.84E+01,0.132,0.1,0.008,-2.38E-09
-1.83E+01,0.132,0.156,0.008,0.016
-1.83E+01,0.132,0.104,0.008,0.002
-1.83E+01,0.132,0.156,0.008,0.016
-1.83E+01,0.132,0.104,0.008,0.002
-1.83E+01,0.132,0.16,0.008,0.016
-1.83E+01,0.132,0.104,0.01,0.002
-1.83E+01,0.132,0.156,0.01,0.016
-1.83E+01,0.132,0.108,0.008,-2.38E-09
-1.83E+01,0.132,0.156,0.008,0.016
-1.83E+01,0.132,0.104,0.008,-2.38E-09
-1.83E+01,0.132,0.156,0.01,0.018
-1.83E+01,0.132,0.112,0.01,-0.004
-1.83E+01,0.132,0.16,0.01,0.02
-1.82E+01,0.132,0.104,0.01,-2.38E-09
-1.82E+01,0.136,0.156,0.01,0.016
-1.82E+01,0.132,0.112,0.008,-2.38E-09
-1.82E+01,0.132,0.16,0.008,0.018
-1.82E+01,0.136,0.112,0.01,0.002
-1.82E+01,0.132,0.16,0.01,0.016
-1.82E+01,0.136,0.104,0.01,-2.38E-09
-1.82E+01,0.136,0.16,0.008,0.016
-1.82E+01,0.136,0.112,0.008,0.002
-1.82E+01,0.136,0.16,0.01,0.018
-1.82E+01,0.136,0.104,0.01,0.002
-1.82E+01,0.136,0.16,0.012,0.018
-1.82E+01,0.136,0.112,0.01,0.002
-1.81E+01,0.136,0.16,0.01,0.018
-1.81E+01,0.136,0.108,0.008,0.002
-1.81E+01,0.136,0.156,0.01,0.018
-1.81E+01,0.136,0.108,0.01,0.002
-1.81E+01,0.136,0.16,0.01,0.02
-1.81E+01,0.136,0.108,0.01,-0.002
-1.81E+01,0.136,0.16,0.01,0.022
-1.81E+01,0.136,0.108,0.01,-2.38E-09
-1.81E+01,0.136,0.16,0.01,0.02
-1.81E+01,0.136,0.112,0.01,0.002
-1.81E+01,0.136,0.16,0.01,0.018
-1.81E+01,0.136,0.108,0.012,0.002
-1.81E+01,0.136,0.164,0.01,0.02
-1.80E+01,0.136,0.112,0.01,0.002
-1.80E+01,0.136,0.164,0.01,0.018
-1.80E+01,0.136,0.108,0.01,0.002
-1.80E+01,0.136,0.16,0.01,0.018
-1.80E+01,0.14,0.112,0.012,0.004
-1.80E+01,0.14,0.164,0.01,0.018
-1.80E+01,0.14,0.108,0.01,0.002
-1.80E+01,0.14,0.16,0.01,0.018
-1.80E+01,0.14,0.108,0.01,0.004
-1.80E+01,0.14,0.164,0.012,0.018
-1.80E+01,0.14,0.112,0.012,0.004
-1.80E+01,0.14,0.16,0.012,0.02
-1.80E+01,0.14,0.108,0.01,0.002
-1.79E+01,0.14,0.164,0.01,0.018
-1.79E+01,0.14,0.112,0.01,-0.006
-1.79E+01,0.14,0.164,0.01,0.022
-1.79E+01,0.14,0.108,0.012,0.004
-1.79E+01,0.14,0.164,0.012,0.02
-1.79E+01,0.14,0.116,0.012,0.002
-1.79E+01,0.14,0.164,0.012,0.022
-1.79E+01,0.14,0.108,0.01,0.004
-1.79E+01,0.14,0.164,0.012,0.02
-1.79E+01,0.14,0.116,0.012,0.004
-1.79E+01,0.14,0.164,0.014,0.018
-1.79E+01,0.14,0.112,0.012,0.004
-1.79E+01,0.14,0.168,0.012,0.02
-1.78E+01,0.14,0.112,0.012,0.004
-1.78E+01,0.14,0.164,0.012,0.02
-1.78E+01,0.14,0.112,0.012,0.004
-1.78E+01,0.14,0.168,0.012,0.02
-1.78E+01,0.144,0.112,0.014,0.002
-1.78E+01,0.14,0.168,0.012,0.02
-1.78E+01,0.144,0.116,0.012,0.004
-1.78E+01,0.144,0.168,0.01,0.022
-1.78E+01,0.144,0.112,0.012,0.002
-1.78E+01,0.144,0.164,0.012,0.024
-1.78E+01,0.144,0.12,0.014,0.004
-1.78E+01,0.144,0.168,0.012,0.02
-1.78E+01,0.144,0.112,0.012,0.002
-1.78E+01,0.144,0.168,0.01,0.02
-1.77E+01,0.144,0.116,0.012,0.004
-1.77E+01,0.144,0.168,0.012,0.02
-1.77E+01,0.144,0.116,0.014,0.006
-1.77E+01,0.144,0.168,0.014,0.02
-1.77E+01,0.144,0.112,0.014,0.004
-1.77E+01,0.144,0.168,0.014,0.02
-1.77E+01,0.144,0.124,0.012,0.006
-1.77E+01,0.144,0.172,0.014,0.02
-1.77E+01,0.144,0.116,0.012,0.006
-1.77E+01,0.144,0.168,0.014,0.02
-1.77E+01,0.144,0.124,0.014,0.006
-1.77E+01,0.144,0.168,0.014,0.02
-1.77E+01,0.144,0.116,0.012,0.004
-1.76E+01,0.148,0.168,0.014,0.022
-1.76E+01,0.144,0.116,0.014,-2.38E-09
-1.76E+01,0.148,0.172,0.014,0.028
-1.76E+01,0.144,0.12,0.014,0.002
-1.76E+01,0.148,0.168,0.012,0.024
-1.76E+01,0.148,0.116,0.012,0.006
-1.76E+01,0.148,0.172,0.012,0.022
-1.76E+01,0.148,0.12,0.014,0.006
-1.76E+01,0.148,0.172,0.014,0.026
-1.76E+01,0.148,0.116,0.014,0.006
-1.76E+01,0.148,0.168,0.014,0.022
-1.76E+01,0.148,0.12,0.014,0.006
-1.76E+01,0.148,0.172,0.014,0.022
-1.75E+01,0.148,0.12,0.014,0.006
-1.75E+01,0.148,0.172,0.014,0.022
-1.75E+01,0.148,0.124,0.016,0.008
-1.75E+01,0.148,0.172,0.014,0.022
-1.75E+01,0.148,0.12,0.014,0.006
-1.75E+01,0.148,0.172,0.014,0.022
-1.75E+01,0.148,0.12,0.014,0.006
-1.75E+01,0.148,0.168,0.014,0.024
-1.75E+01,0.148,0.12,0.016,0.006
-1.75E+01,0.148,0.172,0.014,0.022
-1.75E+01,0.148,0.12,0.016,0.004
-1.75E+01,0.148,0.172,0.016,0.026
-1.75E+01,0.148,0.124,0.016,0.008
-1.74E+01,0.148,0.176,0.014,0.024
-1.74E+01,0.148,0.12,0.014,0.006
-1.74E+01,0.148,0.172,0.016,0.024
-1.74E+01,0.152,0.128,0.016,0.008
-1.74E+01,0.152,0.176,0.016,0.022
-1.74E+01,0.148,0.12,0.014,0.006
-1.74E+01,0.152,0.176,0.016,0.024
-1.74E+01,0.152,0.128,0.016,0.008
-1.74E+01,0.152,0.172,0.016,0.022
-1.74E+01,0.152,0.12,0.018,0.008
-1.74E+01,0.152,0.176,0.016,0.024
-1.74E+01,0.152,0.128,0.014,0.008
-1.74E+01,0.152,0.176,0.016,0.022
-1.73E+01,0.152,0.124,0.016,0.008
-1.73E+01,0.152,0.176,0.018,0.024
-1.73E+01,0.152,0.124,0.016,0.008
-1.73E+01,0.152,0.176,0.016,0.026
-1.73E+01,0.152,0.132,0.016,0.006
-1.73E+01,0.152,0.176,0.016,0.026
-1.73E+01,0.152,0.124,0.016,-2.38E-09
-1.73E+01,0.152,0.176,0.016,0.026
-1.73E+01,0.152,0.132,0.018,0.008
-1.73E+01,0.152,0.176,0.016,0.026
-1.73E+01,0.152,0.12,0.016,0.008
-1.73E+01,0.152,0.176,0.016,0.028
-1.73E+01,0.152,0.128,0.016,0.008
-1.72E+01,0.152,0.18,0.016,0.026
-1.72E+01,0.152,0.128,0.02,0.01
-1.72E+01,0.152,0.176,0.018,0.026
-1.72E+01,0.152,0.12,0.018,0.01
-1.72E+01,0.152,0.18,0.016,0.026
-1.72E+01,0.156,0.132,0.016,0.01
-1.72E+01,0.156,0.18,0.018,0.024
-1.72E+01,0.156,0.124,0.018,0.01
-1.72E+01,0.156,0.176,0.02,0.026
-1.72E+01,0.156,0.132,0.018,0.01
-1.72E+01,0.156,0.18,0.018,0.028
-1.72E+01,0.156,0.128,0.016,0.01
-1.72E+01,0.156,0.18,0.018,0.026
-1.71E+01,0.156,0.124,0.018,0.006
-1.71E+01,0.156,0.18,0.02,0.03
-1.71E+01,0.156,0.128,0.018,0.01
-1.71E+01,0.156,0.18,0.018,0.026
-1.71E+01,0.156,0.124,0.016,0.01
-1.71E+01,0.156,0.18,0.018,0.028
-1.71E+01,0.156,0.128,0.018,0.01
-1.71E+01,0.156,0.18,0.022,0.026
-1.71E+01,0.156,0.128,0.018,0.01
-1.71E+01,0.156,0.18,0.018,0.024
-1.71E+01,0.156,0.132,0.018,0.01
-1.71E+01,0.156,0.18,0.018,0.026
-1.71E+01,0.156,0.128,0.018,0.01
-1.70E+01,0.156,0.184,0.018,0.026
-1.70E+01,0.156,0.132,0.018,0.01
-1.70E+01,0.156,0.184,0.018,0.024
-1.70E+01,0.156,0.128,0.018,0.01
-1.70E+01,0.16,0.18,0.016,0.024
-1.70E+01,0.156,0.136,0.018,0.01
-1.70E+01,0.156,0.18,0.018,0.028
-1.70E+01,0.156,0.128,0.02,0.006
-1.70E+01,0.156,0.184,0.018,0.03
-1.70E+01,0.16,0.128,0.018,0.01
-1.70E+01,0.16,0.18,0.016,0.026
-1.70E+01,0.16,0.132,0.018,0.008
-1.70E+01,0.16,0.184,0.018,0.028
-1.69E+01,0.16,0.132,0.02,0.008
-1.69E+01,0.16,0.184,0.018,0.026
-1.69E+01,0.16,0.136,0.018,0.01
-1.69E+01,0.16,0.184,0.018,0.026
-1.69E+01,0.16,0.128,0.018,0.01
-1.69E+01,0.16,0.184,0.018,0.026
-1.69E+01,0.16,0.136,0.018,0.012
-1.69E+01,0.16,0.188,0.02,0.026
-1.69E+01,0.16,0.128,0.018,0.01
-1.69E+01,0.16,0.184,0.018,0.028
-1.69E+01,0.16,0.14,0.018,0.012
-1.69E+01,0.16,0.184,0.02,0.026
-1.69E+01,0.16,0.136,0.02,0.012
-1.68E+01,0.16,0.188,0.02,0.028
-1.68E+01,0.16,0.132,0.02,0.01
-1.68E+01,0.16,0.184,0.02,0.03
-1.68E+01,0.16,0.14,0.018,0.01
-1.68E+01,0.16,0.188,0.02,0.03
-1.68E+01,0.16,0.132,0.02,0.012
-1.68E+01,0.164,0.184,0.02,0.028
-1.68E+01,0.16,0.14,0.02,0.01
-1.68E+01,0.16,0.188,0.022,0.03
-1.68E+01,0.16,0.136,0.02,0.014
-1.68E+01,0.16,0.184,0.02,0.028
-1.68E+01,0.164,0.132,0.02,0.012
-1.68E+01,0.164,0.188,0.02,0.028
-1.67E+01,0.164,0.136,0.022,0.012
-1.67E+01,0.164,0.188,0.02,0.028
-1.67E+01,0.164,0.136,0.022,0.012
-1.67E+01,0.164,0.188,0.018,0.028
-1.67E+01,0.164,0.136,0.02,0.012
-1.67E+01,0.164,0.188,0.02,0.028
-1.67E+01,0.164,0.132,0.022,0.012
-1.67E+01,0.164,0.188,0.022,0.028
-1.67E+01,0.164,0.14,0.022,0.012
-1.67E+01,0.164,0.188,0.022,0.03
-1.67E+01,0.164,0.136,0.02,0.002
-1.67E+01,0.164,0.188,0.02,0.034
-1.67E+01,0.164,0.14,0.022,0.014
-1.66E+01,0.164,0.192,0.022,0.03
-1.66E+01,0.164,0.136,0.022,0.012
-1.66E+01,0.164,0.188,0.022,0.03
-1.66E+01,0.164,0.136,0.02,0.014
-1.66E+01,0.164,0.192,0.022,0.028
-1.66E+01,0.164,0.14,0.022,0.012
-1.66E+01,0.164,0.188,0.022,0.028
-1.66E+01,0.164,0.136,0.022,0.016
-1.66E+01,0.164,0.188,0.022,0.03
-1.66E+01,0.168,0.136,0.02,0.014
-1.66E+01,0.164,0.192,0.022,0.03
-1.66E+01,0.168,0.136,0.022,0.016
-1.66E+01,0.168,0.192,0.024,0.032
-1.65E+01,0.168,0.144,0.022,0.014
-1.65E+01,0.168,0.192,0.022,0.03
-1.65E+01,0.168,0.136,0.022,0.014
-1.65E+01,0.168,0.192,0.022,0.032
-1.65E+01,0.168,0.144,0.022,0.012
-1.65E+01,0.168,0.192,0.022,0.034
-1.65E+01,0.168,0.136,0.024,0.014
-1.65E+01,0.168,0.192,0.024,0.034
-1.65E+01,0.168,0.144,0.022,0.016
-1.65E+01,0.168,0.192,0.022,0.03
-1.65E+01,0.168,0.14,0.022,0.014
-1.65E+01,0.168,0.192,0.024,0.032
-1.65E+01,0.168,0.14,0.024,0.014
-1.64E+01,0.168,0.192,0.022,0.03
-1.64E+01,0.168,0.148,0.024,0.016
-1.64E+01,0.168,0.196,0.022,0.032
-1.64E+01,0.168,0.14,0.022,0.014
-1.64E+01,0.168,0.192,0.022,0.03
-1.64E+01,0.168,0.148,0.024,0.016
-1.64E+01,0.168,0.196,0.024,0.03
-1.64E+01,0.168,0.14,0.024,0.016
-1.64E+01,0.172,0.196,0.024,0.032
-1.64E+01,0.172,0.148,0.022,0.016
-1.64E+01,0.172,0.192,0.024,0.034
-1.64E+01,0.172,0.144,0.024,0.014
-1.64E+01,0.172,0.192,0.026,0.036
-1.63E+01,0.172,0.14,0.024,0.014
-1.63E+01,0.172,0.196,0.024,0.032
-1.63E+01,0.172,0.148,0.024,0.018
-1.63E+01,0.172,0.196,0.024,0.032
-1.63E+01,0.172,0.14,0.024,0.016
-1.63E+01,0.172,0.196,0.026,0.034
-1.63E+01,0.172,0.148,0.024,0.016
-1.63E+01,0.172,0.196,0.024,0.032
-1.63E+01,0.172,0.144,0.024,0.016
-1.63E+01,0.172,0.196,0.024,0.032
-1.63E+01,0.172,0.14,0.024,0.016
-1.63E+01,0.172,0.196,0.024,0.032
-1.63E+01,0.172,0.144,0.026,0.016
-1.62E+01,0.172,0.196,0.026,0.032
-1.62E+01,0.172,0.144,0.026,0.018
-1.62E+01,0.172,0.196,0.024,0.032
-1.62E+01,0.172,0.148,0.024,0.018
-1.62E+01,0.172,0.196,0.026,0.034
-1.62E+01,0.172,0.144,0.026,0.018
-1.62E+01,0.172,0.196,0.026,0.034
-1.62E+01,0.172,0.148,0.026,0.014
-1.62E+01,0.172,0.2,0.024,0.038
-1.62E+01,0.172,0.144,0.026,0.02
-1.62E+01,0.172,0.196,0.026,0.036
-1.62E+01,0.176,0.152,0.028,0.018
-1.62E+01,0.176,0.2,0.028,0.038
-1.61E+01,0.176,0.144,0.026,0.018
-1.61E+01,0.176,0.196,0.026,0.034
-1.61E+01,0.176,0.148,0.026,0.02
-1.61E+01,0.176,0.196,0.028,0.034
-1.61E+01,0.176,0.144,0.028,0.02
-1.61E+01,0.176,0.2,0.028,0.036
-1.61E+01,0.176,0.144,0.028,0.018
-1.61E+01,0.176,0.196,0.028,0.036
-1.61E+01,0.176,0.148,0.026,0.02
-1.61E+01,0.176,0.2,0.028,0.036
-1.61E+01,0.176,0.144,0.028,0.02
-1.61E+01,0.176,0.2,0.03,0.034
-1.61E+01,0.176,0.156,0.028,0.02
-1.60E+01,0.176,0.2,0.028,0.038
-1.60E+01,0.176,0.148,0.026,0.016
-1.60E+01,0.176,0.2,0.028,0.04
-1.60E+01,0.176,0.156,0.028,0.012
-1.60E+01,0.176,0.2,0.028,0.038
-1.60E+01,0.176,0.148,0.03,0.02
-1.60E+01,0.176,0.2,0.028,0.038
-1.60E+01,0.176,0.156,0.028,0.02
-1.60E+01,0.176,0.2,0.028,0.04
-1.60E+01,0.176,0.148,0.028,0.02
-1.60E+01,0.176,0.2,0.028,0.036
-1.60E+01,0.176,0.148,0.028,0.022
-1.60E+01,0.176,0.2,0.03,0.036
-1.59E+01,0.176,0.156,0.028,0.022
-1.59E+01,0.18,0.204,0.028,0.036
-1.59E+01,0.18,0.148,0.028,0.02
-1.59E+01,0.18,0.204,0.028,0.036
-1.59E+01,0.18,0.156,0.03,0.022
-1.59E+01,0.18,0.204,0.03,0.036
-1.59E+01,0.18,0.152,0.03,0.02
-1.59E+01,0.18,0.204,0.028,0.038
-1.59E+01,0.18,0.156,0.028,0.022
-1.59E+01,0.18,0.204,0.03,0.036
-1.59E+01,0.18,0.152,0.03,0.018
-1.59E+01,0.18,0.204,0.03,0.042
-1.59E+01,0.18,0.152,0.032,0.022
-1.58E+01,0.18,0.204,0.032,0.038
-1.58E+01,0.18,0.152,0.03,0.022
-1.58E+01,0.18,0.204,0.03,0.04
-1.58E+01,0.18,0.152,0.03,0.022
-1.58E+01,0.18,0.204,0.032,0.038
-1.58E+01,0.18,0.16,0.03,0.022
-1.58E+01,0.18,0.204,0.032,0.038
-1.58E+01,0.18,0.152,0.03,0.024
-1.58E+01,0.18,0.204,0.03,0.038
-1.58E+01,0.18,0.156,0.03,0.022
-1.58E+01,0.18,0.208,0.032,0.04
-1.58E+01,0.184,0.156,0.032,0.024
-1.58E+01,0.18,0.208,0.032,0.038
-1.57E+01,0.18,0.152,0.032,0.024
-1.57E+01,0.184,0.208,0.032,0.038
-1.57E+01,0.184,0.156,0.032,0.024
-1.57E+01,0.184,0.204,0.032,0.042
-1.57E+01,0.184,0.152,0.034,0.022
-1.57E+01,0.184,0.204,0.032,0.044
-1.57E+01,0.184,0.156,0.034,0.024
-1.57E+01,0.184,0.208,0.032,0.042
-1.57E+01,0.184,0.152,0.032,0.024
-1.57E+01,0.184,0.208,0.034,0.042
-1.57E+01,0.184,0.164,0.034,0.026
-1.57E+01,0.184,0.208,0.034,0.044
-1.57E+01,0.184,0.152,0.034,0.024
-1.56E+01,0.184,0.208,0.032,0.04
-1.56E+01,0.184,0.16,0.034,0.026
-1.56E+01,0.184,0.208,0.034,0.04
-1.56E+01,0.184,0.156,0.034,0.026
-1.56E+01,0.184,0.208,0.034,0.042
-1.56E+01,0.184,0.156,0.034,0.026
-1.56E+01,0.184,0.208,0.034,0.04
-1.56E+01,0.184,0.156,0.032,0.026
-1.56E+01,0.184,0.208,0.034,0.042
-1.56E+01,0.184,0.156,0.034,0.026
-1.56E+01,0.184,0.208,0.034,0.042
-1.56E+01,0.184,0.16,0.034,0.024
-1.56E+01,0.184,0.208,0.034,0.046
-1.55E+01,0.184,0.16,0.034,0.026
-1.55E+01,0.184,0.208,0.034,0.042
-1.55E+01,0.188,0.164,0.034,0.028
