lab05/data/ice_water_reverse_0000nA.CSV

Model,DPO2012,,,
Firmware Version,1.39,,,
,,,,
Point Format,Y,,,
Horizontal Units,S,,,
Horizontal Scale,4,,,
Sample Interval,0.00768049,,,
Filter Frequency,14,,,
Record Length,5200,,,
Gating,0.0% to 100.0%,,0.0% to 100.0%,
Probe Attenuation,1,,1,
Vertical Units,V,,V,
Vertical Offset,0,,0,
Vertical Scale,0.1,,0.5,
Label,,,,
TIME,CH1,CH1 Peak Detect,CH2,CH2 Peak Detect
-2.00E+01,-0.04,0.008,-0.85,-0.65
-2.00E+01,-0.04,-0.088,-0.83,-1.05
-2.00E+01,-0.04,-0.004,-0.83,-0.65
-2.00E+01,-0.04,-0.092,-0.83,-1.05
-2.00E+01,-0.04,0.008,-0.85,-0.63
-2.00E+01,-0.04,-0.096,-0.85,-1.07
-2.00E+01,-0.04,2.86E-09,-0.85,-0.63
-1.99E+01,-0.04,-0.088,-0.85,-1.07
-1.99E+01,-0.04,0.008,-0.87,-0.65
-1.99E+01,-0.04,-0.096,-0.87,-1.07
-1.99E+01,-0.04,2.86E-09,-0.85,-0.67
-1.99E+01,-0.04,-0.088,-0.85,-1.03
-1.99E+01,-0.04,0.008,-0.83,-0.65
-1.99E+01,-0.04,-0.092,-0.81,-1.03
-1.99E+01,-0.04,0.004,-0.77,-0.61
-1.99E+01,-0.04,-0.088,-0.75,-0.99
-1.99E+01,-0.04,0.008,-0.73,-0.55
-1.99E+01,-0.04,-0.088,-0.71,-0.93
-1.99E+01,-0.04,0.004,-0.67,-0.49
-1.99E+01,-0.04,-0.092,-0.65,-0.87
-1.98E+01,-0.04,0.008,-0.65,-0.45
-1.98E+01,-0.04,-0.084,-0.63,-0.83
-1.98E+01,-0.04,0.012,-0.61,-0.41
-1.98E+01,-0.04,-0.092,-0.59,-0.81
-1.98E+01,-0.04,0.004,-0.59,-0.39
-1.98E+01,-0.04,-0.088,-0.57,-0.77
-1.98E+01,-0.04,0.008,-0.55,-0.37
-1.98E+01,-0.04,-0.092,-0.55,-0.75
-1.98E+01,-0.04,0.004,-0.53,-0.35
-1.98E+01,-0.04,-0.084,-0.51,-0.71
-1.98E+01,-0.04,0.012,-0.51,-0.33
-1.98E+01,-0.04,-0.092,-0.49,-0.69
-1.98E+01,-0.04,2.86E-09,-0.49,-0.31
-1.97E+01,-0.04,-0.092,-0.47,-0.67
-1.97E+01,-0.04,0.012,-0.47,-0.29
-1.97E+01,-0.04,-0.088,-0.47,-0.65
-1.97E+01,-0.04,0.004,-0.45,-0.27
-1.97E+01,-0.04,-0.092,-0.45,-0.65
-1.97E+01,-0.04,0.008,-0.45,-0.25
-1.97E+01,-0.04,-0.092,-0.45,-0.65
-1.97E+01,-0.04,0.008,-0.45,-0.25
-1.97E+01,-0.04,-0.096,-0.47,-0.65
-1.97E+01,-0.04,0.004,-0.47,-0.27
-1.97E+01,-0.04,-0.088,-0.47,-0.67
-1.97E+01,-0.04,0.012,-0.47,-0.27
-1.97E+01,-0.04,-0.092,-0.47,-0.67
-1.96E+01,-0.04,0.004,-0.47,-0.27
-1.96E+01,-0.04,-0.084,-0.47,-0.67
-1.96E+01,-0.04,0.012,-0.47,-0.27
-1.96E+01,-0.04,-0.092,-0.47,-0.67
-1.96E+01,-0.04,0.004,-0.47,-0.27
-1.96E+01,-0.04,-0.092,-0.45,-0.65
-1.96E+01,-0.04,0.004,-0.45,-0.25
-1.96E+01,-0.04,-0.092,-0.45,-0.65
-1.96E+01,-0.04,0.012,-0.43,-0.25
-1.96E+01,-0.04,-0.092,-0.43,-0.63
-1.96E+01,-0.04,0.004,-0.41,-0.23
-1.96E+01,-0.04,-0.084,-0.41,-0.61
-1.96E+01,-0.04,0.012,-0.39,-0.23
-1.95E+01,-0.04,-0.092,-0.39,-0.59
-1.95E+01,-0.04,0.004,-0.37,-0.19
-1.95E+01,-0.04,-0.084,-0.37,-0.57
-1.95E+01,-0.04,0.012,-0.37,-0.17
-1.95E+01,-0.04,-0.092,-0.37,-0.59
-1.95E+01,-0.04,0.004,-0.37,-0.17
-1.95E+01,-0.04,-0.084,-0.37,-0.57
-1.95E+01,-0.04,0.012,-0.37,-0.17
-1.95E+01,-0.036,-0.092,-0.37,-0.55
-1.95E+01,-0.036,0.012,-0.35,-0.17
-1.95E+01,-0.036,-0.084,-0.35,-0.55
-1.95E+01,-0.036,0.008,-0.35,-0.15
-1.95E+01,-0.036,-0.084,-0.35,-0.55
-1.94E+01,-0.036,0.012,-0.35,-0.15
-1.94E+01,-0.036,-0.092,-0.33,-0.53
-1.94E+01,-0.036,0.008,-0.33,-0.15
-1.94E+01,-0.036,-0.084,-0.33,-0.53
-1.94E+01,-0.036,0.012,-0.33,-0.13
-1.94E+01,-0.036,-0.092,-0.33,-0.53
-1.94E+01,-0.036,0.004,-0.33,-0.13
-1.94E+01,-0.036,-0.084,-0.33,-0.53
-1.94E+01,-0.036,0.012,-0.31,-0.13
-1.94E+01,-0.036,-0.084,-0.31,-0.51
-1.94E+01,-0.036,2.86E-09,-0.31,-0.11
-1.94E+01,-0.036,-0.088,-0.29,-0.49
-1.94E+01,-0.036,0.016,-0.29,-0.09
-1.93E+01,-0.036,-0.088,-0.29,-0.47
-1.93E+01,-0.036,0.008,-0.27,-0.09
-1.93E+01,-0.036,-0.092,-0.27,-0.45
-1.93E+01,-0.036,0.012,-0.25,-0.07
-1.93E+01,-0.036,-0.084,-0.25,-0.43
-1.93E+01,-0.036,0.012,-0.23,-0.05
-1.93E+01,-0.036,-0.088,-0.23,-0.43
-1.93E+01,-0.036,0.008,-0.21,-0.03
-1.93E+01,-0.036,-0.084,-0.21,-0.43
-1.93E+01,-0.036,0.012,-0.21,-0.00999999
-1.93E+01,-0.036,-0.088,-0.19,-0.39
-1.93E+01,-0.036,0.004,-0.19,0.01
-1.93E+01,-0.036,-0.088,-0.17,-0.37
-1.92E+01,-0.036,0.016,-0.17,0.03
-1.92E+01,-0.036,-0.088,-0.17,-0.37
-1.92E+01,-0.036,0.004,-0.17,0.05
-1.92E+01,-0.036,-0.088,-0.15,-0.37
-1.92E+01,-0.036,0.008,-0.17,0.05
-1.92E+01,-0.036,-0.084,-0.15,-0.35
-1.92E+01,-0.036,0.016,-0.15,0.03
-1.92E+01,-0.036,-0.088,-0.15,-0.35
-1.92E+01,-0.036,0.008,-0.17,0.05
-1.92E+01,-0.036,-0.084,-0.17,-0.37
-1.92E+01,-0.036,0.012,-0.17,0.05
-1.92E+01,-0.036,-0.088,-0.19,-0.39
-1.92E+01,-0.036,0.008,-0.19,0.03
-1.91E+01,-0.036,-0.084,-0.21,-0.41
-1.91E+01,-0.036,0.012,-0.21,0.01
-1.91E+01,-0.036,-0.088,-0.23,-0.45
-1.91E+01,-0.036,0.012,-0.27,-0.00999999
-1.91E+01,-0.036,-0.084,-0.31,-0.57
-1.91E+01,-0.036,0.012,-0.37,-0.11
-1.91E+01,-0.036,-0.088,-0.43,-0.65
-1.91E+01,-0.036,0.016,-0.47,-0.23
-1.91E+01,-0.036,-0.088,-0.51,-0.69
-1.91E+01,-0.036,0.004,-0.53,-0.31
-1.91E+01,-0.036,-0.084,-0.55,-0.75
-1.91E+01,-0.036,0.016,-0.57,-0.37
-1.91E+01,-0.036,-0.088,-0.57,-0.77
-1.90E+01,-0.036,0.008,-0.57,-0.37
-1.90E+01,-0.036,-0.08,-0.57,-0.79
-1.90E+01,-0.036,0.02,-0.57,-0.37
-1.90E+01,-0.036,-0.088,-0.57,-0.77
-1.90E+01,-0.036,0.008,-0.57,-0.37
-1.90E+01,-0.036,-0.08,-0.55,-0.77
-1.90E+01,-0.036,0.016,-0.55,-0.37
-1.90E+01,-0.032,-0.088,-0.55,-0.75
-1.90E+01,-0.032,0.012,-0.55,-0.35
-1.90E+01,-0.032,-0.084,-0.53,-0.73
-1.90E+01,-0.032,0.016,-0.53,-0.35
-1.90E+01,-0.032,-0.084,-0.53,-0.73
-1.90E+01,-0.032,0.016,-0.51,-0.33
-1.89E+01,-0.032,-0.088,-0.51,-0.71
-1.89E+01,-0.032,0.012,-0.51,-0.31
-1.89E+01,-0.032,-0.08,-0.49,-0.69
-1.89E+01,-0.032,0.02,-0.49,-0.31
-1.89E+01,-0.032,-0.088,-0.49,-0.67
-1.89E+01,-0.032,0.008,-0.47,-0.29
-1.89E+01,-0.032,-0.08,-0.47,-0.67
-1.89E+01,-0.032,0.016,-0.47,-0.27
-1.89E+01,-0.032,-0.084,-0.45,-0.67
-1.89E+01,-0.032,0.012,-0.45,-0.25
-1.89E+01,-0.032,-0.088,-0.43,-0.63
-1.89E+01,-0.032,0.02,-0.43,-0.23
-1.89E+01,-0.032,-0.08,-0.41,-0.61
-1.88E+01,-0.032,0.004,-0.41,-0.21
-1.88E+01,-0.032,-0.084,-0.39,-0.59
-1.88E+01,-0.032,0.016,-0.39,-0.19
-1.88E+01,-0.032,-0.076,-0.37,-0.57
-1.88E+01,-0.032,0.008,-0.37,-0.17
-1.88E+01,-0.032,-0.084,-0.35,-0.55
-1.88E+01,-0.032,0.012,-0.35,-0.17
-1.88E+01,-0.032,-0.08,-0.33,-0.53
-1.88E+01,-0.032,0.016,-0.33,-0.15
-1.88E+01,-0.032,-0.084,-0.31,-0.51
-1.88E+01,-0.032,0.012,-0.29,-0.13
-1.88E+01,-0.032,-0.08,-0.29,-0.47
-1.88E+01,-0.032,0.016,-0.27,-0.09
-1.87E+01,-0.032,-0.088,-0.25,-0.43
-1.87E+01,-0.032,0.012,-0.23,-0.05
-1.87E+01,-0.032,-0.08,-0.21,-0.39
-1.87E+01,-0.032,0.008,-0.19,-0.00999999
-1.87E+01,-0.032,-0.084,-0.17,-0.37
-1.87E+01,-0.032,0.02,-0.13,0.05
-1.87E+01,-0.032,-0.084,-0.11,-0.33
-1.87E+01,-0.032,0.012,-0.07,0.09
-1.87E+01,-0.032,-0.08,-0.03,-0.27
-1.87E+01,-0.032,0.02,-0.00999999,0.17
-1.87E+01,-0.032,-0.088,0.03,-0.19
-1.87E+01,-0.032,0.012,0.03,0.25
-1.87E+01,-0.032,-0.076,0.05,-0.15
-1.86E+01,-0.032,0.02,0.03,0.25
-1.86E+01,-0.032,-0.084,0.03,-0.17
-1.86E+01,-0.032,0.016,0.01,0.21
-1.86E+01,-0.032,-0.08,-0.00999999,-0.21
-1.86E+01,-0.032,0.02,-0.03,0.19
-1.86E+01,-0.032,-0.084,-0.05,-0.27
-1.86E+01,-0.032,0.02,-0.07,0.17
-1.86E+01,-0.032,-0.076,-0.09,-0.29
-1.86E+01,-0.032,0.016,-0.11,0.13
-1.86E+01,-0.032,-0.08,-0.11,-0.31
-1.86E+01,-0.032,0.02,-0.13,0.11
-1.86E+01,-0.032,-0.084,-0.13,-0.33
-1.86E+01,-0.032,0.012,-0.15,0.07
-1.85E+01,-0.032,-0.076,-0.17,-0.37
-1.85E+01,-0.032,0.02,-0.19,0.05
-1.85E+01,-0.032,-0.084,-0.19,-0.41
-1.85E+01,-0.032,0.012,-0.21,0.01
-1.85E+01,-0.032,-0.076,-0.23,-0.41
-1.85E+01,-0.032,0.02,-0.23,-0.00999999
-1.85E+01,-0.032,-0.08,-0.23,-0.43
-1.85E+01,-0.032,0.008,-0.23,-0.03
-1.85E+01,-0.032,-0.084,-0.25,-0.43
-1.85E+01,-0.032,0.02,-0.25,-0.05
-1.85E+01,-0.032,-0.076,-0.25,-0.45
-1.85E+01,-0.032,0.008,-0.25,-0.05
-1.85E+01,-0.028,-0.084,-0.25,-0.45
-1.84E+01,-0.028,0.02,-0.25,-0.05
-1.84E+01,-0.028,-0.076,-0.25,-0.45
-1.84E+01,-0.028,0.02,-0.27,-0.05
-1.84E+01,-0.028,-0.08,-0.27,-0.47
-1.84E+01,-0.028,0.016,-0.27,-0.07
-1.84E+01,-0.028,-0.076,-0.27,-0.47
-1.84E+01,-0.028,0.02,-0.29,-0.07
-1.84E+01,-0.028,-0.08,-0.29,-0.49
-1.84E+01,-0.028,0.016,-0.29,-0.07
-1.84E+01,-0.028,-0.076,-0.31,-0.51
-1.84E+01,-0.028,0.024,-0.33,-0.11
-1.84E+01,-0.028,-0.08,-0.33,-0.53
-1.84E+01,-0.028,0.016,-0.35,-0.13
-1.83E+01,-0.028,-0.084,-0.35,-0.55
-1.83E+01,-0.028,0.024,-0.35,-0.15
-1.83E+01,-0.028,-0.076,-0.37,-0.57
-1.83E+01,-0.028,0.012,-0.37,-0.17
-1.83E+01,-0.028,-0.084,-0.37,-0.57
-1.83E+01,-0.028,0.016,-0.37,-0.19
-1.83E+01,-0.028,-0.076,-0.37,-0.57
-1.83E+01,-0.028,0.024,-0.37,-0.17
-1.83E+01,-0.028,-0.084,-0.37,-0.57
-1.83E+01,-0.028,0.016,-0.37,-0.17
-1.83E+01,-0.028,-0.08,-0.37,-0.57
-1.83E+01,-0.028,0.024,-0.37,-0.17
-1.83E+01,-0.028,-0.084,-0.37,-0.57
-1.82E+01,-0.028,0.016,-0.37,-0.17
-1.82E+01,-0.028,-0.076,-0.37,-0.57
-1.82E+01,-0.028,0.024,-0.37,-0.17
-1.82E+01,-0.028,-0.08,-0.35,-0.57
-1.82E+01,-0.028,0.02,-0.35,-0.17
-1.82E+01,-0.028,-0.072,-0.35,-0.55
-1.82E+01,-0.028,0.012,-0.35,-0.17
-1.82E+01,-0.028,-0.08,-0.35,-0.55
-1.82E+01,-0.028,0.02,-0.35,-0.17
-1.82E+01,-0.028,-0.08,-0.35,-0.55
-1.82E+01,-0.028,0.016,-0.35,-0.15
-1.82E+01,-0.028,-0.076,-0.35,-0.53
-1.82E+01,-0.028,0.02,-0.33,-0.15
-1.81E+01,-0.028,-0.08,-0.33,-0.53
-1.81E+01,-0.028,0.016,-0.33,-0.13
-1.81E+01,-0.028,-0.072,-0.33,-0.51
-1.81E+01,-0.028,0.024,-0.31,-0.13
-1.81E+01,-0.028,-0.08,-0.31,-0.51
-1.81E+01,-0.028,0.016,-0.31,-0.11
-1.81E+01,-0.028,-0.072,-0.31,-0.51
-1.81E+01,-0.028,0.024,-0.31,-0.11
-1.81E+01,-0.028,-0.072,-0.29,-0.49
-1.81E+01,-0.028,0.02,-0.29,-0.09
-1.81E+01,-0.028,-0.08,-0.29,-0.49
-1.81E+01,-0.028,0.02,-0.29,-0.09
-1.81E+01,-0.028,-0.076,-0.27,-0.47
-1.80E+01,-0.028,0.02,-0.27,-0.07
-1.80E+01,-0.028,-0.08,-0.25,-0.45
-1.80E+01,-0.028,0.016,-0.23,-0.03
-1.80E+01,-0.028,-0.072,-0.23,-0.43
-1.80E+01,-0.028,0.024,-0.21,-0.03
-1.80E+01,-0.028,-0.08,-0.19,-0.39
-1.80E+01,-0.028,0.016,-0.17,-0.00999999
-1.80E+01,-0.028,-0.084,-0.13,-0.33
-1.80E+01,-0.028,0.024,-0.13,0.05
-1.80E+01,-0.028,-0.076,-0.13,-0.33
-1.80E+01,-0.028,0.016,-0.13,0.09
-1.80E+01,-0.028,-0.08,-0.13,-0.33
-1.80E+01,-0.024,0.024,-0.13,0.07
-1.79E+01,-0.024,-0.076,-0.13,-0.33
-1.79E+01,-0.024,0.016,-0.13,0.07
-1.79E+01,-0.024,-0.08,-0.13,-0.33
-1.79E+01,-0.024,0.016,-0.13,0.07
-1.79E+01,-0.024,-0.076,-0.15,-0.33
-1.79E+01,-0.024,0.024,-0.15,0.07
-1.79E+01,-0.024,-0.08,-0.15,-0.35
-1.79E+01,-0.024,0.02,-0.15,0.05
-1.79E+01,-0.024,-0.076,-0.15,-0.35
-1.79E+01,-0.024,0.024,-0.17,0.05
-1.79E+01,-0.024,-0.08,-0.17,-0.37
-1.79E+01,-0.024,0.016,-0.17,0.05
-1.79E+01,-0.024,-0.072,-0.17,-0.37
-1.78E+01,-0.024,0.016,-0.17,0.03
-1.78E+01,-0.024,-0.076,-0.17,-0.37
-1.78E+01,-0.024,0.024,-0.19,0.03
-1.78E+01,-0.024,-0.076,-0.19,-0.39
-1.78E+01,-0.024,0.016,-0.19,0.03
-1.78E+01,-0.024,-0.076,-0.19,-0.39
-1.78E+01,-0.024,0.028,-0.19,0.01
-1.78E+01,-0.024,-0.08,-0.19,-0.39
-1.78E+01,-0.024,0.016,-0.19,0.01
-1.78E+01,-0.024,-0.072,-0.21,-0.39
-1.78E+01,-0.024,0.024,-0.21,0.01
-1.78E+01,-0.024,-0.076,-0.19,-0.39
-1.78E+01,-0.024,0.02,-0.19,0.01
-1.78E+01,-0.024,-0.072,-0.19,-0.39
-1.77E+01,-0.024,0.024,-0.19,0.01
-1.77E+01,-0.024,-0.076,-0.19,-0.37
-1.77E+01,-0.024,0.02,-0.19,0.01
-1.77E+01,-0.024,-0.072,-0.17,-0.39
-1.77E+01,-0.024,0.028,-0.17,0.03
-1.77E+01,-0.024,-0.076,-0.17,-0.37
-1.77E+01,-0.024,0.024,-0.15,0.05
-1.77E+01,-0.024,-0.072,-0.15,-0.35
-1.77E+01,-0.024,0.02,-0.15,0.05
-1.77E+01,-0.024,-0.072,-0.15,-0.35
-1.77E+01,-0.024,0.028,-0.15,0.07
-1.77E+01,-0.024,-0.076,-0.17,-0.35
-1.77E+01,-0.024,0.02,-0.19,0.03
-1.76E+01,-0.024,-0.072,-0.19,-0.41
-1.76E+01,-0.024,0.028,-0.19,0.01
-1.76E+01,-0.024,-0.076,-0.19,-0.39
-1.76E+01,-0.024,0.02,-0.19,0.01
-1.76E+01,-0.024,-0.068,-0.19,-0.39
-1.76E+01,-0.024,0.028,-0.19,0.01
-1.76E+01,-0.024,-0.068,-0.21,-0.41
-1.76E+01,-0.024,0.016,-0.21,0.01
-1.76E+01,-0.024,-0.076,-0.23,-0.43
-1.76E+01,-0.024,0.028,-0.23,-0.03
-1.76E+01,-0.024,-0.072,-0.25,-0.45
-1.76E+01,-0.024,0.024,-0.25,-0.05
-1.76E+01,-0.024,-0.076,-0.25,-0.45
-1.75E+01,-0.024,0.024,-0.25,-0.05
-1.75E+01,-0.024,-0.072,-0.25,-0.43
-1.75E+01,-0.024,0.028,-0.25,-0.03
-1.75E+01,-0.024,-0.076,-0.25,-0.45
-1.75E+01,-0.024,0.02,-0.25,-0.03
-1.75E+01,-0.024,-0.072,-0.23,-0.45
-1.75E+01,-0.024,0.028,-0.23,-0.03
-1.75E+01,-0.024,-0.076,-0.21,-0.41
-1.75E+01,-0.024,0.02,-0.21,-0.00999999
-1.75E+01,-0.024,-0.076,-0.21,-0.41
-1.75E+01,-0.024,0.028,-0.19,0.01
-1.75E+01,-0.024,-0.072,-0.19,-0.39
-1.75E+01,-0.024,0.02,-0.17,0.03
-1.74E+01,-0.024,-0.072,-0.17,-0.37
-1.74E+01,-0.02,0.024,-0.17,0.03
-1.74E+01,-0.02,-0.068,-0.17,-0.35
-1.74E+01,-0.02,0.028,-0.17,0.03
-1.74E+01,-0.02,-0.076,-0.15,-0.35
-1.74E+01,-0.02,0.024,-0.15,0.05
-1.74E+01,-0.02,-0.068,-0.15,-0.35
-1.74E+01,-0.02,0.028,-0.15,0.05
-1.74E+01,-0.02,-0.076,-0.15,-0.35
-1.74E+01,-0.02,0.02,-0.15,0.05
-1.74E+01,-0.02,-0.068,-0.15,-0.35
-1.74E+01,-0.02,0.028,-0.15,0.05
-1.74E+01,-0.02,-0.076,-0.15,-0.35
-1.73E+01,-0.02,0.028,-0.15,0.05
-1.73E+01,-0.02,-0.068,-0.15,-0.35
-1.73E+01,-0.02,0.028,-0.15,0.05
-1.73E+01,-0.02,-0.072,-0.15,-0.35
-1.73E+01,-0.02,0.028,-0.15,0.07
-1.73E+01,-0.02,-0.072,-0.15,-0.35
-1.73E+01,-0.02,0.02,-0.15,0.07
-1.73E+01,-0.02,-0.068,-0.15,-0.35
-1.73E+01,-0.02,0.028,-0.15,0.07
-1.73E+01,-0.02,-0.076,-0.17,-0.35
-1.73E+01,-0.02,0.024,-0.17,0.03
-1.73E+01,-0.02,-0.068,-0.17,-0.37
-1.73E+01,-0.02,0.032,-0.19,0.03
-1.72E+01,-0.02,-0.072,-0.19,-0.39
-1.72E+01,-0.02,0.024,-0.19,0.01
-1.72E+01,-0.02,-0.068,-0.19,-0.39
-1.72E+01,-0.02,0.032,-0.19,0.01
-1.72E+01,-0.02,-0.068,-0.19,-0.39
-1.72E+01,-0.02,0.028,-0.19,0.01
-1.72E+01,-0.02,-0.072,-0.19,-0.39
-1.72E+01,-0.02,0.032,-0.19,0.03
-1.72E+01,-0.02,-0.068,-0.19,-0.37
-1.72E+01,-0.02,0.028,-0.17,0.03
-1.72E+01,-0.02,-0.072,-0.17,-0.37
-1.72E+01,-0.02,0.028,-0.17,0.03
-1.72E+01,-0.02,-0.068,-0.17,-0.37
-1.71E+01,-0.02,0.028,-0.17,0.03
-1.71E+01,-0.02,-0.076,-0.17,-0.37
-1.71E+01,-0.02,0.024,-0.15,0.03
-1.71E+01,-0.02,-0.068,-0.15,-0.35
-1.71E+01,-0.02,0.028,-0.15,0.05
-1.71E+01,-0.02,-0.072,-0.13,-0.35
-1.71E+01,-0.02,0.024,-0.13,0.07
-1.71E+01,-0.02,-0.072,-0.13,-0.33
-1.71E+01,-0.02,0.032,-0.11,0.09
-1.71E+01,-0.02,-0.068,-0.11,-0.31
-1.71E+01,-0.02,0.02,-0.11,0.09
-1.71E+01,-0.02,-0.072,-0.09,-0.31
-1.71E+01,-0.02,0.024,-0.09,0.11
-1.70E+01,-0.02,-0.064,-0.09,-0.29
-1.70E+01,-0.02,0.032,-0.09,0.11
-1.70E+01,-0.02,-0.072,-0.07,-0.29
-1.70E+01,-0.02,0.024,-0.07,0.13
-1.70E+01,-0.02,-0.068,-0.07,-0.27
-1.70E+01,-0.02,0.032,-0.05,0.15
-1.70E+01,-0.02,-0.072,-0.05,-0.25
-1.70E+01,-0.02,0.024,-0.03,0.17
-1.70E+01,-0.02,-0.064,-0.00999999,-0.21
-1.70E+01,-0.02,0.032,-0.00999999,0.19
-1.70E+01,-0.02,-0.072,0.01,-0.19
-1.70E+01,-0.02,0.024,0.03,0.21
-1.70E+01,-0.02,-0.064,0.05,-0.17
-1.69E+01,-0.02,0.02,0.07,0.25
-1.69E+01,-0.02,-0.068,0.09,-0.15
-1.69E+01,-0.02,0.032,0.11,0.29
-1.69E+01,-0.02,-0.072,0.13,-0.11
-1.69E+01,-0.02,0.024,0.15,0.35
-1.69E+01,-0.02,-0.064,0.17,-0.05
-1.69E+01,-0.02,0.036,0.19,0.39
-1.69E+01,-0.02,-0.072,0.21,-0.00999999
-1.69E+01,-0.02,0.028,0.23,0.43
-1.69E+01,-0.02,-0.064,0.25,0.03
-1.69E+01,-0.016,0.036,0.27,0.49
-1.69E+01,-0.016,-0.072,0.29,0.09
-1.69E+01,-0.016,0.028,0.31,0.53
-1.68E+01,-0.016,-0.068,0.33,0.13
-1.68E+01,-0.016,0.032,0.35,0.55
-1.68E+01,-0.016,-0.072,0.37,0.15
-1.68E+01,-0.016,0.032,0.37,0.57
-1.68E+01,-0.016,-0.064,0.39,0.17
-1.68E+01,-0.016,0.032,0.41,0.59
-1.68E+01,-0.016,-0.064,0.43,0.21
-1.68E+01,-0.016,0.032,0.45,0.61
-1.68E+01,-0.016,-0.072,0.45,0.27
-1.68E+01,-0.016,0.028,0.47,0.67
-1.68E+01,-0.016,-0.064,0.47,0.25
-1.68E+01,-0.016,0.032,0.45,0.67
-1.68E+01,-0.016,-0.068,0.45,0.25
-1.67E+01,-0.016,0.028,0.45,0.67
-1.67E+01,-0.016,-0.064,0.45,0.23
-1.67E+01,-0.016,0.032,0.47,0.65
-1.67E+01,-0.016,-0.064,0.49,0.25
-1.67E+01,-0.016,0.02,0.53,0.69
-1.67E+01,-0.016,-0.068,0.57,0.33
-1.67E+01,-0.016,0.032,0.59,0.79
-1.67E+01,-0.016,-0.064,0.63,0.41
-1.67E+01,-0.016,0.024,0.67,0.87
-1.67E+01,-0.016,-0.068,0.71,0.49
-1.67E+01,-0.016,0.032,0.75,0.95
-1.67E+01,-0.016,-0.064,0.77,0.59
-1.67E+01,-0.016,0.032,0.79,1.01
-1.66E+01,-0.016,-0.068,0.77,0.57
-1.66E+01,-0.016,0.028,0.73,1.03
-1.66E+01,-0.016,-0.064,0.69,0.47
-1.66E+01,-0.016,0.036,0.67,0.91
-1.66E+01,-0.016,-0.068,0.69,0.47
-1.66E+01,-0.016,0.028,0.69,0.87
-1.66E+01,-0.016,-0.06,0.71,0.53
-1.66E+01,-0.016,0.036,0.73,0.91
-1.66E+01,-0.016,-0.064,0.75,0.55
-1.66E+01,-0.016,0.028,0.77,0.97
-1.66E+01,-0.016,-0.068,0.77,0.57
-1.66E+01,-0.016,0.028,0.77,0.97
-1.66E+01,-0.016,-0.064,0.79,0.57
-1.65E+01,-0.016,0.036,0.81,0.99
-1.65E+01,-0.016,-0.068,0.83,0.59
-1.65E+01,-0.016,0.028,0.85,1.05
-1.65E+01,-0.016,-0.064,0.89,0.65
-1.65E+01,-0.016,0.036,0.93,1.11
-1.65E+01,-0.016,-0.068,0.97,0.73
-1.65E+01,-0.016,0.028,1.03,1.21
-1.65E+01,-0.016,-0.06,1.11,0.87
-1.65E+01,-0.016,0.036,1.21,1.37
-1.65E+01,-0.016,-0.068,1.27,1.09
-1.65E+01,-0.016,0.032,1.29,1.53
-1.65E+01,-0.016,-0.06,1.25,1.05
-1.65E+01,-0.016,0.036,1.19,1.51
-1.64E+01,-0.016,-0.068,1.13,0.91
-1.64E+01,-0.016,0.036,1.05,1.41
-1.64E+01,-0.016,-0.06,0.99,0.75
-1.64E+01,-0.016,0.028,0.93,1.25
-1.64E+01,-0.016,-0.06,0.85,0.63
-1.64E+01,-0.016,0.036,0.79,1.11
-1.64E+01,-0.016,-0.068,0.71,0.43
-1.64E+01,-0.016,0.028,0.65,0.97
-1.64E+01,-0.016,-0.06,0.61,0.43
-1.64E+01,-0.012,0.036,0.61,0.79
-1.64E+01,-0.012,-0.068,0.59,0.37
-1.64E+01,-0.012,0.028,0.57,0.83
-1.64E+01,-0.012,-0.06,0.53,0.27
-1.63E+01,-0.012,0.036,0.47,0.73
-1.63E+01,-0.012,-0.06,0.43,0.25
-1.63E+01,-0.012,0.028,0.39,0.63
-1.63E+01,-0.012,-0.064,0.35,0.15
-1.63E+01,-0.012,0.036,0.33,0.55
-1.63E+01,-0.012,-0.06,0.29,0.09
-1.63E+01,-0.012,0.036,0.27,0.49
-1.63E+01,-0.012,-0.064,0.23,0.03
-1.63E+01,-0.012,0.036,0.21,0.43
-1.63E+01,-0.012,-0.06,0.17,-0.03
-1.63E+01,-0.012,0.036,0.15,0.37
-1.63E+01,-0.012,-0.064,0.13,-0.09
-1.63E+01,-0.012,0.028,0.09,0.35
-1.62E+01,-0.012,-0.06,0.07,-0.13
-1.62E+01,-0.012,0.036,0.05,0.31
-1.62E+01,-0.012,-0.064,0.03,-0.19
-1.62E+01,-0.012,0.032,0.01,0.25
-1.62E+01,-0.012,-0.064,-0.00999999,-0.23
-1.62E+01,-0.012,0.04,-0.03,0.21
-1.62E+01,-0.012,-0.064,-0.05,-0.27
-1.62E+01,-0.012,0.028,-0.07,0.17
-1.62E+01,-0.012,-0.064,-0.09,-0.31
-1.62E+01,-0.012,0.04,-0.11,0.13
-1.62E+01,-0.012,-0.06,-0.11,-0.33
-1.62E+01,-0.012,0.032,-0.13,0.09
-1.62E+01,-0.012,-0.064,-0.15,-0.33
-1.61E+01,-0.012,0.032,-0.15,0.07
-1.61E+01,-0.012,-0.064,-0.15,-0.35
-1.61E+01,-0.012,0.04,-0.17,0.05
-1.61E+01,-0.012,-0.064,-0.17,-0.37
-1.61E+01,-0.012,0.032,-0.17,0.03
-1.61E+01,-0.012,-0.06,-0.19,-0.39
-1.61E+01,-0.012,0.036,-0.19,0.01
-1.61E+01,-0.012,-0.064,-0.19,-0.39
-1.61E+01,-0.012,0.032,-0.17,0.03
-1.61E+01,-0.012,-0.056,-0.17,-0.37
-1.61E+01,-0.012,0.032,-0.15,0.05
-1.61E+01,-0.012,-0.064,-0.13,-0.33
-1.61E+01,-0.012,0.04,-0.11,0.09
-1.60E+01,-0.012,-0.064,-0.11,-0.29
-1.60E+01,-0.012,0.036,-0.09,0.09
-1.60E+01,-0.012,-0.06,-0.09,-0.31
-1.60E+01,-0.012,0.04,-0.11,0.11
-1.60E+01,-0.012,-0.064,-0.11,-0.31
-1.60E+01,-0.012,0.036,-0.13,0.11
-1.60E+01,-0.012,-0.056,-0.13,-0.35
-1.60E+01,-0.012,0.04,-0.15,0.07
-1.60E+01,-0.012,-0.06,-0.19,-0.41
-1.60E+01,-0.012,0.036,-0.21,0.03
-1.60E+01,-0.012,-0.056,-0.23,-0.45
-1.60E+01,-0.012,0.04,-0.25,-0.03
-1.60E+01,-0.012,-0.064,-0.27,-0.45
-1.59E+01,-0.012,0.036,-0.29,-0.07
-1.59E+01,-0.012,-0.056,-0.31,-0.49
-1.59E+01,-0.012,0.04,-0.35,-0.13
-1.59E+01,-0.012,-0.056,-0.37,-0.55
-1.59E+01,-0.012,0.04,-0.39,-0.17
-1.59E+01,-0.012,-0.064,-0.41,-0.61
-1.59E+01,-0.012,0.036,-0.43,-0.23
-1.59E+01,-0.012,-0.056,-0.45,-0.65
-1.59E+01,-0.012,0.044,-0.49,-0.27
-1.59E+01,-0.012,-0.064,-0.51,-0.71
-1.59E+01,-0.012,0.036,-0.51,-0.31
-1.59E+01,-0.012,-0.056,-0.53,-0.73
-1.59E+01,-0.012,0.04,-0.53,-0.33
-1.58E+01,-0.012,-0.06,-0.51,-0.71
-1.58E+01,-0.012,0.032,-0.49,-0.33
-1.58E+01,-0.012,-0.064,-0.47,-0.67
-1.58E+01,-0.008,0.04,-0.45,-0.29
-1.58E+01,-0.008,-0.056,-0.45,-0.65
-1.58E+01,-0.008,0.028,-0.43,-0.25
-1.58E+01,-0.008,-0.06,-0.43,-0.63
-1.58E+01,-0.008,0.044,-0.41,-0.23
-1.58E+01,-0.008,-0.06,-0.41,-0.61
-1.58E+01,-0.008,0.04,-0.41,-0.21
-1.58E+01,-0.008,-0.06,-0.41,-0.59
-1.58E+01,-0.008,0.036,-0.39,-0.19
-1.58E+01,-0.008,-0.056,-0.39,-0.59
-1.57E+01,-0.008,0.04,-0.39,-0.19
-1.57E+01,-0.008,-0.06,-0.39,-0.59
-1.57E+01,-0.008,0.036,-0.39,-0.19
-1.57E+01,-0.008,-0.056,-0.39,-0.59
-1.57E+01,-0.008,0.044,-0.39,-0.19
-1.57E+01,-0.008,-0.06,-0.37,-0.57
-1.57E+01,-0.008,0.032,-0.37,-0.19
-1.57E+01,-0.008,-0.06,-0.37,-0.57
-1.57E+01,-0.008,0.036,-0.37,-0.19
-1.57E+01,-0.008,-0.06,-0.37,-0.57
-1.57E+01,-0.008,0.044,-0.37,-0.17
