lab05/data/liquidN2_FB.csv

Model,DPO2012,,,
Firmware Version,1.56,,,
,,,,
Point Format,Y,,,
Horizontal Units,S,,,
Horizontal Scale,2,,,
Sample Interval,0.00384025,,,
Filter Frequency,29,,,
Record Length,5200,,,
Gating,0.0% to 100.0%,,0.0% to 100.0%,
Probe Attenuation,1,,1,
Vertical Units,V,,V,
Vertical Offset,0,,0,
Vertical Scale,0.2,,0.2,
Label,,,,
TIME,CH1,CH1 Peak Detect,CH2,CH2 Peak Detect
-1.00E+01,0.964,0.996,0.048,0.064
-1.00E+01,0.964,0.924,0.048,0.032
-9.99E+00,0.964,0.996,0.048,0.064
-9.99E+00,0.964,0.932,0.048,0.04
-9.99E+00,0.964,0.996,0.048,0.056
-9.98E+00,0.964,0.924,0.048,0.04
-9.98E+00,0.964,0.996,0.048,0.064
-9.97E+00,0.964,0.916,0.048,0.04
-9.97E+00,0.964,0.996,0.048,0.064
-9.97E+00,0.964,0.924,0.048,0.04
-9.96E+00,0.964,0.996,0.048,0.064
-9.96E+00,0.964,0.932,0.048,0.04
-9.95E+00,0.964,0.988,0.048,0.064
-9.95E+00,0.964,0.924,0.048,0.04
-9.95E+00,0.964,0.996,0.048,0.064
-9.94E+00,0.964,0.916,0.048,0.04
-9.94E+00,0.964,1.004,0.056,0.064
-9.94E+00,0.964,0.924,0.056,0.04
-9.93E+00,0.964,0.996,0.056,0.064
-9.93E+00,0.964,0.916,0.056,0.04
-9.92E+00,0.964,0.996,0.056,0.064
-9.92E+00,0.964,0.932,0.056,0.04
-9.92E+00,0.964,0.996,0.056,0.064
-9.91E+00,0.964,0.932,0.056,0.04
-9.91E+00,0.964,0.996,0.056,0.064
-9.90E+00,0.964,0.924,0.056,0.048
-9.90E+00,0.964,0.996,0.056,0.072
-9.90E+00,0.964,0.916,0.056,0.04
-9.89E+00,0.964,0.996,0.056,0.072
-9.89E+00,0.964,0.932,0.056,0.04
-9.89E+00,0.964,0.988,0.056,0.072
-9.88E+00,0.964,0.924,0.056,0.048
-9.88E+00,0.964,0.996,0.056,0.072
-9.87E+00,0.964,0.924,0.056,0.048
-9.87E+00,0.964,1.004,0.056,0.072
-9.87E+00,0.964,0.916,0.056,0.048
-9.86E+00,0.964,0.996,0.056,0.072
-9.86E+00,0.964,0.924,0.056,0.048
-9.85E+00,0.964,0.996,0.064,0.072
-9.85E+00,0.964,0.932,0.064,0.048
-9.85E+00,0.964,0.996,0.064,0.072
-9.84E+00,0.964,0.924,0.064,0.048
-9.84E+00,0.964,0.996,0.064,0.072
-9.84E+00,0.972,0.916,0.064,0.048
-9.83E+00,0.972,1.004,0.064,0.072
-9.83E+00,0.972,0.924,0.064,0.048
-9.82E+00,0.972,1.004,0.064,0.072
-9.82E+00,0.972,0.932,0.064,0.048
-9.82E+00,0.972,0.996,0.064,0.08
-9.81E+00,0.972,0.932,0.064,0.048
-9.81E+00,0.972,0.996,0.064,0.072
-9.80E+00,0.972,0.932,0.064,0.056
-9.80E+00,0.972,0.996,0.064,0.08
-9.80E+00,0.972,0.916,0.064,0.056
-9.79E+00,0.972,1.004,0.064,0.08
-9.79E+00,0.972,0.924,0.064,0.056
-9.79E+00,0.972,0.996,0.064,0.08
-9.78E+00,0.972,0.94,0.064,0.056
-9.78E+00,0.972,0.996,0.064,0.08
-9.77E+00,0.972,0.932,0.072,0.056
-9.77E+00,0.972,0.996,0.072,0.08
-9.77E+00,0.972,0.924,0.072,0.056
-9.76E+00,0.972,1.004,0.072,0.08
-9.76E+00,0.972,0.924,0.072,0.056
-9.75E+00,0.972,0.996,0.072,0.08
-9.75E+00,0.972,0.94,0.072,0.056
-9.75E+00,0.972,0.996,0.072,0.08
-9.74E+00,0.972,0.932,0.072,0.056
-9.74E+00,0.972,0.996,0.072,0.088
-9.74E+00,0.972,0.924,0.072,0.064
-9.73E+00,0.972,1.004,0.072,0.088
-9.73E+00,0.972,0.932,0.072,0.064
-9.72E+00,0.972,0.996,0.072,0.088
-9.72E+00,0.972,0.924,0.072,0.064
-9.72E+00,0.972,0.996,0.072,0.088
-9.71E+00,0.972,0.932,0.072,0.064
-9.71E+00,0.972,0.996,0.072,0.088
-9.70E+00,0.972,0.932,0.08,0.064
-9.70E+00,0.972,0.996,0.08,0.088
-9.70E+00,0.972,0.924,0.08,0.064
-9.69E+00,0.972,1.004,0.08,0.088
-9.69E+00,0.972,0.916,0.08,0.064
-9.69E+00,0.972,1.004,0.08,0.088
-9.68E+00,0.972,0.932,0.08,0.064
-9.68E+00,0.972,0.996,0.08,0.088
-9.67E+00,0.972,0.932,0.08,0.064
-9.67E+00,0.972,0.996,0.08,0.088
-9.67E+00,0.972,0.932,0.08,0.064
-9.66E+00,0.972,1.004,0.08,0.088
-9.66E+00,0.972,0.916,0.08,0.072
-9.65E+00,0.972,1.012,0.08,0.096
-9.65E+00,0.972,0.932,0.08,0.072
-9.65E+00,0.972,1.004,0.08,0.096
-9.64E+00,0.972,0.94,0.088,0.072
-9.64E+00,0.972,0.996,0.088,0.096
-9.64E+00,0.972,0.94,0.088,0.072
-9.63E+00,0.972,0.996,0.088,0.096
-9.63E+00,0.972,0.924,0.088,0.072
-9.62E+00,0.972,1.004,0.088,0.096
-9.62E+00,0.972,0.924,0.088,0.072
-9.62E+00,0.972,1.004,0.088,0.096
-9.61E+00,0.972,0.924,0.088,0.072
-9.61E+00,0.972,1.004,0.088,0.096
-9.60E+00,0.972,0.94,0.088,0.08
-9.60E+00,0.972,0.996,0.088,0.104
-9.60E+00,0.972,0.932,0.088,0.08
-9.59E+00,0.972,0.996,0.088,0.104
-9.59E+00,0.972,0.932,0.088,0.08
-9.59E+00,0.972,1.012,0.088,0.104
-9.58E+00,0.972,0.924,0.096,0.08
-9.58E+00,0.972,1.004,0.096,0.104
-9.57E+00,0.972,0.948,0.096,0.08
-9.57E+00,0.972,0.996,0.096,0.104
-9.57E+00,0.972,0.94,0.096,0.08
-9.56E+00,0.972,1.004,0.096,0.104
-9.56E+00,0.972,0.932,0.096,0.08
-9.56E+00,0.972,1.004,0.096,0.104
-9.55E+00,0.972,0.924,0.096,0.08
-9.55E+00,0.972,1.004,0.096,0.112
-9.54E+00,0.972,0.94,0.096,0.088
-9.54E+00,0.972,0.996,0.096,0.112
-9.54E+00,0.972,0.94,0.096,0.088
-9.53E+00,0.972,1.004,0.096,0.112
-9.53E+00,0.972,0.932,0.096,0.088
-9.52E+00,0.972,1.012,0.104,0.112
-9.52E+00,0.972,0.932,0.104,0.088
-9.52E+00,0.972,1.004,0.104,0.112
-9.51E+00,0.972,0.924,0.104,0.088
-9.51E+00,0.972,1.004,0.104,0.112
-9.51E+00,0.972,0.94,0.104,0.088
-9.50E+00,0.972,1.004,0.104,0.112
-9.50E+00,0.972,0.94,0.104,0.096
-9.49E+00,0.972,1.004,0.104,0.12
-9.49E+00,0.972,0.932,0.104,0.096
-9.49E+00,0.972,1.004,0.104,0.12
-9.48E+00,0.98,0.924,0.104,0.096
-9.48E+00,0.98,1.004,0.104,0.12
-9.47E+00,0.98,0.94,0.112,0.096
-9.47E+00,0.98,1.004,0.112,0.12
-9.47E+00,0.98,0.94,0.112,0.096
-9.46E+00,0.98,1.004,0.112,0.12
-9.46E+00,0.98,0.94,0.112,0.096
-9.46E+00,0.98,1.004,0.112,0.12
-9.45E+00,0.98,0.924,0.112,0.096
-9.45E+00,0.98,1.012,0.112,0.128
-9.44E+00,0.98,0.94,0.112,0.104
-9.44E+00,0.98,1.004,0.112,0.128
-9.44E+00,0.98,0.94,0.112,0.104
-9.43E+00,0.98,0.996,0.12,0.128
-9.43E+00,0.98,0.948,0.12,0.104
-9.42E+00,0.98,1.004,0.12,0.128
-9.42E+00,0.98,0.932,0.12,0.104
-9.42E+00,0.98,1.004,0.12,0.128
-9.41E+00,0.98,0.932,0.12,0.104
-9.41E+00,0.98,1.012,0.12,0.128
-9.41E+00,0.98,0.932,0.12,0.104
-9.40E+00,0.98,1.004,0.12,0.136
-9.40E+00,0.98,0.948,0.12,0.112
-9.39E+00,0.98,0.996,0.12,0.136
-9.39E+00,0.98,0.948,0.128,0.112
-9.39E+00,0.98,1.004,0.128,0.136
-9.38E+00,0.98,0.932,0.128,0.112
-9.38E+00,0.98,1.012,0.128,0.136
-9.37E+00,0.98,0.932,0.128,0.112
-9.37E+00,0.98,1.004,0.128,0.144
-9.37E+00,0.98,0.948,0.128,0.112
-9.36E+00,0.98,0.996,0.128,0.144
-9.36E+00,0.98,0.948,0.128,0.12
-9.36E+00,0.98,1.004,0.128,0.144
-9.35E+00,0.98,0.932,0.136,0.12
-9.35E+00,0.98,1.012,0.136,0.144
-9.34E+00,0.98,0.932,0.136,0.12
-9.34E+00,0.98,1.004,0.136,0.144
-9.34E+00,0.98,0.94,0.136,0.12
-9.33E+00,0.98,1.012,0.136,0.144
-9.33E+00,0.98,0.94,0.136,0.12
-9.32E+00,0.98,1.004,0.136,0.144
-9.32E+00,0.98,0.948,0.136,0.128
-9.32E+00,0.98,0.996,0.136,0.152
-9.31E+00,0.98,0.932,0.144,0.128
-9.31E+00,0.98,1.012,0.144,0.152
-9.31E+00,0.98,0.932,0.144,0.128
-9.30E+00,0.98,1.012,0.144,0.152
-9.30E+00,0.98,0.94,0.144,0.128
-9.29E+00,0.98,1.012,0.144,0.152
-9.29E+00,0.98,0.956,0.144,0.136
-9.29E+00,0.98,0.996,0.144,0.16
-9.28E+00,0.98,0.948,0.144,0.136
-9.28E+00,0.98,1.004,0.152,0.16
-9.27E+00,0.98,0.932,0.152,0.136
-9.27E+00,0.98,1.012,0.152,0.16
-9.27E+00,0.98,0.94,0.152,0.136
-9.26E+00,0.98,1.012,0.152,0.16
-9.26E+00,0.98,0.956,0.152,0.144
-9.26E+00,0.98,1.004,0.152,0.168
-9.25E+00,0.98,0.948,0.152,0.144
-9.25E+00,0.98,1.004,0.16,0.168
-9.24E+00,0.98,0.932,0.16,0.144
-9.24E+00,0.98,1.012,0.16,0.168
-9.24E+00,0.98,0.94,0.16,0.144
-9.23E+00,0.98,1.012,0.16,0.168
-9.23E+00,0.98,0.932,0.16,0.144
-9.22E+00,0.98,1.012,0.16,0.176
-9.22E+00,0.98,0.948,0.16,0.152
-9.22E+00,0.98,1.004,0.168,0.176
-9.21E+00,0.98,0.956,0.168,0.152
-9.21E+00,0.98,1.004,0.168,0.176
-9.21E+00,0.98,0.94,0.168,0.152
-9.20E+00,0.98,1.02,0.168,0.176
-9.20E+00,0.98,0.932,0.168,0.16
-9.19E+00,0.98,1.012,0.168,0.184
-9.19E+00,0.98,0.956,0.176,0.16
-9.19E+00,0.98,1.004,0.176,0.184
-9.18E+00,0.98,0.956,0.176,0.16
-9.18E+00,0.98,1.004,0.176,0.184
-9.17E+00,0.98,0.94,0.176,0.168
-9.17E+00,0.98,1.012,0.176,0.192
-9.17E+00,0.98,0.932,0.176,0.168
-9.16E+00,0.98,1.012,0.184,0.192
-9.16E+00,0.98,0.948,0.184,0.168
-9.16E+00,0.98,1.012,0.184,0.192
-9.15E+00,0.98,0.956,0.184,0.168
-9.15E+00,0.988,1.004,0.184,0.192
-9.14E+00,0.988,0.94,0.184,0.168
-9.14E+00,0.988,1.012,0.184,0.2
-9.14E+00,0.988,0.956,0.184,0.176
-9.13E+00,0.988,1.004,0.192,0.2
-9.13E+00,0.988,0.94,0.192,0.176
-9.12E+00,0.988,1.02,0.192,0.2
-9.12E+00,0.988,0.948,0.192,0.184
-9.12E+00,0.988,1.012,0.192,0.208
-9.11E+00,0.988,0.948,0.192,0.184
-9.11E+00,0.988,1.004,0.2,0.208
-9.11E+00,0.988,0.956,0.2,0.184
-9.10E+00,0.988,1.012,0.2,0.216
-9.10E+00,0.988,0.932,0.2,0.184
-9.09E+00,0.988,1.02,0.2,0.216
-9.09E+00,0.988,0.948,0.2,0.192
-9.09E+00,0.988,1.012,0.2,0.216
-9.08E+00,0.988,0.956,0.208,0.192
-9.08E+00,0.988,1.004,0.208,0.216
-9.08E+00,0.988,0.956,0.208,0.192
-9.07E+00,0.988,1.012,0.208,0.216
-9.07E+00,0.988,0.94,0.208,0.2
-9.06E+00,0.988,1.02,0.208,0.224
-9.06E+00,0.988,0.94,0.216,0.2
-9.06E+00,0.988,1.02,0.216,0.224
-9.05E+00,0.988,0.956,0.216,0.2
-9.05E+00,0.988,1.012,0.216,0.224
-9.04E+00,0.988,0.956,0.216,0.2
-9.04E+00,0.988,1.012,0.216,0.232
-9.04E+00,0.988,0.956,0.224,0.208
-9.03E+00,0.988,1.012,0.224,0.232
-9.03E+00,0.988,0.948,0.224,0.208
-9.03E+00,0.988,1.02,0.224,0.232
-9.02E+00,0.988,0.94,0.224,0.216
-9.02E+00,0.988,1.012,0.224,0.24
-9.01E+00,0.988,0.956,0.232,0.216
-9.01E+00,0.988,1.012,0.232,0.24
-9.01E+00,0.988,0.964,0.232,0.224
-9.00E+00,0.988,1.012,0.232,0.24
-9.00E+00,0.988,0.94,0.232,0.224
-8.99E+00,0.988,1.02,0.232,0.248
-8.99E+00,0.988,0.94,0.24,0.224
-8.99E+00,0.988,1.02,0.24,0.248
-8.98E+00,0.988,0.948,0.24,0.224
-8.98E+00,0.988,1.012,0.24,0.248
-8.98E+00,0.988,0.956,0.24,0.232
-8.97E+00,0.988,1.012,0.24,0.256
-8.97E+00,0.988,0.948,0.248,0.232
-8.96E+00,0.988,1.02,0.248,0.256
-8.96E+00,0.988,0.94,0.248,0.232
-8.96E+00,0.988,1.02,0.248,0.256
-8.95E+00,0.988,0.956,0.248,0.24
-8.95E+00,0.988,1.012,0.248,0.264
-8.94E+00,0.988,0.948,0.256,0.24
-8.94E+00,0.988,1.012,0.256,0.264
-8.94E+00,0.988,0.956,0.256,0.248
-8.93E+00,0.988,1.012,0.256,0.272
-8.93E+00,0.988,0.964,0.256,0.248
-8.93E+00,0.988,1.004,0.264,0.272
-8.92E+00,0.988,0.948,0.264,0.248
-8.92E+00,0.988,1.02,0.264,0.272
-8.91E+00,0.988,0.948,0.264,0.256
-8.91E+00,0.988,1.012,0.264,0.28
-8.91E+00,0.988,0.956,0.272,0.256
-8.90E+00,0.988,1.012,0.272,0.28
-8.90E+00,0.988,0.964,0.272,0.256
-8.89E+00,0.988,1.012,0.272,0.288
-8.89E+00,0.988,0.94,0.272,0.264
-8.89E+00,0.988,1.02,0.28,0.288
-8.88E+00,0.988,0.94,0.28,0.264
-8.88E+00,0.988,1.012,0.28,0.296
-8.88E+00,0.988,0.964,0.28,0.264
-8.87E+00,0.988,1.012,0.288,0.296
-8.87E+00,0.988,0.964,0.288,0.272
-8.86E+00,0.988,1.012,0.288,0.296
-8.86E+00,0.988,0.948,0.288,0.272
-8.86E+00,0.988,1.02,0.288,0.304
-8.85E+00,0.988,0.956,0.296,0.28
-8.85E+00,0.988,1.012,0.296,0.304
-8.84E+00,0.988,0.948,0.296,0.28
-8.84E+00,0.988,1.02,0.296,0.312
-8.84E+00,0.988,0.964,0.304,0.288
-8.83E+00,0.988,1.012,0.304,0.312
-8.83E+00,0.988,0.956,0.304,0.288
-8.83E+00,0.988,1.012,0.304,0.312
-8.82E+00,0.988,0.948,0.304,0.296
-8.82E+00,0.988,1.02,0.312,0.32
-8.81E+00,0.996,0.948,0.312,0.296
-8.81E+00,0.996,1.02,0.312,0.32
-8.81E+00,0.996,0.948,0.312,0.304
-8.80E+00,0.996,1.012,0.312,0.328
-8.80E+00,0.996,0.964,0.32,0.304
-8.79E+00,0.996,1.012,0.32,0.328
-8.79E+00,0.996,0.948,0.32,0.304
-8.79E+00,0.996,1.02,0.32,0.336
-8.78E+00,0.996,0.948,0.328,0.312
-8.78E+00,0.996,1.028,0.328,0.336
-8.78E+00,0.996,0.956,0.328,0.312
-8.77E+00,0.996,1.02,0.328,0.344
-8.77E+00,0.996,0.964,0.336,0.32
-8.76E+00,0.996,1.012,0.336,0.344
-8.76E+00,0.996,0.964,0.336,0.32
-8.76E+00,0.996,1.02,0.336,0.352
-8.75E+00,0.996,0.948,0.344,0.328
-8.75E+00,0.996,1.02,0.344,0.352
-8.74E+00,0.996,0.956,0.344,0.328
-8.74E+00,0.996,1.028,0.344,0.36
-8.74E+00,0.996,0.956,0.352,0.336
-8.73E+00,0.996,1.02,0.352,0.36
-8.73E+00,0.996,0.964,0.352,0.336
-8.73E+00,0.996,1.012,0.352,0.368
-8.72E+00,0.996,0.964,0.36,0.344
-8.72E+00,0.996,1.012,0.36,0.368
-8.71E+00,0.996,0.948,0.36,0.344
-8.71E+00,0.996,1.028,0.36,0.376
-8.71E+00,0.996,0.948,0.368,0.352
-8.70E+00,0.996,1.02,0.368,0.376
-8.70E+00,0.996,0.956,0.368,0.352
-8.69E+00,0.996,1.012,0.376,0.384
-8.69E+00,0.996,0.964,0.376,0.36
-8.69E+00,0.996,1.02,0.376,0.384
-8.68E+00,0.996,0.948,0.376,0.368
-8.68E+00,0.996,1.028,0.384,0.392
-8.68E+00,0.996,0.948,0.384,0.368
-8.67E+00,0.996,1.02,0.384,0.392
-8.67E+00,0.996,0.964,0.384,0.376
-8.66E+00,0.996,1.02,0.392,0.4
-8.66E+00,0.996,0.964,0.392,0.376
-8.66E+00,0.996,1.02,0.392,0.4
-8.65E+00,0.996,0.956,0.4,0.384
-8.65E+00,0.996,1.028,0.4,0.408
-8.64E+00,0.996,0.956,0.4,0.384
-8.64E+00,0.996,1.02,0.408,0.416
-8.64E+00,0.996,0.948,0.408,0.392
-8.63E+00,0.996,1.028,0.408,0.424
-8.63E+00,0.996,0.956,0.408,0.4
-8.63E+00,0.996,1.02,0.416,0.424
-8.62E+00,0.996,0.964,0.416,0.4
-8.62E+00,0.996,1.02,0.416,0.432
-8.61E+00,0.996,0.956,0.424,0.408
-8.61E+00,0.996,1.028,0.424,0.432
-8.61E+00,0.996,0.948,0.424,0.408
-8.60E+00,0.996,1.028,0.432,0.44
-8.60E+00,0.996,0.956,0.432,0.416
-8.59E+00,0.996,1.02,0.432,0.44
-8.59E+00,0.996,0.964,0.432,0.424
-8.59E+00,0.996,1.02,0.44,0.448
-8.58E+00,0.996,0.964,0.44,0.424
-8.58E+00,0.996,1.02,0.44,0.456
-8.58E+00,0.996,0.956,0.448,0.432
-8.57E+00,0.996,1.028,0.448,0.456
-8.57E+00,0.996,0.956,0.448,0.44
-8.56E+00,0.996,1.02,0.456,0.464
-8.56E+00,0.996,0.964,0.456,0.44
-8.56E+00,0.996,1.012,0.456,0.464
-8.55E+00,0.996,0.964,0.464,0.448
-8.55E+00,0.996,1.02,0.464,0.472
-8.55E+00,0.996,0.948,0.464,0.456
-8.54E+00,0.996,1.028,0.472,0.48
-8.54E+00,0.996,0.956,0.472,0.456
-8.53E+00,0.996,1.028,0.472,0.48
-8.53E+00,0.996,0.956,0.48,0.464
-8.53E+00,0.996,1.028,0.48,0.488
-8.52E+00,0.996,0.964,0.48,0.472
-8.52E+00,0.996,1.02,0.488,0.496
-8.51E+00,0.996,0.964,0.488,0.472
-8.51E+00,0.996,1.02,0.488,0.496
-8.51E+00,0.996,0.956,0.496,0.48
-8.50E+00,0.996,1.028,0.496,0.512
-8.50E+00,0.996,0.948,0.496,0.488
-8.50E+00,0.996,1.028,0.504,0.512
-8.49E+00,0.996,0.972,0.504,0.488
-8.49E+00,0.996,1.02,0.512,0.52
-8.48E+00,0.996,0.964,0.512,0.496
-8.48E+00,0.996,1.02,0.512,0.528
-8.48E+00,0.996,0.956,0.52,0.504
-8.47E+00,0.996,1.036,0.52,0.528
-8.47E+00,0.996,0.956,0.52,0.512
-8.46E+00,0.996,1.028,0.528,0.544
-8.46E+00,0.996,0.964,0.528,0.512
-8.46E+00,0.996,1.028,0.536,0.544
-8.45E+00,0.996,0.964,0.536,0.52
-8.45E+00,0.996,1.02,0.536,0.552
-8.45E+00,0.996,0.956,0.544,0.528
-8.44E+00,0.996,1.028,0.544,0.56
-8.44E+00,0.996,0.98,0.552,0.536
-8.43E+00,0.996,1.012,0.552,0.56
-8.43E+00,0.996,0.948,0.552,0.536
-8.43E+00,0.996,1.028,0.56,0.568
-8.42E+00,0.996,0.964,0.56,0.552
-8.42E+00,0.996,1.028,0.568,0.576
-8.41E+00,0.996,0.972,0.568,0.552
-8.41E+00,0.996,1.02,0.568,0.584
-8.41E+00,0.996,0.964,0.576,0.56
-8.40E+00,0.996,1.02,0.576,0.584
-8.40E+00,0.996,0.956,0.584,0.568
-8.40E+00,0.996,1.028,0.584,0.592
-8.39E+00,0.996,0.964,0.584,0.576
-8.39E+00,0.996,1.02,0.592,0.6
-8.38E+00,0.996,0.972,0.592,0.584
-8.38E+00,0.996,1.02,0.6,0.608
-8.38E+00,0.996,0.972,0.6,0.584
-8.37E+00,0.996,1.028,0.6,0.616
-8.37E+00,1.004,0.956,0.608,0.592
-8.36E+00,1.004,1.028,0.608,0.624
-8.36E+00,1.004,0.964,0.616,0.6
-8.36E+00,1.004,1.02,0.616,0.624
-8.35E+00,1.004,0.956,0.624,0.608
-8.35E+00,1.004,1.028,0.624,0.632
-8.35E+00,1.004,0.972,0.624,0.616
-8.34E+00,1.004,1.02,0.632,0.64
-8.34E+00,1.004,0.972,0.632,0.624
-8.33E+00,1.004,1.02,0.64,0.648
-8.33E+00,1.004,0.964,0.64,0.624
-8.33E+00,1.004,1.028,0.648,0.656
-8.32E+00,1.004,0.956,0.648,0.632
-8.32E+00,1.004,1.028,0.648,0.664
-8.31E+00,1.004,0.972,0.656,0.64
-8.31E+00,1.004,1.02,0.656,0.672
-8.31E+00,1.004,0.972,0.664,0.648
-8.30E+00,1.004,1.02,0.664,0.68
-8.30E+00,1.004,0.964,0.672,0.656
-8.30E+00,1.004,1.036,0.672,0.688
-8.29E+00,1.004,0.956,0.68,0.664
-8.29E+00,1.004,1.028,0.68,0.688
-8.28E+00,1.004,0.972,0.688,0.672
-8.28E+00,1.004,1.028,0.688,0.696
-8.28E+00,1.004,0.964,0.696,0.68
-8.27E+00,1.004,1.028,0.696,0.704
-8.27E+00,1.004,0.964,0.704,0.688
-8.26E+00,1.004,1.036,0.704,0.712
-8.26E+00,1.004,0.956,0.712,0.696
-8.26E+00,1.004,1.028,0.712,0.728
-8.25E+00,1.004,0.964,0.72,0.704
-8.25E+00,1.004,1.028,0.72,0.728
-8.25E+00,1.004,0.964,0.72,0.712
-8.24E+00,1.004,1.028,0.728,0.736
-8.24E+00,1.004,0.972,0.736,0.72
-8.23E+00,1.004,1.028,0.736,0.744
-8.23E+00,1.004,0.972,0.736,0.72
-8.23E+00,1.004,1.02,0.744,0.752
-8.22E+00,1.004,0.964,0.744,0.736
-8.22E+00,1.004,1.036,0.752,0.76
-8.21E+00,1.004,0.972,0.76,0.744
-8.21E+00,1.004,1.028,0.76,0.768
-8.21E+00,1.004,0.98,0.768,0.752
-8.20E+00,1.004,1.02,0.768,0.776
-8.20E+00,1.004,0.972,0.776,0.76
-8.20E+00,1.004,1.028,0.776,0.784
-8.19E+00,1.004,0.964,0.784,0.768
-8.19E+00,1.004,1.036,0.784,0.8
-8.18E+00,1.004,0.956,0.792,0.776
-8.18E+00,1.004,1.028,0.792,0.808
-8.18E+00,1.004,0.972,0.8,0.784
-8.17E+00,1.004,1.028,0.8,0.816
-8.17E+00,1.004,0.972,0.808,0.792
-8.16E+00,1.004,1.028,0.816,0.824
-8.16E+00,1.004,0.964,0.816,0.8
-8.16E+00,1.004,1.036,0.824,0.832
-8.15E+00,1.004,0.972,0.824,0.808
-8.15E+00,1.004,1.028,0.832,0.84
-8.15E+00,1.004,0.956,0.832,0.816
-8.14E+00,1.004,1.028,0.84,0.848
-8.14E+00,1.004,0.972,0.84,0.832
-8.13E+00,1.004,1.028,0.848,0.856
-8.13E+00,1.004,0.98,0.856,0.84
-8.13E+00,1.004,1.02,0.856,0.864
-8.12E+00,1.004,0.964,0.864,0.848
-8.12E+00,1.004,1.036,0.864,0.872
-8.11E+00,1.004,0.964,0.872,0.856
-8.11E+00,1.004,1.036,0.872,0.888
-8.11E+00,1.004,0.972,0.88,0.864
-8.10E+00,1.004,1.028,0.888,0.896
-8.10E+00,1.004,0.98,0.888,0.872
-8.10E+00,1.004,1.028,0.896,0.904
-8.09E+00,1.004,0.964,0.896,0.88
-8.09E+00,1.004,1.036,0.904,0.912
-8.08E+00,1.004,0.964,0.912,0.896
-8.08E+00,1.004,1.036,0.912,0.928
-8.08E+00,1.004,0.972,0.92,0.904
-8.07E+00,1.004,1.028,0.92,0.936
-8.07E+00,1.004,0.972,0.928,0.912
-8.07E+00,1.004,1.028,0.936,0.944
-8.06E+00,1.004,0.972,0.936,0.92
-8.06E+00,1.004,1.028,0.944,0.952
-8.05E+00,1.004,0.98,0.952,0.936
-8.05E+00,1.004,1.02,0.952,0.96
-8.05E+00,1.004,0.964,0.96,0.936
-8.04E+00,1.004,1.036,0.968,0.976
-8.04E+00,1.004,0.972,0.968,0.952
-8.03E+00,1.004,1.028,0.976,0.984
-8.03E+00,1.004,0.972,0.976,0.96
-8.03E+00,1.004,1.028,0.984,0.992
-8.02E+00,1.004,0.98,0.992,0.976
-8.02E+00,1.004,1.028,0.992,1.008
-8.02E+00,1.004,0.964,1,0.984
-8.01E+00,1.004,1.036,1.008,1.016
-8.01E+00,1.004,0.964,1.008,0.992
-8.00E+00,1.004,1.036,1.016,1.032
-8.00E+00,1.004,0.972,1.024,1.008
-8.00E+00,1.004,1.036,1.024,1.04
-7.99E+00,1.004,0.972,1.032,1.016
-7.99E+00,1.004,1.028,1.04,1.048
-7.98E+00,1.004,0.964,1.04,1.024
-7.98E+00,1.004,1.036,1.048,1.064
-7.98E+00,1.004,0.964,1.056,1.032
-7.97E+00,1.004,1.036,1.056,1.072
-7.97E+00,1.004,0.972,1.064,1.048
-7.97E+00,1.004,1.036,1.072,1.08
-7.96E+00,1.012,0.98,1.072,1.056
-7.96E+00,1.012,1.028,1.08,1.088
-7.95E+00,1.012,0.972,1.088,1.072
-7.95E+00,1.012,1.028,1.088,1.104
-7.95E+00,1.012,0.972,1.096,1.08
-7.94E+00,1.012,1.036,1.104,1.112
-7.94E+00,1.012,0.964,1.104,1.088
-7.93E+00,1.012,1.028,1.112,1.12
-7.93E+00,1.012,0.972,1.12,1.104
-7.93E+00,1.012,1.036,1.128,1.136
-7.92E+00,1.012,0.98,1.128,1.112
-7.92E+00,1.012,1.028,1.136,1.144
-7.92E+00,1.012,0.972,1.144,1.128
-7.91E+00,1.012,1.036,1.144,1.16
-7.91E+00,1.012,0.972,1.152,1.136
-7.90E+00,1.012,1.036,1.16,1.168
-7.90E+00,1.012,0.972,1.168,1.152
-7.90E+00,1.012,1.036,1.168,1.184
-7.89E+00,1.012,0.98,1.176,1.16
-7.89E+00,1.012,1.028,1.184,1.192
-7.88E+00,1.012,0.98,1.192,1.176
-7.88E+00,1.012,1.028,1.192,1.208
-7.88E+00,1.012,0.964,1.2,1.184
-7.87E+00,1.012,1.036,1.208,1.216
-7.87E+00,1.012,0.98,1.216,1.2
-7.87E+00,1.012,1.036,1.216,1.232
-7.86E+00,1.012,0.98,1.224,1.208
-7.86E+00,1.012,1.036,1.232,1.24
-7.85E+00,1.012,0.98,1.24,1.224
-7.85E+00,1.012,1.036,1.24,1.256
-7.85E+00,1.012,0.98,1.248,1.232
-7.84E+00,1.012,1.028,1.256,1.264
-7.84E+00,1.012,0.972,1.264,1.248
-7.83E+00,1.012,1.036,1.264,1.28
-7.83E+00,1.012,0.972,1.272,1.256
-7.83E+00,1.012,1.036,1.28,1.288
-7.82E+00,1.012,0.98,1.288,1.264
-7.82E+00,1.012,1.036,1.288,1.304
-7.82E+00,1.012,0.98,1.296,1.28
-7.81E+00,1.012,1.036,1.304,1.312
-7.81E+00,1.012,0.972,1.312,1.296
-7.80E+00,1.012,1.044,1.32,1.328
-7.80E+00,1.012,0.964,1.32,1.304
-7.80E+00,1.012,1.036,1.328,1.336
-7.79E+00,1.012,0.988,1.336,1.32
-7.79E+00,1.012,1.028,1.344,1.352
-7.78E+00,1.012,0.98,1.352,1.328
-7.78E+00,1.012,1.036,1.352,1.368
-7.78E+00,1.012,0.972,1.36,1.344
-7.77E+00,1.012,1.044,1.368,1.376
-7.77E+00,1.004,0.98,1.376,1.36
-7.77E+00,0.972,1.036,1.376,1.392
-7.76E+00,0.868,0.588,1.376,1.36
-7.76E+00,0.732,1.044,1.352,1.4
-7.75E+00,0.644,0.572,1.32,1.28
-7.75E+00,0.612,0.652,1.28,1.376
-7.75E+00,0.612,0.58,1.24,1.184
-7.74E+00,0.612,0.644,1.192,1.296
-7.74E+00,0.612,0.564,1.152,1.104
