lab05/data/room_temp_forward_0.0000microA.CSV

Model,DPO2012
Firmware Version,1.39

Point Format,Y,,,
Horizontal Units,S,,,
Horizontal Scale,2,,,
Sample Interval,0.00384025,,,
Filter Frequency,1.4e+06,,,
Record Length,5200,,,
Gating,0.0% to 100.0%,,0.0% to 100.0%,
Probe Attenuation,1,,1,
Vertical Units,V,,V,
Vertical Offset,0,,0,
Vertical Scale,0.05,,0.1,
Label,,,,
TIME,CH1,CH1 Peak Detect,CH2,CH2 Peak Detect
-1.000e+01,0.196,0.17,0.236,0.224
-9.996e+00,0.196,0.218,0.236,0.248
-9.992e+00,0.196,0.17,0.236,0.216
-9.988e+00,0.196,0.22,0.236,0.248
-9.985e+00,0.196,0.176,0.236,0.228
-9.981e+00,0.196,0.214,0.236,0.244
-9.977e+00,0.196,0.176,0.236,0.228
-9.973e+00,0.196,0.218,0.236,0.248
-9.969e+00,0.196,0.17,0.236,0.228
-9.965e+00,0.196,0.218,0.236,0.244
-9.962e+00,0.196,0.178,0.236,0.228
-9.958e+00,0.196,0.212,0.236,0.248
-9.954e+00,0.196,0.17,0.24,0.228
-9.950e+00,0.196,0.22,0.236,0.244
-9.946e+00,0.196,0.176,0.24,0.232
-9.942e+00,0.196,0.218,0.24,0.244
-9.939e+00,0.196,0.176,0.24,0.232
-9.935e+00,0.198,0.218,0.24,0.244
-9.931e+00,0.196,0.172,0.24,0.232
-9.927e+00,0.196,0.218,0.24,0.248
-9.923e+00,0.198,0.17,0.24,0.232
-9.919e+00,0.198,0.22,0.24,0.248
-9.916e+00,0.198,0.176,0.24,0.232
-9.912e+00,0.198,0.218,0.24,0.248
-9.908e+00,0.196,0.176,0.24,0.232
-9.904e+00,0.198,0.214,0.24,0.248
-9.900e+00,0.198,0.176,0.24,0.232
-9.896e+00,0.198,0.22,0.24,0.248
-9.892e+00,0.198,0.17,0.244,0.232
-9.889e+00,0.198,0.22,0.24,0.248
-9.885e+00,0.198,0.178,0.24,0.232
-9.881e+00,0.198,0.214,0.24,0.248
-9.877e+00,0.198,0.172,0.24,0.236
-9.873e+00,0.198,0.222,0.244,0.248
-9.869e+00,0.198,0.178,0.244,0.236
-9.866e+00,0.198,0.22,0.244,0.248
-9.862e+00,0.198,0.172,0.244,0.236
-9.858e+00,0.198,0.22,0.244,0.252
-9.854e+00,0.198,0.172,0.244,0.236
-9.850e+00,0.198,0.22,0.244,0.252
-9.846e+00,0.198,0.17,0.244,0.236
-9.843e+00,0.198,0.222,0.244,0.252
-9.839e+00,0.198,0.178,0.244,0.232
-9.835e+00,0.198,0.22,0.244,0.26
-9.831e+00,0.198,0.178,0.244,0.236
-9.827e+00,0.198,0.214,0.248,0.256
-9.823e+00,0.198,0.172,0.244,0.236
-9.820e+00,0.198,0.22,0.248,0.252
-9.816e+00,0.198,0.17,0.248,0.24
-9.812e+00,0.198,0.222,0.248,0.256
-9.808e+00,0.198,0.18,0.248,0.24
-9.804e+00,0.198,0.216,0.248,0.256
-9.800e+00,0.198,0.176,0.248,0.24
-9.796e+00,0.198,0.22,0.248,0.26
-9.793e+00,0.198,0.174,0.248,0.24
-9.789e+00,0.198,0.22,0.248,0.256
-9.785e+00,0.198,0.172,0.248,0.24
-9.781e+00,0.198,0.224,0.252,0.256
-9.777e+00,0.198,0.172,0.248,0.244
-9.773e+00,0.2,0.222,0.248,0.256
-9.770e+00,0.198,0.178,0.248,0.244
-9.766e+00,0.198,0.22,0.248,0.256
-9.762e+00,0.2,0.174,0.248,0.24
-9.758e+00,0.198,0.22,0.248,0.256
-9.754e+00,0.198,0.182,0.252,0.244
-9.750e+00,0.2,0.216,0.252,0.256
-9.747e+00,0.2,0.172,0.252,0.244
-9.743e+00,0.2,0.224,0.252,0.26
-9.739e+00,0.2,0.178,0.252,0.244
-9.735e+00,0.2,0.22,0.252,0.26
-9.731e+00,0.2,0.178,0.252,0.244
-9.727e+00,0.2,0.222,0.256,0.26
-9.724e+00,0.2,0.182,0.252,0.244
-9.720e+00,0.2,0.216,0.252,0.26
-9.716e+00,0.2,0.172,0.252,0.244
-9.712e+00,0.2,0.222,0.252,0.26
-9.708e+00,0.2,0.174,0.256,0.248
-9.704e+00,0.2,0.224,0.252,0.26
-9.700e+00,0.2,0.18,0.256,0.244
-9.697e+00,0.2,0.22,0.256,0.26
-9.693e+00,0.2,0.178,0.256,0.244
-9.689e+00,0.2,0.222,0.256,0.264
-9.685e+00,0.2,0.174,0.256,0.244
-9.681e+00,0.2,0.224,0.256,0.264
-9.677e+00,0.2,0.182,0.256,0.244
-9.674e+00,0.2,0.216,0.256,0.268
-9.670e+00,0.2,0.174,0.256,0.244
-9.666e+00,0.2,0.224,0.256,0.268
-9.662e+00,0.2,0.18,0.256,0.248
-9.658e+00,0.2,0.222,0.256,0.264
-9.654e+00,0.2,0.178,0.256,0.252
-9.651e+00,0.2,0.218,0.256,0.268
-9.647e+00,0.2,0.176,0.26,0.252
-9.643e+00,0.2,0.224,0.26,0.268
-9.639e+00,0.202,0.172,0.26,0.248
-9.635e+00,0.2,0.224,0.26,0.268
-9.631e+00,0.2,0.18,0.26,0.252
-9.627e+00,0.2,0.222,0.26,0.268
-9.624e+00,0.202,0.18,0.26,0.252
-9.620e+00,0.202,0.218,0.26,0.268
-9.616e+00,0.202,0.176,0.26,0.252
-9.612e+00,0.2,0.224,0.26,0.268
-9.608e+00,0.202,0.174,0.264,0.252
-9.604e+00,0.2,0.226,0.26,0.268
-9.601e+00,0.202,0.18,0.26,0.252
-9.597e+00,0.202,0.218,0.264,0.268
-9.593e+00,0.202,0.18,0.264,0.256
-9.589e+00,0.202,0.222,0.26,0.268
-9.585e+00,0.202,0.176,0.26,0.256
-9.581e+00,0.202,0.222,0.264,0.268
-9.578e+00,0.202,0.174,0.264,0.256
-9.574e+00,0.202,0.226,0.264,0.268
-9.570e+00,0.202,0.176,0.264,0.256
-9.566e+00,0.202,0.224,0.264,0.272
-9.562e+00,0.202,0.182,0.268,0.256
-9.558e+00,0.202,0.222,0.264,0.272
-9.555e+00,0.202,0.182,0.264,0.256
-9.551e+00,0.202,0.224,0.264,0.272
-9.547e+00,0.202,0.184,0.264,0.26
-9.543e+00,0.202,0.22,0.264,0.272
-9.539e+00,0.202,0.174,0.264,0.26
-9.535e+00,0.202,0.226,0.268,0.276
-9.531e+00,0.202,0.176,0.264,0.26
-9.528e+00,0.202,0.226,0.268,0.272
-9.524e+00,0.202,0.18,0.268,0.26
-9.520e+00,0.202,0.218,0.268,0.272
-9.516e+00,0.202,0.182,0.268,0.256
-9.512e+00,0.202,0.224,0.268,0.276
-9.508e+00,0.202,0.176,0.268,0.26
-9.505e+00,0.202,0.226,0.268,0.276
-9.501e+00,0.202,0.176,0.268,0.26
-9.497e+00,0.202,0.226,0.268,0.276
-9.493e+00,0.202,0.184,0.268,0.26
-9.489e+00,0.202,0.222,0.272,0.28
-9.485e+00,0.202,0.182,0.268,0.26
-9.482e+00,0.202,0.224,0.272,0.276
-9.478e+00,0.202,0.176,0.272,0.26
-9.474e+00,0.202,0.226,0.272,0.28
-9.470e+00,0.202,0.184,0.268,0.264
-9.466e+00,0.202,0.218,0.272,0.276
-9.462e+00,0.204,0.176,0.272,0.264
-9.459e+00,0.204,0.226,0.272,0.276
-9.455e+00,0.202,0.182,0.272,0.264
-9.451e+00,0.204,0.226,0.272,0.28
-9.447e+00,0.202,0.184,0.272,0.264
-9.443e+00,0.204,0.22,0.272,0.28
-9.439e+00,0.204,0.178,0.272,0.264
-9.435e+00,0.204,0.226,0.272,0.28
-9.432e+00,0.204,0.174,0.272,0.264
-9.428e+00,0.204,0.228,0.272,0.28
-9.424e+00,0.204,0.184,0.272,0.268
-9.420e+00,0.204,0.226,0.276,0.28
-9.416e+00,0.204,0.184,0.276,0.268
-9.412e+00,0.204,0.222,0.276,0.28
-9.409e+00,0.204,0.178,0.276,0.268
-9.405e+00,0.204,0.226,0.276,0.284
-9.401e+00,0.204,0.176,0.276,0.268
-9.397e+00,0.204,0.228,0.276,0.284
-9.393e+00,0.204,0.186,0.276,0.268
-9.389e+00,0.204,0.22,0.276,0.284
-9.386e+00,0.204,0.182,0.276,0.272
-9.382e+00,0.204,0.224,0.276,0.284
-9.378e+00,0.204,0.182,0.276,0.268
-9.374e+00,0.204,0.224,0.276,0.288
-9.370e+00,0.204,0.176,0.28,0.272
-9.366e+00,0.204,0.228,0.276,0.284
-9.363e+00,0.204,0.178,0.28,0.272
-9.359e+00,0.204,0.228,0.28,0.284
-9.355e+00,0.204,0.178,0.28,0.268
-9.351e+00,0.204,0.228,0.28,0.292
-9.347e+00,0.204,0.184,0.28,0.26
-9.343e+00,0.204,0.226,0.28,0.292
-9.339e+00,0.204,0.184,0.28,0.272
-9.336e+00,0.204,0.222,0.28,0.288
-9.332e+00,0.204,0.178,0.28,0.272
-9.328e+00,0.204,0.228,0.28,0.288
-9.324e+00,0.204,0.176,0.28,0.272
-9.320e+00,0.204,0.23,0.28,0.288
-9.316e+00,0.204,0.188,0.284,0.272
-9.313e+00,0.204,0.222,0.284,0.292
-9.309e+00,0.204,0.186,0.284,0.276
-9.305e+00,0.204,0.226,0.284,0.288
-9.301e+00,0.206,0.178,0.284,0.276
-9.297e+00,0.204,0.228,0.284,0.288
-9.293e+00,0.206,0.176,0.28,0.276
-9.290e+00,0.204,0.23,0.284,0.292
-9.286e+00,0.204,0.182,0.284,0.276
-9.282e+00,0.206,0.226,0.284,0.292
-9.278e+00,0.206,0.186,0.284,0.28
-9.274e+00,0.206,0.228,0.284,0.292
-9.270e+00,0.206,0.18,0.284,0.28
-9.267e+00,0.206,0.23,0.284,0.292
-9.263e+00,0.206,0.19,0.288,0.28
-9.259e+00,0.206,0.22,0.284,0.292
-9.255e+00,0.206,0.178,0.288,0.28
-9.251e+00,0.206,0.23,0.288,0.292
-9.247e+00,0.206,0.186,0.288,0.28
-9.243e+00,0.206,0.226,0.288,0.296
-9.240e+00,0.206,0.188,0.288,0.28
-9.236e+00,0.206,0.224,0.288,0.296
-9.232e+00,0.206,0.18,0.288,0.28
-9.228e+00,0.206,0.228,0.288,0.296
-9.224e+00,0.206,0.178,0.288,0.284
-9.220e+00,0.206,0.23,0.288,0.296
-9.217e+00,0.206,0.186,0.288,0.284
-9.213e+00,0.206,0.226,0.288,0.3
-9.209e+00,0.206,0.188,0.292,0.28
-9.205e+00,0.206,0.226,0.292,0.3
-9.201e+00,0.206,0.184,0.292,0.284
-9.197e+00,0.206,0.228,0.292,0.296
-9.194e+00,0.206,0.178,0.292,0.28
-9.190e+00,0.206,0.23,0.292,0.304
-9.186e+00,0.206,0.188,0.292,0.284
-9.182e+00,0.206,0.222,0.292,0.3
-9.178e+00,0.206,0.18,0.292,0.284
-9.174e+00,0.206,0.228,0.292,0.3
-9.171e+00,0.206,0.188,0.296,0.284
-9.167e+00,0.206,0.23,0.292,0.3
-9.163e+00,0.208,0.186,0.296,0.284
-9.159e+00,0.208,0.226,0.296,0.304
-9.155e+00,0.206,0.18,0.296,0.284
-9.151e+00,0.208,0.23,0.296,0.304
-9.147e+00,0.206,0.18,0.292,0.288
-9.144e+00,0.206,0.232,0.296,0.3
-9.140e+00,0.206,0.188,0.296,0.288
-9.136e+00,0.208,0.228,0.296,0.304
-9.132e+00,0.206,0.188,0.296,0.288
-9.128e+00,0.208,0.226,0.296,0.304
-9.124e+00,0.208,0.182,0.296,0.292
-9.121e+00,0.208,0.232,0.296,0.304
-9.117e+00,0.206,0.18,0.296,0.292
-9.113e+00,0.208,0.232,0.296,0.304
-9.109e+00,0.208,0.188,0.296,0.292
-9.105e+00,0.208,0.224,0.296,0.304
-9.101e+00,0.208,0.188,0.3,0.292
-9.098e+00,0.208,0.23,0.3,0.304
-9.094e+00,0.208,0.182,0.3,0.292
-9.090e+00,0.208,0.23,0.3,0.304
-9.086e+00,0.208,0.19,0.3,0.292
-9.082e+00,0.208,0.224,0.3,0.304
-9.078e+00,0.208,0.18,0.3,0.292
-9.075e+00,0.208,0.232,0.3,0.308
-9.071e+00,0.208,0.186,0.3,0.292
-9.067e+00,0.208,0.23,0.3,0.308
-9.063e+00,0.208,0.186,0.304,0.296
-9.059e+00,0.208,0.23,0.3,0.308
-9.055e+00,0.208,0.182,0.304,0.292
-9.051e+00,0.208,0.23,0.3,0.312
-9.048e+00,0.208,0.18,0.3,0.296
-9.044e+00,0.208,0.232,0.304,0.312
-9.040e+00,0.208,0.188,0.304,0.292
-9.036e+00,0.208,0.23,0.304,0.316
-9.032e+00,0.208,0.188,0.304,0.292
-9.028e+00,0.208,0.226,0.304,0.316
-9.025e+00,0.208,0.188,0.304,0.296
-9.021e+00,0.208,0.23,0.304,0.312
-9.017e+00,0.208,0.18,0.304,0.296
-9.013e+00,0.208,0.232,0.304,0.312
-9.009e+00,0.21,0.184,0.304,0.3
-9.005e+00,0.208,0.232,0.308,0.312
-9.002e+00,0.208,0.19,0.308,0.296
-8.998e+00,0.208,0.228,0.308,0.316
-8.994e+00,0.208,0.19,0.308,0.3
-8.990e+00,0.21,0.23,0.308,0.312
-8.986e+00,0.208,0.18,0.308,0.3
-8.982e+00,0.21,0.232,0.308,0.316
-8.978e+00,0.21,0.182,0.308,0.3
-8.975e+00,0.21,0.232,0.308,0.316
-8.971e+00,0.21,0.182,0.312,0.3
-8.967e+00,0.21,0.234,0.308,0.316
-8.963e+00,0.21,0.19,0.308,0.304
-8.959e+00,0.21,0.232,0.312,0.316
-8.955e+00,0.21,0.192,0.312,0.304
-8.952e+00,0.21,0.226,0.312,0.316
-8.948e+00,0.21,0.182,0.312,0.304
-8.944e+00,0.21,0.232,0.312,0.316
-8.940e+00,0.21,0.182,0.312,0.304
-8.936e+00,0.21,0.234,0.312,0.316
-8.932e+00,0.21,0.19,0.312,0.304
-8.929e+00,0.21,0.232,0.312,0.32
-8.925e+00,0.21,0.19,0.312,0.304
-8.921e+00,0.21,0.23,0.312,0.32
-8.917e+00,0.21,0.182,0.312,0.308
-8.913e+00,0.21,0.232,0.312,0.32
-8.909e+00,0.21,0.182,0.312,0.308
-8.906e+00,0.21,0.234,0.312,0.32
-8.902e+00,0.21,0.192,0.312,0.308
-8.898e+00,0.21,0.226,0.316,0.32
-8.894e+00,0.21,0.19,0.316,0.308
-8.890e+00,0.21,0.23,0.316,0.324
-8.886e+00,0.21,0.184,0.316,0.308
-8.882e+00,0.21,0.232,0.316,0.324
-8.879e+00,0.21,0.194,0.316,0.304
-8.875e+00,0.21,0.226,0.316,0.328
-8.871e+00,0.21,0.184,0.316,0.308
-8.867e+00,0.21,0.234,0.316,0.328
-8.863e+00,0.21,0.19,0.316,0.312
-8.859e+00,0.21,0.232,0.316,0.324
-8.856e+00,0.21,0.19,0.316,0.312
-8.852e+00,0.21,0.232,0.32,0.328
-8.848e+00,0.21,0.192,0.316,0.312
-8.844e+00,0.21,0.226,0.32,0.324
-8.840e+00,0.21,0.182,0.32,0.312
-8.836e+00,0.212,0.234,0.32,0.328
-8.833e+00,0.21,0.186,0.32,0.312
-8.829e+00,0.21,0.232,0.32,0.328
-8.825e+00,0.21,0.192,0.324,0.312
-8.821e+00,0.212,0.23,0.32,0.328
-8.817e+00,0.212,0.192,0.32,0.316
-8.813e+00,0.21,0.232,0.324,0.328
-8.810e+00,0.21,0.184,0.324,0.316
-8.806e+00,0.21,0.236,0.32,0.328
-8.802e+00,0.212,0.194,0.32,0.316
-8.798e+00,0.21,0.226,0.324,0.328
-8.794e+00,0.21,0.182,0.324,0.316
-8.790e+00,0.212,0.236,0.324,0.332
-8.786e+00,0.212,0.192,0.324,0.316
-8.783e+00,0.212,0.234,0.324,0.328
-8.779e+00,0.212,0.188,0.328,0.32
-8.775e+00,0.212,0.23,0.324,0.332
-8.771e+00,0.212,0.186,0.324,0.32
-8.767e+00,0.212,0.236,0.324,0.332
-8.763e+00,0.212,0.186,0.324,0.32
-8.760e+00,0.212,0.236,0.328,0.332
-8.756e+00,0.212,0.192,0.324,0.32
-8.752e+00,0.212,0.234,0.328,0.336
-8.748e+00,0.212,0.194,0.328,0.32
-8.744e+00,0.212,0.228,0.328,0.336
-8.740e+00,0.212,0.188,0.328,0.32
-8.737e+00,0.212,0.236,0.328,0.336
-8.733e+00,0.212,0.184,0.328,0.32
-8.729e+00,0.212,0.236,0.328,0.336
-8.725e+00,0.212,0.194,0.328,0.324
-8.721e+00,0.212,0.23,0.328,0.336
-8.717e+00,0.212,0.192,0.332,0.316
-8.714e+00,0.212,0.234,0.328,0.344
-8.710e+00,0.212,0.186,0.332,0.312
-8.706e+00,0.212,0.234,0.332,0.34
-8.702e+00,0.212,0.186,0.332,0.324
-8.698e+00,0.212,0.238,0.332,0.34
-8.694e+00,0.212,0.186,0.332,0.324
-8.690e+00,0.212,0.236,0.332,0.34
-8.687e+00,0.212,0.192,0.332,0.324
-8.683e+00,0.212,0.232,0.332,0.34
-8.679e+00,0.212,0.192,0.336,0.324
-8.675e+00,0.212,0.234,0.332,0.344
-8.671e+00,0.212,0.194,0.332,0.328
-8.667e+00,0.212,0.23,0.336,0.34
-8.664e+00,0.212,0.184,0.336,0.328
-8.660e+00,0.212,0.238,0.336,0.34
-8.656e+00,0.212,0.19,0.332,0.328
-8.652e+00,0.212,0.234,0.336,0.34
-8.648e+00,0.214,0.194,0.336,0.332
-8.644e+00,0.214,0.236,0.336,0.344
-8.641e+00,0.212,0.192,0.336,0.328
-8.637e+00,0.214,0.23,0.336,0.344
-8.633e+00,0.214,0.186,0.336,0.332
-8.629e+00,0.214,0.238,0.336,0.344
-8.625e+00,0.214,0.186,0.34,0.332
-8.621e+00,0.214,0.238,0.34,0.344
-8.618e+00,0.214,0.194,0.336,0.332
-8.614e+00,0.214,0.232,0.34,0.344
-8.610e+00,0.214,0.194,0.34,0.332
-8.606e+00,0.214,0.236,0.34,0.344
-8.602e+00,0.214,0.188,0.34,0.332
-8.598e+00,0.214,0.236,0.34,0.348
-8.594e+00,0.214,0.194,0.34,0.336
-8.591e+00,0.214,0.23,0.34,0.348
-8.587e+00,0.214,0.186,0.34,0.336
-8.583e+00,0.214,0.238,0.34,0.348
-8.579e+00,0.214,0.194,0.344,0.332
-8.575e+00,0.214,0.236,0.344,0.352
-8.571e+00,0.214,0.194,0.344,0.336
-8.568e+00,0.214,0.234,0.344,0.348
-8.564e+00,0.214,0.188,0.344,0.336
-8.560e+00,0.214,0.238,0.344,0.352
-8.556e+00,0.214,0.186,0.344,0.332
-8.552e+00,0.214,0.238,0.344,0.356
-8.548e+00,0.214,0.194,0.344,0.336
-8.545e+00,0.214,0.236,0.344,0.352
-8.541e+00,0.214,0.196,0.344,0.34
-8.537e+00,0.214,0.23,0.344,0.356
-8.533e+00,0.214,0.19,0.348,0.336
-8.529e+00,0.214,0.238,0.348,0.352
-8.525e+00,0.214,0.186,0.348,0.34
-8.522e+00,0.214,0.238,0.348,0.356
-8.518e+00,0.214,0.196,0.348,0.34
-8.514e+00,0.214,0.23,0.348,0.356
-8.510e+00,0.214,0.194,0.348,0.344
-8.506e+00,0.216,0.236,0.348,0.356
-8.502e+00,0.214,0.196,0.348,0.34
-8.498e+00,0.214,0.238,0.348,0.356
-8.495e+00,0.216,0.188,0.352,0.344
-8.491e+00,0.214,0.238,0.352,0.356
-8.487e+00,0.214,0.188,0.352,0.344
-8.483e+00,0.216,0.238,0.348,0.356
-8.479e+00,0.214,0.192,0.352,0.344
-8.475e+00,0.216,0.236,0.352,0.356
-8.472e+00,0.214,0.196,0.352,0.344
-8.468e+00,0.216,0.238,0.352,0.356
-8.464e+00,0.216,0.198,0.352,0.344
-8.460e+00,0.216,0.234,0.356,0.36
-8.456e+00,0.216,0.188,0.352,0.348
-8.452e+00,0.216,0.238,0.352,0.36
-8.449e+00,0.216,0.188,0.352,0.348
-8.445e+00,0.216,0.24,0.356,0.36
-8.441e+00,0.216,0.198,0.356,0.348
-8.437e+00,0.216,0.232,0.352,0.36
-8.433e+00,0.216,0.196,0.356,0.348
-8.429e+00,0.216,0.238,0.356,0.36
-8.425e+00,0.216,0.19,0.356,0.348
-8.422e+00,0.216,0.24,0.356,0.364
-8.418e+00,0.216,0.188,0.356,0.348
-8.414e+00,0.216,0.24,0.36,0.364
-8.410e+00,0.216,0.198,0.356,0.352
-8.406e+00,0.216,0.234,0.36,0.364
-8.402e+00,0.216,0.198,0.356,0.348
-8.399e+00,0.216,0.238,0.36,0.368
-8.395e+00,0.216,0.19,0.36,0.344
-8.391e+00,0.216,0.24,0.36,0.368
-8.387e+00,0.216,0.198,0.36,0.352
-8.383e+00,0.216,0.232,0.36,0.364
-8.379e+00,0.216,0.188,0.36,0.352
-8.376e+00,0.216,0.24,0.36,0.368
-8.372e+00,0.216,0.198,0.36,0.356
-8.368e+00,0.216,0.238,0.36,0.368
-8.364e+00,0.216,0.194,0.36,0.352
-8.360e+00,0.216,0.238,0.364,0.372
-8.356e+00,0.216,0.192,0.36,0.356
-8.353e+00,0.216,0.24,0.36,0.368
-8.349e+00,0.216,0.19,0.364,0.356
-8.345e+00,0.216,0.242,0.364,0.372
-8.341e+00,0.218,0.196,0.364,0.356
-8.337e+00,0.218,0.24,0.364,0.368
-8.333e+00,0.216,0.2,0.364,0.356
-8.329e+00,0.216,0.238,0.364,0.372
-8.326e+00,0.216,0.196,0.364,0.36
-8.322e+00,0.218,0.238,0.364,0.372
-8.318e+00,0.218,0.19,0.364,0.36
-8.314e+00,0.218,0.24,0.368,0.372
-8.310e+00,0.218,0.198,0.364,0.36
-8.306e+00,0.218,0.234,0.368,0.372
-8.303e+00,0.218,0.194,0.368,0.36
-8.299e+00,0.218,0.236,0.368,0.372
-8.295e+00,0.218,0.198,0.368,0.36
-8.291e+00,0.218,0.24,0.368,0.376
-8.287e+00,0.218,0.19,0.368,0.36
-8.283e+00,0.218,0.242,0.368,0.376
-8.280e+00,0.218,0.192,0.368,0.364
-8.276e+00,0.218,0.24,0.372,0.376
-8.272e+00,0.218,0.188,0.368,0.364
-8.268e+00,0.218,0.242,0.368,0.376
-8.264e+00,0.218,0.198,0.368,0.364
-8.260e+00,0.218,0.24,0.372,0.376
-8.257e+00,0.218,0.198,0.372,0.364
-8.253e+00,0.218,0.236,0.372,0.38
-8.249e+00,0.218,0.192,0.372,0.364
-8.245e+00,0.218,0.242,0.372,0.38
-8.241e+00,0.218,0.19,0.376,0.36
-8.237e+00,0.218,0.244,0.372,0.384
-8.233e+00,0.218,0.2,0.372,0.364
-8.230e+00,0.218,0.232,0.372,0.384
-8.226e+00,0.218,0.2,0.372,0.368
-8.222e+00,0.218,0.24,0.372,0.38
-8.218e+00,0.218,0.192,0.372,0.368
-8.214e+00,0.218,0.242,0.376,0.384
-8.210e+00,0.218,0.192,0.376,0.368
-8.207e+00,0.218,0.244,0.376,0.384
-8.203e+00,0.218,0.196,0.376,0.368
-8.199e+00,0.218,0.238,0.376,0.384
-8.195e+00,0.218,0.2,0.376,0.372
-8.191e+00,0.218,0.24,0.376,0.384
-8.187e+00,0.218,0.192,0.376,0.372
-8.184e+00,0.218,0.24,0.376,0.384
-8.180e+00,0.218,0.204,0.38,0.372
-8.176e+00,0.218,0.234,0.38,0.384
-8.172e+00,0.22,0.192,0.38,0.372
-8.168e+00,0.218,0.244,0.38,0.384
-8.164e+00,0.22,0.198,0.38,0.372
-8.161e+00,0.218,0.24,0.38,0.388
-8.157e+00,0.22,0.2,0.38,0.376
-8.153e+00,0.22,0.238,0.38,0.388
-8.149e+00,0.22,0.2,0.38,0.376
-8.145e+00,0.22,0.24,0.38,0.388
-8.141e+00,0.22,0.192,0.384,0.376
-8.137e+00,0.22,0.244,0.38,0.388
-8.134e+00,0.22,0.198,0.384,0.376
-8.130e+00,0.22,0.238,0.384,0.392
-8.126e+00,0.22,0.2,0.384,0.376
-8.122e+00,0.22,0.238,0.384,0.388
-8.118e+00,0.22,0.2,0.384,0.38
-8.114e+00,0.22,0.242,0.388,0.392
-8.111e+00,0.22,0.192,0.384,0.38
-8.107e+00,0.22,0.246,0.384,0.392
-8.103e+00,0.22,0.202,0.384,0.38
-8.099e+00,0.22,0.236,0.388,0.396
-8.095e+00,0.22,0.194,0.388,0.38
-8.091e+00,0.22,0.244,0.388,0.392
-8.088e+00,0.22,0.2,0.388,0.38
-8.084e+00,0.22,0.242,0.388,0.396
-8.080e+00,0.22,0.202,0.388,0.376
-8.076e+00,0.22,0.238,0.388,0.4
-8.072e+00,0.22,0.194,0.388,0.372
-8.068e+00,0.22,0.244,0.392,0.4
-8.065e+00,0.22,0.192,0.388,0.384
-8.061e+00,0.22,0.244,0.392,0.4
-8.057e+00,0.22,0.202,0.392,0.384
-8.053e+00,0.22,0.244,0.392,0.396
-8.049e+00,0.22,0.2,0.392,0.384
-8.045e+00,0.22,0.24,0.392,0.396
-8.041e+00,0.22,0.196,0.392,0.384
-8.038e+00,0.22,0.244,0.392,0.4
-8.034e+00,0.222,0.192,0.392,0.384
-8.030e+00,0.22,0.246,0.392,0.4
-8.026e+00,0.22,0.202,0.392,0.388
-8.022e+00,0.22,0.238,0.396,0.4
-8.018e+00,0.222,0.202,0.392,0.388
-8.015e+00,0.222,0.244,0.396,0.4
-8.011e+00,0.222,0.196,0.396,0.388
-8.007e+00,0.222,0.244,0.396,0.4
-8.003e+00,0.222,0.194,0.396,0.388
-7.999e+00,0.222,0.246,0.396,0.4
-7.995e+00,0.222,0.194,0.396,0.388
-7.992e+00,0.222,0.246,0.396,0.404
-7.988e+00,0.222,0.202,0.396,0.392
-7.984e+00,0.222,0.244,0.396,0.404
-7.980e+00,0.222,0.2,0.4,0.392
-7.976e+00,0.222,0.244,0.4,0.404
-7.972e+00,0.222,0.202,0.396,0.392
-7.969e+00,0.222,0.242,0.4,0.404
-7.965e+00,0.222,0.194,0.4,0.392
-7.961e+00,0.222,0.246,0.4,0.408
-7.957e+00,0.222,0.2,0.4,0.396
-7.953e+00,0.222,0.242,0.4,0.408
-7.949e+00,0.222,0.2,0.404,0.396
-7.945e+00,0.222,0.242,0.4,0.408
-7.942e+00,0.222,0.202,0.404,0.396
-7.938e+00,0.222,0.244,0.404,0.412
-7.934e+00,0.01,-0.016,0.4,0.372
-7.930e+00,0.01,0.236,0.384,0.408
-7.926e+00,0.012,-0.016,0.368,0.34
-7.922e+00,0.012,0.036,0.356,0.38
-7.919e+00,0.012,-0.01,0.34,0.308
-7.915e+00,0.012,0.03,0.324,0.356
-7.911e+00,0.012,-0.008,0.312,0.284
-7.907e+00,0.012,0.034,0.3,0.324
-7.903e+00,0.012,-0.012,0.284,0.26
-7.899e+00,0.012,0.032,0.272,0.296
-7.896e+00,0.012,-0.016,0.264,0.24
-7.892e+00,0.012,0.034,0.252,0.276
-7.888e+00,0.012,-0.016,0.24,0.22
-7.884e+00,0.012,0.036,0.232,0.252
-7.880e+00,0.012,-0.01,0.22,0.2
-7.876e+00,0.012,0.034,0.212,0.232
-7.873e+00,0.012,-0.01,0.204,0.184
-7.869e+00,0.012,0.03,0.196,0.212
-7.865e+00,0.012,-0.014,0.188,0.172
-7.861e+00,0.012,0.034,0.18,0.196
-7.857e+00,0.012,-0.016,0.172,0.156
-7.853e+00,0.012,0.036,0.164,0.18
-7.849e+00,0.012,-0.008,0.16,0.144
-7.846e+00,0.012,0.034,0.152,0.168
-7.842e+00,0.012,-0.01,0.144,0.132
-7.838e+00,0.012,0.032,0.14,0.152
-7.834e+00,0.012,-0.012,0.132,0.12
-7.830e+00,0.012,0.034,0.128,0.14
-7.826e+00,0.012,-0.016,0.12,0.108
-7.823e+00,0.012,0.036,0.12,0.132
-7.819e+00,0.012,-0.008,0.112,0.1
-7.815e+00,0.012,0.03,0.108,0.12
-7.811e+00,0.012,-0.008,0.104,0.092
-7.807e+00,0.012,0.032,0.1,0.112
-7.803e+00,0.012,-0.01,0.096,0.084
-7.800e+00,0.012,0.034,0.092,0.104
-7.796e+00,0.012,-0.006,0.088,0.076
-7.792e+00,0.012,0.03,0.084,0.096
-7.788e+00,0.012,-0.016,0.08,0.072
