lab03/data/C.CSV

Model,DPO2012
Firmware Version,1.39

Point Format,Y,,,
Horizontal Units,S,,,
Horizontal Scale,2,,,
Sample Interval,0.00384025,,,
Filter Frequency,1.4e+06,,,
Record Length,5200,,,
Gating,0.0% to 100.0%,,0.0% to 100.0%,
Probe Attenuation,1,,1,
Vertical Units,V,,V,
Vertical Offset,0,,0,
Vertical Scale,0.1,,5,
Label,,,,
TIME,CH1,CH1 Peak Detect,CH2,CH2 Peak Detect
-1.000e+01,-0.004,0.008,-8.8,-8.6
-9.996e+00,-0,-0.012,-9,-9.2
-9.992e+00,-0.004,0.004,-9,-8.6
-9.988e+00,-0.004,-0.012,-9,-9.2
-9.985e+00,-0,0.008,-9,-8.6
-9.981e+00,-0,-0.012,-9,-9.2
-9.977e+00,-0.004,0.008,-9,-8.6
-9.973e+00,-0.004,-0.012,-9,-9.2
-9.969e+00,-0,0.004,-9,-8.8
-9.965e+00,-0,-0.012,-9,-9.2
-9.962e+00,-0.004,0.004,-9,-8.8
-9.958e+00,-0.004,-0.012,-9,-9.2
-9.954e+00,-0,0.004,-9,-8.8
-9.950e+00,-0,-0.008,-9,-9.2
-9.946e+00,-0.004,0.008,-9,-8.8
-9.942e+00,-0.004,-0.012,-9,-9.2
-9.939e+00,-0,0.004,-9,-8.8
-9.935e+00,-0.004,-0.008,-9,-9.2
-9.931e+00,-0.004,0.004,-9,-8.8
-9.927e+00,-0,-0.012,-9,-9.2
-9.923e+00,-0,0.004,-9,-8.8
-9.919e+00,-0.004,-0.008,-9,-9.2
-9.916e+00,-0.004,0.004,-9,-8.8
-9.912e+00,-0.004,-0.012,-9,-9.2
-9.908e+00,-0.004,0.004,-9,-8.8
-9.904e+00,-0.004,-0.012,-9,-9.2
-9.900e+00,-0.004,0.008,-9,-8.8
-9.896e+00,-0.004,-0.008,-9,-9.2
-9.892e+00,-0,0.004,-9,-8.8
-9.889e+00,-0.004,-0.012,-9,-9.2
-9.885e+00,-0.004,0.004,-9,-8.8
-9.881e+00,-0.004,-0.012,-9,-9.2
-9.877e+00,-0.004,0.008,-9,-8.8
-9.873e+00,-0.004,-0.012,-9,-9.2
-9.869e+00,-0.004,0.004,-9,-8.8
-9.866e+00,-0,-0.012,-9,-9.2
-9.862e+00,-0.004,0.008,-9,-8.8
-9.858e+00,-0.004,-0.016,-9,-9.2
-9.854e+00,-0.004,0.008,-9,-8.8
-9.850e+00,-0,-0.012,-9,-9.2
-9.846e+00,-0.004,0.004,-9,-8.8
-9.843e+00,-0.004,-0.012,-9,-9.2
-9.839e+00,-0,0.008,-9,-8.8
-9.835e+00,-0.004,-0.012,-9,-9.2
-9.831e+00,-0.004,0.004,-9,-8.8
-9.827e+00,-0.004,-0.012,-9,-9.2
-9.823e+00,-0.004,0.008,-9,-8.8
-9.820e+00,-0,-0.012,-9,-9.2
-9.816e+00,-0.004,0.004,-9,-8.8
-9.812e+00,-0,-0.012,-9,-9.2
-9.808e+00,-0.004,0.004,-9.2,-8.8
-9.804e+00,-0,-0.012,-9,-9.2
-9.800e+00,-0.004,0.008,-9.2,-8.8
-9.796e+00,-0.004,-0.012,-9,-9.2
-9.793e+00,-0,0.004,-9.2,-8.8
-9.789e+00,-0.004,-0.008,-9.2,-9.4
-9.785e+00,-0.004,0.004,-9.2,-8.8
-9.781e+00,-0.004,-0.012,-9,-9.4
-9.777e+00,-0,0.004,-9.2,-8.8
-9.773e+00,-0.004,-0.012,-9,-9.4
-9.770e+00,-0.004,0.004,-9.2,-9
-9.766e+00,-0,-0.012,-9.2,-9.4
-9.762e+00,-0.004,0.004,-9.2,-9
-9.758e+00,-0.004,-0.012,-9.2,-9.4
-9.754e+00,-0.004,0.004,-9.2,-9
-9.750e+00,-0.004,-0.012,-9.2,-9.4
-9.747e+00,-0.004,0.004,-9.2,-9
-9.743e+00,-0.004,-0.012,-9.2,-9.4
-9.739e+00,-0.004,0.004,-9.2,-9
-9.735e+00,-0.004,-0.012,-9.2,-9.4
-9.731e+00,-0.004,0.004,-9.2,-9
-9.727e+00,-0.004,-0.012,-9.2,-9.4
-9.724e+00,-0.004,0.004,-9.2,-9
-9.720e+00,-0,-0.012,-9.2,-9.4
-9.716e+00,-0.004,0.004,-9.2,-9
-9.712e+00,-0.004,-0.012,-9.2,-9.4
-9.708e+00,-0.004,0.004,-9.2,-9
-9.704e+00,-0.004,-0.012,-9.2,-9.4
-9.700e+00,-0.004,0.008,-9.2,-9
-9.697e+00,-0.004,-0.016,-9.2,-9.4
-9.693e+00,-0.004,0.008,-9.2,-9
-9.689e+00,-0.004,-0.02,-9.2,-9.4
-9.685e+00,-0.004,0.004,-9.2,-9
-9.681e+00,-0.004,-0.012,-9.2,-9.4
-9.677e+00,-0,0.008,-9.2,-9
-9.674e+00,-0.004,-0.012,-9.2,-9.4
-9.670e+00,-0.004,0.004,-9.2,-9
-9.666e+00,-0.004,-0.012,-9.2,-9.4
-9.662e+00,-0.004,0.008,-9.2,-9
-9.658e+00,-0,-0.012,-9.2,-9.4
-9.654e+00,-0.004,0.004,-9.2,-9
-9.651e+00,-0.004,-0.012,-9.2,-9.4
-9.647e+00,-0,0.004,-9.2,-9
-9.643e+00,-0.004,-0.012,-9.2,-9.4
-9.639e+00,-0.004,0.008,-9.2,-9
-9.635e+00,-0.004,-0.012,-9.2,-9.4
-9.631e+00,-0.004,0.004,-9.2,-9
-9.627e+00,-0.004,-0.012,-9.2,-9.6
-9.624e+00,-0.004,0.004,-9.2,-9
-9.620e+00,-0,-0.012,-9.2,-9.6
-9.616e+00,-0.004,0.004,-9.2,-9
-9.612e+00,-0.004,-0.012,-9.2,-9.6
-9.608e+00,-0.004,0.004,-9.2,-9
-9.604e+00,-0,-0.012,-9.2,-9.6
-9.601e+00,-0.004,0.004,-9.2,-9
-9.597e+00,-0.004,-0.012,-9.2,-9.6
-9.593e+00,-0.004,0.004,-9.2,-9
-9.589e+00,-0.004,-0.012,-9.2,-9.6
-9.585e+00,-0.004,0.004,-9.4,-9
-9.581e+00,-0.004,-0.012,-9.4,-9.6
-9.578e+00,-0.004,0.004,-9.4,-9
-9.574e+00,-0,-0.012,-9.4,-9.6
-9.570e+00,-0.004,0.004,-9.2,-9
-9.566e+00,-0.004,-0.012,-9.4,-9.6
-9.562e+00,-0.004,0.008,-9.4,-9.2
-9.558e+00,-0,-0.012,-9.4,-9.6
-9.555e+00,-0,0.004,-9.4,-9.2
-9.551e+00,-0.004,-0.012,-9.4,-9.6
-9.547e+00,-0,0.004,-9.4,-9.2
-9.543e+00,-0.004,-0.012,-9.4,-9.6
-9.539e+00,-0.004,0.008,-9.4,-9.2
-9.535e+00,-0.004,-0.016,-9.4,-9.6
-9.531e+00,-0.004,0.004,-9.4,-9.2
-9.528e+00,-0.004,-0.012,-9.4,-9.6
-9.524e+00,-0.004,0.008,-9.4,-9.2
-9.520e+00,-0.004,-0.012,-9.4,-9.6
-9.516e+00,-0.004,0.004,-9.4,-9.2
-9.512e+00,-0.004,-0.012,-9.4,-9.6
-9.508e+00,-0.004,0.004,-9.4,-9
-9.505e+00,-0.004,-0.012,-9.2,-9.6
-9.501e+00,-0.004,0.008,-9.2,-9
-9.497e+00,-0.004,-0.012,-9.2,-9.4
-9.493e+00,-0.004,0.004,-9.2,-8.8
-9.489e+00,-0.004,-0.012,-9,-9.4
-9.485e+00,-0,0.004,-9,-8.8
-9.482e+00,-0.004,-0.012,-9,-9.2
-9.478e+00,-0.004,0.004,-9,-8.6
-9.474e+00,-0,-0.012,-8.8,-9.2
-9.470e+00,-0.004,0.004,-8.8,-8.6
-9.466e+00,-0.004,-0.012,-8.8,-9
-9.462e+00,-0.004,0.004,-8.8,-8.4
-9.459e+00,-0.004,-0.012,-8.6,-9
-9.455e+00,-0.004,0.004,-8.6,-8.4
-9.451e+00,-0.004,-0.008,-8.6,-8.8
-9.447e+00,-0.004,0.004,-8.6,-8.2
-9.443e+00,-0.004,-0.012,-8.4,-8.8
-9.439e+00,-0.004,0.004,-8.4,-8.2
-9.435e+00,-0.004,-0.008,-8.4,-8.6
-9.432e+00,-0.004,0.004,-8.4,-8
-9.428e+00,-0,-0.012,-8.2,-8.6
-9.424e+00,-0.004,0.004,-8.2,-8
-9.420e+00,-0,-0.008,-8.2,-8.4
-9.416e+00,-0.004,0.004,-8.2,-7.8
-9.412e+00,-0,-0.012,-8,-8.4
-9.409e+00,-0.004,0.004,-8,-7.8
-9.405e+00,-0.004,-0.008,-8,-8.2
-9.401e+00,-0,0.008,-8,-7.8
-9.397e+00,-0.004,-0.012,-8,-8.2
-9.393e+00,-0,0.004,-8,-7.8
-9.389e+00,-0.004,-0.008,-8,-8.2
-9.386e+00,-0,0.012,-8,-7.8
-9.382e+00,-0,-0.012,-8,-8.2
-9.378e+00,-0.004,0.008,-8,-7.8
-9.374e+00,-0,-0.016,-8,-8.2
-9.370e+00,-0,0.008,-8,-7.8
-9.366e+00,-0,-0.012,-8,-8.2
-9.363e+00,-0.004,0.008,-8,-7.8
-9.359e+00,-0.004,-0.008,-8.2,-8.4
-9.355e+00,-0,0.008,-8.2,-8
-9.351e+00,-0,-0.008,-8.2,-8.4
-9.347e+00,-0,0.008,-8.2,-8
-9.343e+00,-0.004,-0.012,-8.2,-8.4
-9.339e+00,-0,0.008,-8.2,-8
-9.336e+00,-0.004,-0.012,-8.2,-8.6
-9.332e+00,-0.004,0.004,-8.4,-8.2
-9.328e+00,-0,-0.012,-8.4,-8.6
-9.324e+00,-0.004,0.008,-8.4,-8.2
-9.320e+00,-0.004,-0.012,-8.4,-8.6
-9.316e+00,-0.004,0.004,-8.4,-8.2
-9.313e+00,-0.004,-0.008,-8.4,-8.8
-9.309e+00,-0.004,0.004,-8.6,-8.4
-9.305e+00,-0.004,-0.012,-8.6,-8.8
-9.301e+00,-0,0.004,-8.6,-8.4
-9.297e+00,-0.004,-0.008,-8.6,-8.8
-9.293e+00,-0,0.004,-8.6,-8.4
-9.290e+00,-0.004,-0.012,-8.6,-8.8
-9.286e+00,-0.004,0.008,-8.6,-8.4
-9.282e+00,-0.004,-0.012,-8.6,-8.8
-9.278e+00,-0.004,0.004,-8.6,-8.4
-9.274e+00,-0.004,-0.012,-8.6,-8.8
-9.270e+00,-0.004,0.008,-8.6,-8.4
-9.267e+00,-0.004,-0.012,-8.6,-8.8
-9.263e+00,-0.004,0.004,-8.6,-8.4
-9.259e+00,-0.004,-0.012,-8.6,-8.8
-9.255e+00,-0,0.008,-8.6,-8.4
-9.251e+00,-0.004,-0.012,-8.6,-8.8
-9.247e+00,-0.004,0.008,-8.6,-8.4
-9.243e+00,-0.004,-0.012,-8.6,-8.8
-9.240e+00,-0.004,0.004,-8.6,-8.4
-9.236e+00,-0,-0.012,-8.6,-8.8
-9.232e+00,-0.004,0.004,-8.6,-8.4
-9.228e+00,-0.004,-0.012,-8.6,-8.8
-9.224e+00,-0.004,0.012,-8.6,-8.4
-9.220e+00,-0,-0.016,-8.6,-9
-9.217e+00,-0.004,0.008,-8.6,-8.4
-9.213e+00,-0.004,-0.012,-8.6,-9
-9.209e+00,-0.004,0.004,-8.8,-8.4
-9.205e+00,-0,-0.012,-8.6,-9
-9.201e+00,-0.004,0.008,-8.6,-8.4
-9.197e+00,-0.004,-0.012,-8.6,-9
-9.194e+00,-0.004,0.004,-8.8,-8.4
-9.190e+00,-0.004,-0.012,-8.8,-9
-9.186e+00,-0.004,0.008,-8.8,-8.6
-9.182e+00,-0.004,-0.012,-8.8,-9
-9.178e+00,-0.004,0.004,-8.8,-8.4
-9.174e+00,-0.004,-0.012,-8.8,-9
-9.171e+00,-0.004,0.004,-8.8,-8.6
-9.167e+00,-0,-0.012,-8.8,-9
-9.163e+00,-0.004,0.004,-8.8,-8.6
-9.159e+00,-0.004,-0.012,-8.8,-9
-9.155e+00,-0.004,0.004,-8.8,-8.6
-9.151e+00,-0.004,-0.012,-8.8,-9
-9.147e+00,-0,0.004,-8.8,-8.6
-9.144e+00,-0.004,-0.012,-8.8,-9
-9.140e+00,-0.004,0.008,-8.8,-8.6
-9.136e+00,-0.004,-0.012,-8.8,-9
-9.132e+00,-0.004,0.004,-8.8,-8.6
-9.128e+00,-0.004,-0.012,-8.8,-9
-9.124e+00,-0.004,0.004,-8.8,-8.6
-9.121e+00,-0,-0.012,-8.8,-9
-9.117e+00,-0.004,0.004,-8.8,-8.6
-9.113e+00,-0.004,-0.012,-8.8,-9
-9.109e+00,-0.004,0.004,-8.8,-8.6
-9.105e+00,-0.004,-0.012,-8.8,-9
-9.101e+00,-0,0.004,-8.8,-8.6
-9.098e+00,-0.004,-0.012,-8.8,-9
-9.094e+00,-0.004,0.004,-8.8,-8.6
-9.090e+00,-0.004,-0.012,-8.8,-9
-9.086e+00,-0.004,0.004,-8.8,-8.6
-9.082e+00,-0.004,-0.012,-8.8,-9
-9.078e+00,-0.004,0.004,-8.8,-8.6
-9.075e+00,-0,-0.012,-8.8,-9
-9.071e+00,-0.004,0.004,-8.8,-8.6
-9.067e+00,-0.004,-0.012,-8.8,-9
-9.063e+00,-0.004,0.008,-8.8,-8.6
-9.059e+00,-0.004,-0.016,-8.8,-9
-9.055e+00,-0.004,0.008,-8.8,-8.6
-9.051e+00,-0.004,-0.02,-8.8,-9.2
-9.048e+00,-0.004,0.004,-8.8,-8.6
-9.044e+00,-0.004,-0.012,-8.8,-9.2
-9.040e+00,-0.004,0.008,-8.8,-8.6
-9.036e+00,-0.004,-0.012,-9,-9.2
-9.032e+00,-0.004,0.004,-9,-8.6
-9.028e+00,-0.004,-0.012,-9,-9.2
-9.025e+00,-0.004,0.008,-9,-8.6
-9.021e+00,-0,-0.012,-9,-9.2
-9.017e+00,-0.004,0.004,-9,-8.8
-9.013e+00,-0.004,-0.012,-9,-9.2
-9.009e+00,-0.004,0.004,-9,-8.8
-9.005e+00,-0.004,-0.012,-9,-9.2
-9.002e+00,-0,0.004,-9,-8.8
-8.998e+00,-0.004,-0.012,-9,-9.2
-8.994e+00,-0.004,0.004,-9,-8.8
-8.990e+00,-0.004,-0.012,-9,-9.2
-8.986e+00,-0.004,0.004,-9,-8.8
-8.982e+00,-0.004,-0.012,-9,-9.2
-8.978e+00,-0.004,0.004,-9,-8.8
-8.975e+00,-0.004,-0.012,-9,-9.2
-8.971e+00,-0.004,0.004,-9,-8.8
-8.967e+00,-0.004,-0.012,-9,-9.2
-8.963e+00,-0.004,0.004,-9,-8.8
-8.959e+00,-0.004,-0.012,-9,-9.2
-8.955e+00,-0.004,0.004,-9,-8.8
-8.952e+00,-0.004,-0.012,-9,-9.2
-8.948e+00,-0.004,0.004,-9,-8.8
-8.944e+00,-0.004,-0.012,-9,-9.2
-8.940e+00,-0.004,0.004,-9,-8.8
-8.936e+00,-0.004,-0.012,-9,-9.2
-8.932e+00,-0.004,0.004,-9,-8.8
-8.929e+00,-0.004,-0.012,-9,-9.2
-8.925e+00,-0.004,0.008,-9,-8.8
-8.921e+00,-0.004,-0.012,-9,-9.2
-8.917e+00,-0.004,0.004,-9,-8.8
-8.913e+00,-0.004,-0.012,-9,-9.2
-8.909e+00,-0.004,0.004,-9,-8.8
-8.906e+00,-0.004,-0.012,-9,-9.2
-8.902e+00,-0.004,0.008,-9,-8.8
-8.898e+00,-0.004,-0.016,-9,-9.2
-8.894e+00,-0.004,0.008,-9,-8.8
-8.890e+00,-0.004,-0.016,-9,-9.2
-8.886e+00,-0.004,0.004,-9,-8.8
-8.882e+00,-0.004,-0.012,-9,-9.2
-8.879e+00,-0.004,0.008,-9,-8.8
-8.875e+00,-0.004,-0.012,-9,-9.2
-8.871e+00,-0.004,0.004,-9,-8.8
-8.867e+00,-0.004,-0.012,-9.2,-9.4
-8.863e+00,-0.004,0.008,-9,-8.8
-8.859e+00,-0.004,-0.012,-9,-9.4
-8.856e+00,-0,0.004,-9.2,-8.8
-8.852e+00,-0.004,-0.012,-9,-9.2
-8.848e+00,-0.004,0.004,-9.2,-8.8
-8.844e+00,-0.004,-0.012,-9.2,-9.4
-8.840e+00,-0.004,0.004,-9.2,-8.8
-8.836e+00,-0.004,-0.012,-9.2,-9.4
-8.833e+00,-0.008,0.004,-9.2,-9
-8.829e+00,-0.004,-0.012,-9.2,-9.4
-8.825e+00,-0.004,0.004,-9.2,-9
-8.821e+00,-0.004,-0.012,-9.2,-9.4
-8.817e+00,-0.004,0.004,-9.2,-9
-8.813e+00,-0.004,-0.012,-9.2,-9.4
-8.810e+00,-0.004,0.004,-9.2,-9
-8.806e+00,-0.004,-0.012,-9.2,-9.4
-8.802e+00,-0.004,0.004,-9.2,-9
-8.798e+00,-0.004,-0.012,-9.2,-9.4
-8.794e+00,-0.004,0.004,-9.2,-9
-8.790e+00,-0.004,-0.012,-9.2,-9.4
-8.786e+00,-0.004,0.008,-9.2,-9
-8.783e+00,-0.004,-0.012,-9.2,-9.4
-8.779e+00,-0.004,0.004,-9.2,-9
-8.775e+00,-0.004,-0.012,-9.2,-9.4
-8.771e+00,-0.004,0.004,-9.2,-9
-8.767e+00,-0.004,-0.012,-9.2,-9.4
-8.763e+00,-0.004,0.004,-9.2,-9
-8.760e+00,-0.004,-0.012,-9.2,-9.4
-8.756e+00,-0.004,0.004,-9.2,-9
-8.752e+00,-0.004,-0.012,-9.2,-9.4
-8.748e+00,-0.004,0.004,-9.2,-9
-8.744e+00,-0.004,-0.012,-9.2,-9.4
-8.740e+00,-0.004,0.012,-9.2,-9
-8.737e+00,-0.004,-0.02,-9.2,-9.4
-8.733e+00,-0.008,0.008,-9.2,-9
-8.729e+00,-0.004,-0.016,-9.2,-9.4
-8.725e+00,-0.004,0.004,-9.2,-9
-8.721e+00,-0.004,-0.012,-9.2,-9.4
-8.717e+00,-0.004,0.004,-9.2,-9
-8.714e+00,-0.004,-0.012,-9.2,-9.4
-8.710e+00,-0.004,0.004,-9.2,-9
-8.706e+00,-0.004,-0.012,-9.2,-9.4
-8.702e+00,-0.004,0.008,-9.2,-9
-8.698e+00,-0.004,-0.012,-9.2,-9.6
-8.694e+00,-0.004,0.004,-9.2,-9
-8.690e+00,-0.004,-0.012,-9.2,-9.4
-8.687e+00,-0.004,0.004,-9.2,-9
-8.683e+00,-0,-0.012,-9.2,-9.4
-8.679e+00,-0.004,0.004,-9.2,-9
-8.675e+00,-0.004,-0.012,-9.2,-9.4
-8.671e+00,-0.004,0.004,-9.2,-9
-8.667e+00,-0.004,-0.012,-9.2,-9.6
-8.664e+00,-0.004,0.004,-9.2,-9
-8.660e+00,-0.008,-0.012,-9.2,-9.6
-8.656e+00,-0.004,0.004,-9.2,-9
-8.652e+00,-0.004,-0.012,-9.2,-9.6
-8.648e+00,-0.004,0.004,-9.4,-9
-8.644e+00,-0.004,-0.012,-9.4,-9.6
-8.641e+00,-0.004,0.004,-9.4,-9
-8.637e+00,-0.004,-0.012,-9.4,-9.6
-8.633e+00,-0.008,0.004,-9.4,-9.2
-8.629e+00,-0.004,-0.012,-9.4,-9.6
-8.625e+00,-0.004,0.004,-9.4,-9.2
-8.621e+00,-0.004,-0.012,-9.4,-9.6
-8.618e+00,-0.004,0.004,-9.4,-9.2
-8.614e+00,-0.004,-0.012,-9.4,-9.6
-8.610e+00,-0.004,0.004,-9.4,-9.2
-8.606e+00,-0.004,-0.012,-9.4,-9.6
-8.602e+00,-0.004,0.004,-9.4,-9.2
-8.598e+00,-0.004,-0.012,-9.4,-9.6
-8.594e+00,-0.004,0.004,-9.4,-9.2
-8.591e+00,-0.004,-0.016,-9.4,-9.6
-8.587e+00,-0.004,0.008,-9.4,-9.2
-8.583e+00,-0.004,-0.016,-9.4,-9.6
-8.579e+00,-0.004,0.004,-9.4,-9.2
-8.575e+00,-0.004,-0.012,-9.4,-9.6
-8.571e+00,-0.004,0.004,-9.4,-9.2
-8.568e+00,-0.004,-0.012,-9.4,-9.6
-8.564e+00,-0.004,0.008,-9.4,-9.2
-8.560e+00,-0.008,-0.012,-9.4,-9.6
-8.556e+00,-0.004,0.004,-9.4,-9.2
-8.552e+00,-0.004,-0.012,-9.4,-9.6
-8.548e+00,-0.004,0.008,-9.4,-9.2
-8.545e+00,-0.004,-0.012,-9.4,-9.6
-8.541e+00,-0.004,0.008,-9.4,-9.2
-8.537e+00,-0.004,-0.012,-9.4,-9.6
-8.533e+00,-0.004,0.004,-9.4,-9.2
-8.529e+00,-0.004,-0.012,-9.4,-9.6
-8.525e+00,-0.004,0.004,-9.4,-9.2
-8.522e+00,-0.004,-0.012,-9.4,-9.6
-8.518e+00,-0.004,0.004,-9.4,-9.2
-8.514e+00,-0.004,-0.012,-9.4,-9.6
-8.510e+00,-0,0.004,-9.4,-9.2
-8.506e+00,-0.004,-0.012,-9.4,-9.6
-8.502e+00,-0.004,0.004,-9.4,-9.2
-8.498e+00,-0.004,-0.012,-9.4,-9.6
-8.495e+00,-0.004,0.004,-9.4,-9.2
-8.491e+00,-0.004,-0.012,-9.4,-9.6
-8.487e+00,-0.008,0.004,-9.4,-9.2
-8.483e+00,-0.004,-0.012,-9.4,-9.8
-8.479e+00,-0.004,0.004,-9.4,-9.2
-8.475e+00,-0.004,-0.012,-9.4,-9.8
-8.472e+00,-0.004,0.004,-9.4,-9.2
-8.468e+00,-0.004,-0.012,-9.4,-9.8
-8.464e+00,-0.004,0.004,-9.4,-9.2
-8.460e+00,-0.004,-0.012,-9.4,-9.8
-8.456e+00,-0.004,0.004,-9.6,-9.2
-8.452e+00,-0.004,-0.012,-9.6,-9.8
-8.449e+00,-0.004,0.004,-9.6,-9.2
-8.445e+00,-0.004,-0.012,-9.6,-9.8
-8.441e+00,-0.004,0.004,-9.6,-9.2
-8.437e+00,-0.004,-0.012,-9.6,-9.8
-8.433e+00,-0.004,0.004,-9.6,-9.2
-8.429e+00,-0.004,-0.012,-9.6,-9.8
-8.425e+00,-0.004,0.008,-9.6,-9.4
-8.422e+00,-0.004,-0.016,-9.6,-9.8
-8.418e+00,-0.004,0.008,-9.6,-9.4
-8.414e+00,-0.004,-0.02,-9.6,-9.8
-8.410e+00,-0.004,0.004,-9.6,-9.4
-8.406e+00,-0.004,-0.012,-9.6,-9.8
-8.402e+00,-0.004,0.004,-9.6,-9.4
-8.399e+00,-0.004,-0.012,-9.6,-9.8
-8.395e+00,-0.004,0.004,-9.6,-9.4
-8.391e+00,-0.004,-0.012,-9.6,-9.8
-8.387e+00,-0.004,0.008,-9.6,-9.4
-8.383e+00,-0.004,-0.012,-9.6,-9.8
-8.379e+00,-0.004,0.004,-9.6,-9.4
-8.376e+00,-0.004,-0.012,-9.6,-9.8
-8.372e+00,-0.004,0.004,-9.6,-9.4
-8.368e+00,-0.004,-0.012,-9.6,-9.8
-8.364e+00,-0.004,0.004,-9.6,-9.4
-8.360e+00,-0.004,-0.012,-9.6,-9.8
-8.356e+00,-0.004,0.004,-9.6,-9.4
-8.353e+00,-0.004,-0.012,-9.6,-9.8
-8.349e+00,-0.004,0.004,-9.6,-9.4
-8.345e+00,-0.004,-0.012,-9.6,-9.8
-8.341e+00,-0.004,0.004,-9.6,-9.4
-8.337e+00,-0.004,-0.012,-9.6,-9.8
-8.333e+00,-0.004,0.004,-9.6,-9.4
-8.329e+00,-0.004,-0.012,-9.6,-9.8
-8.326e+00,-0.004,0.004,-9.6,-9.4
-8.322e+00,-0.004,-0.012,-9.6,-9.8
-8.318e+00,-0.004,0.004,-9.6,-9.4
-8.314e+00,-0.004,-0.012,-9.6,-9.8
-8.310e+00,-0.004,0.004,-9.6,-9.4
-8.306e+00,-0.004,-0.012,-9.6,-9.8
-8.303e+00,-0.004,0.004,-9.6,-9.4
-8.299e+00,-0.004,-0.012,-9.6,-9.8
-8.295e+00,-0.004,0.004,-9.6,-9.4
-8.291e+00,-0.004,-0.012,-9.6,-9.8
-8.287e+00,-0.004,0.004,-9.6,-9.4
-8.283e+00,-0.004,-0.012,-9.6,-9.8
-8.280e+00,-0.004,0.008,-9.6,-9.4
-8.276e+00,-0.004,-0.012,-9.8,-9.8
-8.272e+00,-0.004,0.004,-9.6,-9.4
-8.268e+00,-0.004,-0.012,-9.8,-10
-8.264e+00,-0.004,0.012,-9.6,-9.4
-8.260e+00,-0.004,-0.016,-9.8,-10
-8.257e+00,-0.004,0.008,-9.8,-9.4
-8.253e+00,-0.004,-0.012,-9.8,-10
-8.249e+00,-0.004,0.004,-9.8,-9.6
-8.245e+00,-0.004,-0.012,-9.8,-10
-8.241e+00,-0.004,0.004,-9.8,-9.6
-8.237e+00,-0.004,-0.012,-9.8,-10
-8.233e+00,-0.004,0.004,-9.8,-9.6
-8.230e+00,-0.004,-0.012,-9.8,-10
-8.226e+00,-0.004,0.008,-9.8,-9.6
-8.222e+00,-0.004,-0.012,-9.8,-10
-8.218e+00,-0.004,0.004,-9.8,-9.6
-8.214e+00,-0.004,-0.012,-9.8,-10
-8.210e+00,-0.004,0.004,-9.8,-9.6
-8.207e+00,-0.004,-0.012,-9.8,-10
-8.203e+00,-0.004,0.004,-9.8,-9.6
-8.199e+00,-0.004,-0.012,-9.8,-10
-8.195e+00,-0.004,0.004,-9.8,-9.6
-8.191e+00,-0.004,-0.012,-9.8,-10
-8.187e+00,-0.004,0.004,-9.8,-9.6
-8.184e+00,-0,-0.012,-9.8,-10
-8.180e+00,-0.004,0.004,-9.8,-9.6
-8.176e+00,-0.004,-0.012,-9.8,-10
-8.172e+00,-0.004,0.004,-9.8,-9.6
-8.168e+00,-0.004,-0.012,-9.8,-10
-8.164e+00,-0.004,0.004,-9.8,-9.6
-8.161e+00,-0.004,-0.012,-9.8,-10
-8.157e+00,-0.004,0.004,-9.8,-9.6
-8.153e+00,-0.004,-0.012,-9.8,-10
-8.149e+00,-0.004,0.004,-9.8,-9.6
-8.145e+00,-0.004,-0.012,-9.8,-10
-8.141e+00,-0.004,0.004,-9.8,-9.6
-8.137e+00,-0.004,-0.012,-9.8,-10
-8.134e+00,-0.004,0.004,-9.8,-9.6
-8.130e+00,-0.004,-0.012,-9.8,-10
-8.126e+00,-0.004,0.008,-9.8,-9.6
-8.122e+00,-0.004,-0.012,-9.8,-10
-8.118e+00,-0.004,0.004,-9.8,-9.6
-8.114e+00,-0.004,-0.012,-9.8,-10
-8.111e+00,-0.004,0.004,-9.8,-9.6
-8.107e+00,-0.004,-0.012,-9.8,-10
-8.103e+00,-0.004,0.008,-9.8,-9.6
-8.099e+00,-0.004,-0.012,-9.8,-10
-8.095e+00,-0.004,0.008,-9.8,-9.6
-8.091e+00,-0.004,-0.016,-9.8,-10.2
-8.088e+00,-0.004,0.004,-9.8,-9.6
-8.084e+00,-0,-0.012,-9.8,-10.2
-8.080e+00,-0.004,0.008,-9.8,-9.6
-8.076e+00,-0.004,-0.012,-9.8,-10.2
-8.072e+00,-0.004,0.004,-9.8,-9.6
-8.068e+00,-0.004,-0.012,-9.8,-10.2
-8.065e+00,-0.004,0.008,-9.8,-9.6
-8.061e+00,-0.004,-0.012,-9.8,-10.2
-8.057e+00,-0.004,0.004,-10,-9.8
-8.053e+00,-0.004,-0.012,-10,-10.2
-8.049e+00,-0.004,0.004,-10,-9.8
-8.045e+00,-0.004,-0.012,-10,-10.2
-8.041e+00,-0.004,0.004,-10,-9.8
-8.038e+00,-0,-0.012,-10,-10.2
-8.034e+00,-0.004,0.004,-10,-9.8
-8.030e+00,-0.004,-0.012,-10,-10.2
-8.026e+00,-0.004,0.004,-10,-9.8
-8.022e+00,-0,-0.012,-10,-10.2
-8.018e+00,-0,0.004,-10,-9.8
-8.015e+00,-0.004,-0.012,-10,-10.2
-8.011e+00,-0,0.004,-10,-9.8
-8.007e+00,-0.004,-0.012,-10,-10.2
-8.003e+00,-0.004,0.004,-10,-9.8
-7.999e+00,-0.004,-0.012,-10,-10.2
-7.995e+00,-0.004,0.004,-10,-9.8
-7.992e+00,-0.004,-0.012,-10,-10.2
-7.988e+00,-0.004,0.008,-10,-9.8
-7.984e+00,-0.004,-0.012,-10,-10.2
-7.980e+00,-0,0.004,-10,-9.8
-7.976e+00,-0.004,-0.012,-10,-10.2
-7.972e+00,-0.004,0.004,-10,-9.8
-7.969e+00,-0.004,-0.012,-10,-10.2
-7.965e+00,-0,0.008,-10,-9.8
-7.961e+00,-0.004,-0.012,-10,-10.2
-7.957e+00,-0.004,0.004,-10,-9.8
-7.953e+00,-0.004,-0.012,-10,-10.2
-7.949e+00,-0.004,0.004,-10,-9.8
-7.945e+00,-0.004,-0.012,-10,-10.2
-7.942e+00,-0.004,0.008,-10,-9.8
-7.938e+00,-0,-0.012,-10,-10.2
-7.934e+00,-0.004,0.008,-10,-9.8
-7.930e+00,-0.004,-0.012,-10,-10.2
-7.926e+00,-0.004,0.004,-10,-9.8
-7.922e+00,-0,-0.012,-10,-10.2
-7.919e+00,-0,0.008,-10,-9.8
-7.915e+00,-0.004,-0.012,-10,-10.2
-7.911e+00,-0,0.004,-10,-9.8
-7.907e+00,-0.004,-0.012,-10,-10.4
-7.903e+00,-0.004,0.008,-10,-9.8
-7.899e+00,-0.004,-0.012,-10,-10.2
-7.896e+00,-0.004,0.004,-10,-9.8
-7.892e+00,-0,-0.012,-10,-10.2
-7.888e+00,-0.004,0.004,-10,-9.8
-7.884e+00,-0.004,-0.012,-10,-10.4
-7.880e+00,-0.004,0.004,-10,-9.8
-7.876e+00,-0.004,-0.012,-10.2,-10.4
-7.873e+00,-0.004,0.004,-10.2,-9.8
-7.869e+00,-0.004,-0.012,-10.2,-10.4
-7.865e+00,-0,0.004,-10.2,-9.8
-7.861e+00,-0.004,-0.012,-10.2,-10.4
-7.857e+00,-0.004,0.004,-10.2,-9.8
-7.853e+00,-0.004,-0.012,-10.2,-10.4
-7.849e+00,-0,0.004,-10.2,-10
-7.846e+00,-0,-0.012,-10.2,-10.4
-7.842e+00,-0.004,0.004,-10.2,-10
-7.838e+00,-0,-0.012,-10.2,-10.4
-7.834e+00,-0.004,0.004,-10.2,-10
-7.830e+00,-0.004,-0.008,-10.2,-10.4
-7.826e+00,-0.004,0.004,-10.2,-10
-7.823e+00,-0,-0.012,-10.2,-10.4
-7.819e+00,-0,0.004,-10.2,-10
-7.815e+00,-0.004,-0.008,-10.2,-10.4
-7.811e+00,-0.004,0.008,-10.2,-10
-7.807e+00,-0,-0.012,-10.2,-10.4
-7.803e+00,-0.004,0.008,-10.2,-10
-7.800e+00,-0.004,-0.012,-10.2,-10.4
-7.796e+00,-0.004,0.004,-10.2,-10
-7.792e+00,-0.004,-0.012,-10.2,-10.4
-7.788e+00,-0.004,0.008,-10.2,-10
-7.784e+00,-0.004,-0.012,-10.2,-10.4
-7.780e+00,-0.004,0.008,-10.2,-10
-7.776e+00,-0.004,-0.02,-10.2,-10.4
-7.773e+00,-0.004,0.004,-10.2,-10
-7.769e+00,-0.004,-0.008,-10.2,-10.4
-7.765e+00,-0.004,0.012,-10.2,-10
-7.761e+00,-0.004,-0.008,-10.2,-10.4
-7.757e+00,-0.004,0.004,-10.2,-10
-7.753e+00,-0.004,-0.008,-10.2,-10.4
-7.750e+00,-0,0.008,-10.2,-10
-7.746e+00,-0,-0.012,-10.2,-10.4
-7.742e+00,-0.004,0.008,-10.2,-10
-7.738e+00,-0.004,-0.012,-10.2,-10.4
-7.734e+00,-0,0.004,-10.2,-10
