lab04/data/15V_acc_2.3V_fil_10VPP_1stPeak.CSV

Model,DPO2012,,,,,,
Firmware Version,1.39,,,,,,
,,,,,,,
Point Format,Y,,,,,,
Horizontal Units,S,,,,,,
Horizontal Scale,4,,,,,,
Sample Interval,0.00768049,,,,,,
Filter Frequency,14,,,,,,
Record Length,5200,,,,,,
Gating,0.0% to 100.0%,,0.0% to 100.0%,,,,
Probe Attenuation,1,,1,,,,
Vertical Units,V,,V,,,,
Vertical Offset,0,,0,,,,
Vertical Scale,0.1,,5,,,,
Label,,,,,,,
TIME,CH1,CH1 Peak Detect,CH2,CH2 Peak Detect,,,
-2.00E+01,-0.184,-0.192,-12.4,-12.6,,-2.00E+01,-0.184
-2.00E+01,-0.184,-0.172,-12.4,-12.2,,-2.00E+01,-0.184
-2.00E+01,-0.184,-0.192,-12.4,-12.6,,-2.00E+01,-0.184
-2.00E+01,-0.184,-0.172,-12.4,-12.2,,-2.00E+01,-0.184
-2.00E+01,-0.184,-0.196,-12.4,-12.6,,-2.00E+01,-0.184
-2.00E+01,-0.184,-0.172,-12.4,-12.2,,-2.00E+01,-0.184
-2.00E+01,-0.184,-0.192,-12.4,-12.6,,-2.00E+01,-0.184
-1.99E+01,-0.184,-0.172,-12.4,-12.2,,-1.99E+01,-0.184
-1.99E+01,-0.184,-0.192,-12.4,-12.6,,-1.99E+01,-0.184
-1.99E+01,-0.184,-0.172,-12.4,-12.2,,-1.99E+01,-0.184
-1.99E+01,-0.184,-0.192,-12.4,-12.6,,-1.99E+01,-0.184
-1.99E+01,-0.184,-0.176,-12.4,-12.2,,-1.99E+01,-0.184
-1.99E+01,-0.184,-0.192,-12.4,-12.6,,-1.99E+01,-0.184
-1.99E+01,-0.184,-0.176,-12.4,-12.2,,-1.99E+01,-0.184
-1.99E+01,-0.184,-0.192,-12.6,-12.8,,-1.99E+01,-0.184
-1.99E+01,-0.184,-0.176,-12.6,-12.2,,-1.99E+01,-0.184
-1.99E+01,-0.184,-0.192,-12.6,-12.8,,-1.99E+01,-0.184
-1.99E+01,-0.184,-0.176,-12.6,-12.4,,-1.99E+01,-0.184
-1.99E+01,-0.184,-0.192,-12.6,-12.8,,-1.99E+01,-0.184
-1.99E+01,-0.184,-0.176,-12.6,-12.4,,-1.99E+01,-0.184
-1.98E+01,-0.184,-0.192,-12.6,-12.8,,-1.98E+01,-0.184
-1.98E+01,-0.184,-0.172,-12.6,-12.4,,-1.98E+01,-0.184
-1.98E+01,-0.184,-0.192,-12.6,-12.8,,-1.98E+01,-0.184
-1.98E+01,-0.184,-0.172,-12.6,-12.4,,-1.98E+01,-0.184
-1.98E+01,-0.184,-0.196,-12.6,-12.8,,-1.98E+01,-0.184
-1.98E+01,-0.184,-0.172,-12.6,-12.4,,-1.98E+01,-0.184
-1.98E+01,-0.184,-0.2,-12.6,-12.8,,-1.98E+01,-0.184
-1.98E+01,-0.184,-0.172,-12.6,-12.4,,-1.98E+01,-0.184
-1.98E+01,-0.184,-0.192,-12.6,-12.8,,-1.98E+01,-0.184
-1.98E+01,-0.184,-0.172,-12.6,-12.4,,-1.98E+01,-0.184
-1.98E+01,-0.184,-0.196,-12.6,-12.8,,-1.98E+01,-0.184
-1.98E+01,-0.184,-0.176,-12.6,-12.4,,-1.98E+01,-0.184
-1.98E+01,-0.184,-0.192,-12.6,-12.8,,-1.98E+01,-0.184
-1.97E+01,-0.184,-0.176,-12.6,-12.4,,-1.97E+01,-0.184
-1.97E+01,-0.184,-0.196,-12.6,-12.8,,-1.97E+01,-0.184
-1.97E+01,-0.184,-0.176,-12.6,-12.4,,-1.97E+01,-0.184
-1.97E+01,-0.184,-0.192,-12.6,-13,,-1.97E+01,-0.184
-1.97E+01,-0.184,-0.176,-12.6,-12.4,,-1.97E+01,-0.184
-1.97E+01,-0.184,-0.192,-12.6,-13,,-1.97E+01,-0.184
-1.97E+01,-0.184,-0.18,-12.6,-12.6,,-1.97E+01,-0.184
-1.97E+01,-0.184,-0.192,-12.8,-13,,-1.97E+01,-0.184
-1.97E+01,-0.184,-0.18,-12.8,-12.6,,-1.97E+01,-0.184
-1.97E+01,-0.184,-0.196,-12.8,-13,,-1.97E+01,-0.184
-1.97E+01,-0.184,-0.176,-12.8,-12.6,,-1.97E+01,-0.184
-1.97E+01,-0.184,-0.196,-12.8,-13,,-1.97E+01,-0.184
-1.97E+01,-0.188,-0.172,-12.8,-12.6,,-1.97E+01,-0.188
-1.96E+01,-0.188,-0.2,-12.8,-13,,-1.96E+01,-0.188
-1.96E+01,-0.188,-0.18,-12.8,-12.6,,-1.96E+01,-0.188
-1.96E+01,-0.188,-0.196,-12.8,-13,,-1.96E+01,-0.188
-1.96E+01,-0.188,-0.176,-12.8,-12.6,,-1.96E+01,-0.188
-1.96E+01,-0.188,-0.196,-12.8,-13,,-1.96E+01,-0.188
-1.96E+01,-0.188,-0.18,-12.8,-12.6,,-1.96E+01,-0.188
-1.96E+01,-0.188,-0.196,-12.8,-13,,-1.96E+01,-0.188
-1.96E+01,-0.188,-0.18,-12.8,-12.6,,-1.96E+01,-0.188
-1.96E+01,-0.188,-0.196,-12.8,-13,,-1.96E+01,-0.188
-1.96E+01,-0.188,-0.18,-12.8,-12.6,,-1.96E+01,-0.188
-1.96E+01,-0.188,-0.196,-12.8,-13,,-1.96E+01,-0.188
-1.96E+01,-0.188,-0.18,-12.8,-12.6,,-1.96E+01,-0.188
-1.96E+01,-0.188,-0.196,-12.8,-13,,-1.96E+01,-0.188
-1.95E+01,-0.188,-0.18,-12.8,-12.6,,-1.95E+01,-0.188
-1.95E+01,-0.188,-0.196,-12.8,-13,,-1.95E+01,-0.188
-1.95E+01,-0.188,-0.18,-12.8,-12.6,,-1.95E+01,-0.188
-1.95E+01,-0.188,-0.196,-12.8,-13,,-1.95E+01,-0.188
-1.95E+01,-0.188,-0.18,-12.8,-12.6,,-1.95E+01,-0.188
-1.95E+01,-0.188,-0.196,-12.8,-13.2,,-1.95E+01,-0.188
-1.95E+01,-0.188,-0.172,-12.8,-12.6,,-1.95E+01,-0.188
-1.95E+01,-0.188,-0.2,-12.8,-13.2,,-1.95E+01,-0.188
-1.95E+01,-0.188,-0.18,-12.8,-12.6,,-1.95E+01,-0.188
-1.95E+01,-0.188,-0.2,-12.8,-13.2,,-1.95E+01,-0.188
-1.95E+01,-0.188,-0.18,-12.8,-12.6,,-1.95E+01,-0.188
-1.95E+01,-0.188,-0.196,-12.8,-13.2,,-1.95E+01,-0.188
-1.95E+01,-0.188,-0.176,-12.8,-12.6,,-1.95E+01,-0.188
-1.94E+01,-0.188,-0.2,-12.8,-13.2,,-1.94E+01,-0.188
-1.94E+01,-0.188,-0.18,-12.8,-12.6,,-1.94E+01,-0.188
-1.94E+01,-0.188,-0.196,-13,-13.2,,-1.94E+01,-0.188
-1.94E+01,-0.188,-0.18,-13,-12.6,,-1.94E+01,-0.188
-1.94E+01,-0.188,-0.196,-13,-13.2,,-1.94E+01,-0.188
-1.94E+01,-0.188,-0.18,-13,-12.6,,-1.94E+01,-0.188
-1.94E+01,-0.188,-0.196,-13,-13.2,,-1.94E+01,-0.188
-1.94E+01,-0.188,-0.18,-13,-12.8,,-1.94E+01,-0.188
-1.94E+01,-0.188,-0.196,-13,-13.2,,-1.94E+01,-0.188
-1.94E+01,-0.188,-0.18,-13,-12.8,,-1.94E+01,-0.188
-1.94E+01,-0.188,-0.196,-13,-13.2,,-1.94E+01,-0.188
-1.94E+01,-0.188,-0.184,-13,-12.8,,-1.94E+01,-0.188
-1.94E+01,-0.188,-0.196,-13,-13.2,,-1.94E+01,-0.188
-1.93E+01,-0.188,-0.18,-13,-12.8,,-1.93E+01,-0.188
-1.93E+01,-0.188,-0.2,-13,-13.2,,-1.93E+01,-0.188
-1.93E+01,-0.188,-0.176,-13,-12.8,,-1.93E+01,-0.188
-1.93E+01,-0.188,-0.2,-13,-13.2,,-1.93E+01,-0.188
-1.93E+01,-0.188,-0.18,-13,-12.8,,-1.93E+01,-0.188
-1.93E+01,-0.188,-0.2,-13,-13.2,,-1.93E+01,-0.188
-1.93E+01,-0.188,-0.18,-13,-12.8,,-1.93E+01,-0.188
-1.93E+01,-0.188,-0.2,-13,-13.2,,-1.93E+01,-0.188
-1.93E+01,-0.188,-0.18,-13,-12.8,,-1.93E+01,-0.188
-1.93E+01,-0.188,-0.2,-13,-13.4,,-1.93E+01,-0.188
-1.93E+01,-0.192,-0.184,-13.2,-12.8,,-1.93E+01,-0.192
-1.93E+01,-0.192,-0.2,-13.2,-13.4,,-1.93E+01,-0.192
-1.93E+01,-0.192,-0.184,-13.2,-13,,-1.93E+01,-0.192
-1.92E+01,-0.192,-0.2,-13.2,-13.4,,-1.92E+01,-0.192
-1.92E+01,-0.192,-0.184,-13.2,-13,,-1.92E+01,-0.192
-1.92E+01,-0.192,-0.2,-13.2,-13.4,,-1.92E+01,-0.192
-1.92E+01,-0.192,-0.184,-13.2,-13,,-1.92E+01,-0.192
-1.92E+01,-0.192,-0.2,-13.2,-13.4,,-1.92E+01,-0.192
-1.92E+01,-0.192,-0.184,-13.2,-13,,-1.92E+01,-0.192
-1.92E+01,-0.192,-0.2,-13.2,-13.4,,-1.92E+01,-0.192
-1.92E+01,-0.192,-0.18,-13.2,-13,,-1.92E+01,-0.192
-1.92E+01,-0.192,-0.2,-13.2,-13.4,,-1.92E+01,-0.192
-1.92E+01,-0.192,-0.18,-13.2,-13,,-1.92E+01,-0.192
-1.92E+01,-0.192,-0.204,-13.2,-13.4,,-1.92E+01,-0.192
-1.92E+01,-0.192,-0.18,-13.2,-13,,-1.92E+01,-0.192
-1.92E+01,-0.192,-0.208,-13.2,-13.6,,-1.92E+01,-0.192
-1.91E+01,-0.192,-0.18,-13.4,-13,,-1.91E+01,-0.192
-1.91E+01,-0.192,-0.204,-13.4,-13.6,,-1.91E+01,-0.192
-1.91E+01,-0.192,-0.184,-13.4,-13.2,,-1.91E+01,-0.192
-1.91E+01,-0.192,-0.204,-13.4,-13.6,,-1.91E+01,-0.192
-1.91E+01,-0.192,-0.184,-13.4,-13.2,,-1.91E+01,-0.192
-1.91E+01,-0.192,-0.2,-13.4,-13.6,,-1.91E+01,-0.192
-1.91E+01,-0.192,-0.184,-13.4,-13.2,,-1.91E+01,-0.192
-1.91E+01,-0.192,-0.2,-13.4,-13.6,,-1.91E+01,-0.192
-1.91E+01,-0.192,-0.184,-13.4,-13.2,,-1.91E+01,-0.192
-1.91E+01,-0.192,-0.2,-13.4,-13.6,,-1.91E+01,-0.192
-1.91E+01,-0.192,-0.184,-13.4,-13.2,,-1.91E+01,-0.192
-1.91E+01,-0.192,-0.2,-13.4,-13.6,,-1.91E+01,-0.192
-1.91E+01,-0.192,-0.184,-13.4,-13.2,,-1.91E+01,-0.192
-1.90E+01,-0.192,-0.2,-13.4,-13.8,,-1.90E+01,-0.192
-1.90E+01,-0.192,-0.184,-13.4,-13.2,,-1.90E+01,-0.192
-1.90E+01,-0.192,-0.2,-13.4,-13.8,,-1.90E+01,-0.192
-1.90E+01,-0.192,-0.18,-13.4,-13.2,,-1.90E+01,-0.192
-1.90E+01,-0.192,-0.204,-13.6,-13.8,,-1.90E+01,-0.192
-1.90E+01,-0.192,-0.184,-13.6,-13.2,,-1.90E+01,-0.192
-1.90E+01,-0.192,-0.204,-13.6,-13.8,,-1.90E+01,-0.192
-1.90E+01,-0.192,-0.184,-13.6,-13.2,,-1.90E+01,-0.192
-1.90E+01,-0.192,-0.2,-13.6,-13.8,,-1.90E+01,-0.192
-1.90E+01,-0.192,-0.184,-13.6,-13.2,,-1.90E+01,-0.192
-1.90E+01,-0.192,-0.204,-13.6,-13.8,,-1.90E+01,-0.192
-1.90E+01,-0.196,-0.188,-13.6,-13.4,,-1.90E+01,-0.196
-1.90E+01,-0.196,-0.204,-13.6,-13.8,,-1.90E+01,-0.196
-1.89E+01,-0.196,-0.188,-13.6,-13.4,,-1.89E+01,-0.196
-1.89E+01,-0.196,-0.2,-13.6,-13.8,,-1.89E+01,-0.196
-1.89E+01,-0.196,-0.188,-13.6,-13.4,,-1.89E+01,-0.196
-1.89E+01,-0.196,-0.2,-13.6,-13.8,,-1.89E+01,-0.196
-1.89E+01,-0.196,-0.188,-13.6,-13.4,,-1.89E+01,-0.196
-1.89E+01,-0.196,-0.2,-13.6,-13.8,,-1.89E+01,-0.196
-1.89E+01,-0.196,-0.188,-13.6,-13.4,,-1.89E+01,-0.196
-1.89E+01,-0.196,-0.204,-13.6,-13.8,,-1.89E+01,-0.196
-1.89E+01,-0.196,-0.188,-13.6,-13.4,,-1.89E+01,-0.196
-1.89E+01,-0.196,-0.204,-13.6,-13.8,,-1.89E+01,-0.196
-1.89E+01,-0.196,-0.184,-13.6,-13.4,,-1.89E+01,-0.196
-1.89E+01,-0.196,-0.204,-13.6,-14,,-1.89E+01,-0.196
-1.89E+01,-0.196,-0.18,-13.6,-13.4,,-1.89E+01,-0.196
-1.88E+01,-0.196,-0.208,-13.8,-14,,-1.88E+01,-0.196
-1.88E+01,-0.196,-0.188,-13.8,-13.4,,-1.88E+01,-0.196
-1.88E+01,-0.196,-0.204,-13.8,-14,,-1.88E+01,-0.196
-1.88E+01,-0.196,-0.184,-13.8,-13.4,,-1.88E+01,-0.196
-1.88E+01,-0.196,-0.204,-13.8,-14,,-1.88E+01,-0.196
-1.88E+01,-0.196,-0.188,-13.8,-13.6,,-1.88E+01,-0.196
-1.88E+01,-0.196,-0.204,-13.8,-14,,-1.88E+01,-0.196
-1.88E+01,-0.196,-0.188,-13.8,-13.6,,-1.88E+01,-0.196
-1.88E+01,-0.196,-0.204,-13.8,-14,,-1.88E+01,-0.196
-1.88E+01,-0.196,-0.188,-13.8,-13.6,,-1.88E+01,-0.196
-1.88E+01,-0.196,-0.204,-13.8,-14,,-1.88E+01,-0.196
-1.88E+01,-0.196,-0.188,-13.8,-13.6,,-1.88E+01,-0.196
-1.88E+01,-0.196,-0.204,-13.8,-14,,-1.88E+01,-0.196
-1.87E+01,-0.196,-0.188,-13.8,-13.6,,-1.87E+01,-0.196
-1.87E+01,-0.196,-0.204,-13.8,-14,,-1.87E+01,-0.196
-1.87E+01,-0.196,-0.188,-13.8,-13.6,,-1.87E+01,-0.196
-1.87E+01,-0.196,-0.204,-13.8,-14,,-1.87E+01,-0.196
-1.87E+01,-0.196,-0.188,-13.8,-13.6,,-1.87E+01,-0.196
-1.87E+01,-0.196,-0.204,-13.8,-14,,-1.87E+01,-0.196
-1.87E+01,-0.196,-0.184,-13.8,-13.6,,-1.87E+01,-0.196
-1.87E+01,-0.196,-0.208,-13.8,-14.2,,-1.87E+01,-0.196
-1.87E+01,-0.196,-0.188,-13.8,-13.6,,-1.87E+01,-0.196
-1.87E+01,-0.2,-0.208,-13.8,-14.2,,-1.87E+01,-0.2
-1.87E+01,-0.2,-0.188,-13.8,-13.6,,-1.87E+01,-0.2
-1.87E+01,-0.2,-0.208,-13.8,-14.2,,-1.87E+01,-0.2
-1.87E+01,-0.2,-0.188,-14,-13.6,,-1.87E+01,-0.2
-1.86E+01,-0.2,-0.208,-14,-14.2,,-1.86E+01,-0.2
-1.86E+01,-0.2,-0.192,-14,-13.6,,-1.86E+01,-0.2
-1.86E+01,-0.2,-0.208,-14,-14.2,,-1.86E+01,-0.2
-1.86E+01,-0.2,-0.192,-14,-13.6,,-1.86E+01,-0.2
-1.86E+01,-0.2,-0.208,-14,-14.2,,-1.86E+01,-0.2
-1.86E+01,-0.2,-0.192,-14,-13.8,,-1.86E+01,-0.2
-1.86E+01,-0.2,-0.208,-14,-14.2,,-1.86E+01,-0.2
-1.86E+01,-0.2,-0.192,-14,-13.8,,-1.86E+01,-0.2
-1.86E+01,-0.2,-0.208,-14,-14.2,,-1.86E+01,-0.2
-1.86E+01,-0.2,-0.192,-14,-13.8,,-1.86E+01,-0.2
-1.86E+01,-0.2,-0.208,-14,-14.2,,-1.86E+01,-0.2
-1.86E+01,-0.2,-0.192,-14,-13.8,,-1.86E+01,-0.2
-1.86E+01,-0.2,-0.208,-14,-14.2,,-1.86E+01,-0.2
-1.85E+01,-0.2,-0.188,-14,-13.8,,-1.85E+01,-0.2
-1.85E+01,-0.2,-0.208,-14,-14.2,,-1.85E+01,-0.2
-1.85E+01,-0.2,-0.188,-14,-13.8,,-1.85E+01,-0.2
-1.85E+01,-0.2,-0.216,-14,-14.2,,-1.85E+01,-0.2
-1.85E+01,-0.2,-0.192,-14,-13.8,,-1.85E+01,-0.2
-1.85E+01,-0.2,-0.208,-14,-14.2,,-1.85E+01,-0.2
-1.85E+01,-0.2,-0.188,-14,-13.8,,-1.85E+01,-0.2
-1.85E+01,-0.2,-0.212,-14,-14.4,,-1.85E+01,-0.2
-1.85E+01,-0.2,-0.192,-14,-13.8,,-1.85E+01,-0.2
-1.85E+01,-0.2,-0.208,-14,-14.2,,-1.85E+01,-0.2
-1.85E+01,-0.2,-0.196,-14,-13.8,,-1.85E+01,-0.2
-1.85E+01,-0.2,-0.212,-14,-14.4,,-1.85E+01,-0.2
-1.85E+01,-0.2,-0.196,-14,-13.8,,-1.85E+01,-0.2
-1.84E+01,-0.2,-0.212,-14,-14.4,,-1.84E+01,-0.2
-1.84E+01,-0.2,-0.192,-14,-13.8,,-1.84E+01,-0.2
-1.84E+01,-0.2,-0.208,-14,-14.4,,-1.84E+01,-0.2
-1.84E+01,-0.2,-0.196,-14,-13.8,,-1.84E+01,-0.2
-1.84E+01,-0.2,-0.208,-14,-14.4,,-1.84E+01,-0.2
-1.84E+01,-0.2,-0.196,-14,-13.8,,-1.84E+01,-0.2
-1.84E+01,-0.2,-0.208,-14.2,-14.4,,-1.84E+01,-0.2
-1.84E+01,-0.2,-0.192,-14.2,-13.8,,-1.84E+01,-0.2
-1.84E+01,-0.2,-0.212,-14.2,-14.4,,-1.84E+01,-0.2
-1.84E+01,-0.204,-0.188,-14.2,-13.8,,-1.84E+01,-0.204
-1.84E+01,-0.204,-0.216,-14.2,-14.4,,-1.84E+01,-0.204
-1.84E+01,-0.204,-0.196,-14.2,-13.8,,-1.84E+01,-0.204
-1.84E+01,-0.204,-0.212,-14.2,-14.4,,-1.84E+01,-0.204
-1.83E+01,-0.204,-0.192,-14.2,-13.8,,-1.83E+01,-0.204
-1.83E+01,-0.204,-0.212,-14.2,-14.4,,-1.83E+01,-0.204
-1.83E+01,-0.204,-0.196,-14.2,-13.8,,-1.83E+01,-0.204
-1.83E+01,-0.204,-0.212,-14.2,-14.4,,-1.83E+01,-0.204
-1.83E+01,-0.204,-0.196,-14.2,-14,,-1.83E+01,-0.204
-1.83E+01,-0.204,-0.212,-14.2,-14.4,,-1.83E+01,-0.204
-1.83E+01,-0.204,-0.196,-14.2,-13.8,,-1.83E+01,-0.204
-1.83E+01,-0.204,-0.212,-14.2,-14.4,,-1.83E+01,-0.204
-1.83E+01,-0.204,-0.196,-14.2,-14,,-1.83E+01,-0.204
-1.83E+01,-0.204,-0.212,-14.2,-14.4,,-1.83E+01,-0.204
-1.83E+01,-0.204,-0.196,-14.2,-14,,-1.83E+01,-0.204
-1.83E+01,-0.204,-0.212,-14.2,-14.4,,-1.83E+01,-0.204
-1.83E+01,-0.204,-0.196,-14.2,-14,,-1.83E+01,-0.204
-1.82E+01,-0.204,-0.212,-14.2,-14.4,,-1.82E+01,-0.204
-1.82E+01,-0.204,-0.196,-14.2,-14,,-1.82E+01,-0.204
-1.82E+01,-0.204,-0.216,-14.2,-14.4,,-1.82E+01,-0.204
-1.82E+01,-0.204,-0.196,-14.2,-14,,-1.82E+01,-0.204
-1.82E+01,-0.204,-0.216,-14.2,-14.4,,-1.82E+01,-0.204
-1.82E+01,-0.204,-0.192,-14.2,-14,,-1.82E+01,-0.204
-1.82E+01,-0.204,-0.212,-14.2,-14.4,,-1.82E+01,-0.204
-1.82E+01,-0.204,-0.196,-14.2,-14,,-1.82E+01,-0.204
-1.82E+01,-0.204,-0.212,-14.2,-14.4,,-1.82E+01,-0.204
-1.82E+01,-0.204,-0.196,-14.2,-14,,-1.82E+01,-0.204
-1.82E+01,-0.204,-0.212,-14.2,-14.4,,-1.82E+01,-0.204
-1.82E+01,-0.204,-0.196,-14.2,-14,,-1.82E+01,-0.204
-1.82E+01,-0.204,-0.212,-14.2,-14.6,,-1.82E+01,-0.204
-1.81E+01,-0.204,-0.196,-14.2,-14,,-1.81E+01,-0.204
-1.81E+01,-0.204,-0.212,-14.2,-14.6,,-1.81E+01,-0.204
-1.81E+01,-0.204,-0.196,-14.2,-14,,-1.81E+01,-0.204
-1.81E+01,-0.204,-0.216,-14.4,-14.6,,-1.81E+01,-0.204
-1.81E+01,-0.204,-0.196,-14.4,-14,,-1.81E+01,-0.204
-1.81E+01,-0.204,-0.212,-14.4,-14.6,,-1.81E+01,-0.204
-1.81E+01,-0.204,-0.2,-14.4,-14,,-1.81E+01,-0.204
-1.81E+01,-0.204,-0.216,-14.4,-14.6,,-1.81E+01,-0.204
-1.81E+01,-0.204,-0.2,-14.4,-14,,-1.81E+01,-0.204
-1.81E+01,-0.204,-0.216,-14.4,-14.6,,-1.81E+01,-0.204
-1.81E+01,-0.204,-0.2,-14.4,-14,,-1.81E+01,-0.204
-1.81E+01,-0.204,-0.212,-14.4,-14.6,,-1.81E+01,-0.204
-1.81E+01,-0.208,-0.196,-14.4,-14,,-1.81E+01,-0.208
-1.80E+01,-0.208,-0.216,-14.4,-14.6,,-1.80E+01,-0.208
-1.80E+01,-0.208,-0.2,-14.4,-14.2,,-1.80E+01,-0.208
-1.80E+01,-0.208,-0.216,-14.4,-14.6,,-1.80E+01,-0.208
-1.80E+01,-0.208,-0.196,-14.4,-14.2,,-1.80E+01,-0.208
-1.80E+01,-0.208,-0.216,-14.4,-14.6,,-1.80E+01,-0.208
-1.80E+01,-0.208,-0.2,-14.4,-14.2,,-1.80E+01,-0.208
-1.80E+01,-0.208,-0.216,-14.4,-14.6,,-1.80E+01,-0.208
-1.80E+01,-0.208,-0.2,-14.4,-14.2,,-1.80E+01,-0.208
-1.80E+01,-0.208,-0.216,-14.4,-14.6,,-1.80E+01,-0.208
-1.80E+01,-0.208,-0.2,-14.4,-14.2,,-1.80E+01,-0.208
-1.80E+01,-0.208,-0.216,-14.4,-14.6,,-1.80E+01,-0.208
-1.80E+01,-0.208,-0.2,-14.4,-14.2,,-1.80E+01,-0.208
-1.80E+01,-0.208,-0.216,-14.4,-14.6,,-1.80E+01,-0.208
-1.79E+01,-0.208,-0.2,-14.4,-14.2,,-1.79E+01,-0.208
-1.79E+01,-0.208,-0.216,-14.4,-14.6,,-1.79E+01,-0.208
-1.79E+01,-0.208,-0.2,-14.4,-14.2,,-1.79E+01,-0.208
-1.79E+01,-0.208,-0.216,-14.4,-14.6,,-1.79E+01,-0.208
-1.79E+01,-0.208,-0.196,-14.4,-14.2,,-1.79E+01,-0.208
-1.79E+01,-0.208,-0.216,-14.4,-14.6,,-1.79E+01,-0.208
-1.79E+01,-0.208,-0.196,-14.4,-14.2,,-1.79E+01,-0.208
-1.79E+01,-0.208,-0.22,-14.4,-14.8,,-1.79E+01,-0.208
-1.79E+01,-0.208,-0.2,-14.4,-14.2,,-1.79E+01,-0.208
-1.79E+01,-0.208,-0.224,-14.4,-14.8,,-1.79E+01,-0.208
-1.79E+01,-0.208,-0.2,-14.4,-14.2,,-1.79E+01,-0.208
-1.79E+01,-0.208,-0.216,-14.4,-14.8,,-1.79E+01,-0.208
-1.79E+01,-0.208,-0.196,-14.4,-14.2,,-1.79E+01,-0.208
-1.78E+01,-0.208,-0.22,-14.4,-14.8,,-1.78E+01,-0.208
-1.78E+01,-0.208,-0.2,-14.4,-14.2,,-1.78E+01,-0.208
-1.78E+01,-0.208,-0.216,-14.4,-14.8,,-1.78E+01,-0.208
-1.78E+01,-0.208,-0.2,-14.6,-14.2,,-1.78E+01,-0.208
-1.78E+01,-0.208,-0.216,-14.6,-14.8,,-1.78E+01,-0.208
-1.78E+01,-0.208,-0.2,-14.6,-14.2,,-1.78E+01,-0.208
-1.78E+01,-0.208,-0.22,-14.6,-14.8,,-1.78E+01,-0.208
-1.78E+01,-0.208,-0.204,-14.6,-14.2,,-1.78E+01,-0.208
-1.78E+01,-0.208,-0.216,-14.6,-14.8,,-1.78E+01,-0.208
-1.78E+01,-0.208,-0.2,-14.6,-14.2,,-1.78E+01,-0.208
-1.78E+01,-0.208,-0.216,-14.6,-14.8,,-1.78E+01,-0.208
-1.78E+01,-0.208,-0.204,-14.6,-14.4,,-1.78E+01,-0.208
-1.78E+01,-0.208,-0.22,-14.6,-14.8,,-1.78E+01,-0.208
-1.78E+01,-0.212,-0.2,-14.6,-14.4,,-1.78E+01,-0.212
-1.77E+01,-0.212,-0.22,-14.6,-14.8,,-1.77E+01,-0.212
-1.77E+01,-0.212,-0.2,-14.6,-14.4,,-1.77E+01,-0.212
-1.77E+01,-0.212,-0.224,-14.6,-14.8,,-1.77E+01,-0.212
-1.77E+01,-0.212,-0.204,-14.6,-14.4,,-1.77E+01,-0.212
-1.77E+01,-0.212,-0.22,-14.6,-14.8,,-1.77E+01,-0.212
-1.77E+01,-0.212,-0.2,-14.6,-14.4,,-1.77E+01,-0.212
-1.77E+01,-0.212,-0.22,-14.6,-14.8,,-1.77E+01,-0.212
-1.77E+01,-0.212,-0.204,-14.6,-14.4,,-1.77E+01,-0.212
-1.77E+01,-0.212,-0.22,-14.6,-14.8,,-1.77E+01,-0.212
-1.77E+01,-0.212,-0.204,-14.6,-14.4,,-1.77E+01,-0.212
-1.77E+01,-0.212,-0.22,-14.6,-14.8,,-1.77E+01,-0.212
-1.77E+01,-0.212,-0.204,-14.6,-14.4,,-1.77E+01,-0.212
-1.77E+01,-0.212,-0.22,-14.6,-14.8,,-1.77E+01,-0.212
-1.76E+01,-0.212,-0.204,-14.6,-14.4,,-1.76E+01,-0.212
-1.76E+01,-0.212,-0.22,-14.6,-14.8,,-1.76E+01,-0.212
-1.76E+01,-0.212,-0.204,-14.6,-14.4,,-1.76E+01,-0.212
-1.76E+01,-0.212,-0.22,-14.6,-14.8,,-1.76E+01,-0.212
-1.76E+01,-0.212,-0.204,-14.6,-14.4,,-1.76E+01,-0.212
-1.76E+01,-0.212,-0.22,-14.6,-14.8,,-1.76E+01,-0.212
-1.76E+01,-0.212,-0.204,-14.6,-14.4,,-1.76E+01,-0.212
-1.76E+01,-0.212,-0.22,-14.6,-14.8,,-1.76E+01,-0.212
-1.76E+01,-0.212,-0.2,-14.6,-14.4,,-1.76E+01,-0.212
-1.76E+01,-0.212,-0.224,-14.6,-15,,-1.76E+01,-0.212
-1.76E+01,-0.212,-0.204,-14.6,-14.4,,-1.76E+01,-0.212
-1.76E+01,-0.212,-0.224,-14.6,-15,,-1.76E+01,-0.212
-1.76E+01,-0.212,-0.204,-14.6,-14.4,,-1.76E+01,-0.212
-1.75E+01,-0.212,-0.224,-14.6,-14.8,,-1.75E+01,-0.212
-1.75E+01,-0.212,-0.204,-14.6,-14.4,,-1.75E+01,-0.212
-1.75E+01,-0.212,-0.224,-14.6,-15,,-1.75E+01,-0.212
-1.75E+01,-0.212,-0.208,-14.6,-14.4,,-1.75E+01,-0.212
-1.75E+01,-0.212,-0.224,-14.6,-15,,-1.75E+01,-0.212
-1.75E+01,-0.212,-0.208,-14.6,-14.4,,-1.75E+01,-0.212
-1.75E+01,-0.212,-0.22,-14.6,-15,,-1.75E+01,-0.212
-1.75E+01,-0.212,-0.208,-14.6,-14.4,,-1.75E+01,-0.212
-1.75E+01,-0.212,-0.224,-14.6,-15,,-1.75E+01,-0.212
-1.75E+01,-0.212,-0.208,-14.6,-14.4,,-1.75E+01,-0.212
-1.75E+01,-0.212,-0.22,-14.6,-15,,-1.75E+01,-0.212
-1.75E+01,-0.216,-0.208,-14.8,-14.4,,-1.75E+01,-0.216
-1.75E+01,-0.216,-0.224,-14.8,-15,,-1.75E+01,-0.216
-1.74E+01,-0.216,-0.208,-14.8,-14.4,,-1.74E+01,-0.216
-1.74E+01,-0.216,-0.224,-14.8,-15,,-1.74E+01,-0.216
-1.74E+01,-0.216,-0.204,-14.8,-14.4,,-1.74E+01,-0.216
-1.74E+01,-0.216,-0.228,-14.8,-15,,-1.74E+01,-0.216
-1.74E+01,-0.216,-0.204,-14.8,-14.4,,-1.74E+01,-0.216
-1.74E+01,-0.216,-0.224,-14.8,-15,,-1.74E+01,-0.216
-1.74E+01,-0.216,-0.204,-14.8,-14.4,,-1.74E+01,-0.216
-1.74E+01,-0.216,-0.228,-14.8,-15,,-1.74E+01,-0.216
-1.74E+01,-0.216,-0.204,-14.8,-14.4,,-1.74E+01,-0.216
-1.74E+01,-0.216,-0.224,-14.8,-15,,-1.74E+01,-0.216
-1.74E+01,-0.216,-0.208,-14.8,-14.6,,-1.74E+01,-0.216
-1.74E+01,-0.216,-0.224,-14.8,-15,,-1.74E+01,-0.216
-1.74E+01,-0.216,-0.208,-14.8,-14.4,,-1.74E+01,-0.216
-1.73E+01,-0.216,-0.224,-14.8,-15,,-1.73E+01,-0.216
-1.73E+01,-0.216,-0.208,-14.8,-14.6,,-1.73E+01,-0.216
-1.73E+01,-0.216,-0.224,-14.8,-15,,-1.73E+01,-0.216
-1.73E+01,-0.216,-0.208,-14.8,-14.6,,-1.73E+01,-0.216
-1.73E+01,-0.216,-0.224,-14.8,-15,,-1.73E+01,-0.216
-1.73E+01,-0.216,-0.208,-14.8,-14.6,,-1.73E+01,-0.216
-1.73E+01,-0.216,-0.224,-14.8,-15,,-1.73E+01,-0.216
-1.73E+01,-0.216,-0.208,-14.8,-14.6,,-1.73E+01,-0.216
-1.73E+01,-0.216,-0.224,-14.8,-15,,-1.73E+01,-0.216
-1.73E+01,-0.216,-0.208,-14.8,-14.6,,-1.73E+01,-0.216
-1.73E+01,-0.216,-0.228,-14.8,-15,,-1.73E+01,-0.216
-1.73E+01,-0.216,-0.204,-14.8,-14.6,,-1.73E+01,-0.216
-1.73E+01,-0.216,-0.232,-14.8,-15,,-1.73E+01,-0.216
-1.72E+01,-0.216,-0.208,-14.8,-14.6,,-1.72E+01,-0.216
-1.72E+01,-0.22,-0.224,-14.8,-15,,-1.72E+01,-0.22
-1.72E+01,-0.22,-0.208,-14.8,-14.6,,-1.72E+01,-0.22
-1.72E+01,-0.22,-0.228,-14.8,-15,,-1.72E+01,-0.22
-1.72E+01,-0.22,-0.212,-14.8,-14.6,,-1.72E+01,-0.22
-1.72E+01,-0.22,-0.228,-14.8,-15,,-1.72E+01,-0.22
-1.72E+01,-0.22,-0.212,-14.8,-14.6,,-1.72E+01,-0.22
-1.72E+01,-0.22,-0.228,-14.8,-15.2,,-1.72E+01,-0.22
-1.72E+01,-0.22,-0.212,-14.8,-14.6,,-1.72E+01,-0.22
-1.72E+01,-0.22,-0.228,-14.8,-15,,-1.72E+01,-0.22
-1.72E+01,-0.22,-0.212,-14.8,-14.6,,-1.72E+01,-0.22
-1.72E+01,-0.22,-0.228,-14.8,-15.2,,-1.72E+01,-0.22
-1.72E+01,-0.22,-0.212,-14.8,-14.6,,-1.72E+01,-0.22
-1.71E+01,-0.22,-0.228,-14.8,-15.2,,-1.71E+01,-0.22
