lab04/data/32V_acc_2.3V_fil_10VPP_2ndPeak.CSV

Model,DPO2012,,,
Firmware Version,1.39,,,
,,,,
Point Format,Y,,,
Horizontal Units,S,,,
Horizontal Scale,4,,,
Sample Interval,0.00768049,,,
Filter Frequency,14,,,
Record Length,5200,,,
Gating,0.0% to 100.0%,,0.0% to 100.0%,
Probe Attenuation,1,,1,
Vertical Units,V,,V,
Vertical Offset,0,,0,
Vertical Scale,0.2,,5,
Label,,,,
TIME,CH1,CH1 Peak Detect,CH2,CH2 Peak Detect
-2.00E+01,-0.728,-0.744,-8,-8.2
-2.00E+01,-0.728,-0.712,-8,-7.8
-2.00E+01,-0.72,-0.736,-8,-8.2
-2.00E+01,-0.72,-0.712,-8,-7.8
-2.00E+01,-0.72,-0.736,-8,-8.2
-2.00E+01,-0.72,-0.704,-8,-7.8
-2.00E+01,-0.712,-0.736,-8,-8.2
-1.99E+01,-0.712,-0.704,-8,-7.8
-1.99E+01,-0.712,-0.72,-8,-8.2
-1.99E+01,-0.712,-0.696,-8,-7.8
-1.99E+01,-0.704,-0.72,-8,-8.2
-1.99E+01,-0.704,-0.696,-8,-7.8
-1.99E+01,-0.704,-0.712,-8,-8.2
-1.99E+01,-0.696,-0.688,-8,-7.8
-1.99E+01,-0.696,-0.712,-8,-8.2
-1.99E+01,-0.696,-0.688,-8,-7.8
-1.99E+01,-0.696,-0.712,-8,-8.2
-1.99E+01,-0.688,-0.68,-8,-7.8
-1.99E+01,-0.688,-0.704,-8,-8.2
-1.99E+01,-0.688,-0.68,-8,-7.8
-1.98E+01,-0.688,-0.696,-8,-8.4
-1.98E+01,-0.688,-0.672,-8,-7.8
-1.98E+01,-0.68,-0.696,-8,-8.4
-1.98E+01,-0.68,-0.664,-8,-7.8
-1.98E+01,-0.68,-0.696,-8,-8.4
-1.98E+01,-0.68,-0.664,-8.2,-7.8
-1.98E+01,-0.672,-0.688,-8.2,-8.4
-1.98E+01,-0.672,-0.664,-8.2,-7.8
-1.98E+01,-0.672,-0.688,-8.2,-8.4
-1.98E+01,-0.672,-0.656,-8.2,-7.8
-1.98E+01,-0.672,-0.68,-8.2,-8.4
-1.98E+01,-0.664,-0.656,-8.2,-7.8
-1.98E+01,-0.664,-0.68,-8.2,-8.4
-1.97E+01,-0.664,-0.656,-8.2,-7.8
-1.97E+01,-0.664,-0.672,-8.2,-8.4
-1.97E+01,-0.664,-0.648,-8.2,-7.8
-1.97E+01,-0.656,-0.672,-8.2,-8.4
-1.97E+01,-0.656,-0.648,-8.2,-8
-1.97E+01,-0.656,-0.672,-8.2,-8.4
-1.97E+01,-0.656,-0.648,-8.2,-8
-1.97E+01,-0.656,-0.664,-8.2,-8.4
-1.97E+01,-0.648,-0.64,-8.2,-8
-1.97E+01,-0.648,-0.664,-8.2,-8.4
-1.97E+01,-0.648,-0.64,-8.2,-8
-1.97E+01,-0.648,-0.664,-8.2,-8.4
-1.97E+01,-0.648,-0.632,-8.2,-8
-1.96E+01,-0.648,-0.656,-8.2,-8.4
-1.96E+01,-0.648,-0.632,-8.2,-8
-1.96E+01,-0.64,-0.656,-8.2,-8.4
-1.96E+01,-0.64,-0.632,-8.2,-8
-1.96E+01,-0.64,-0.656,-8.2,-8.4
-1.96E+01,-0.64,-0.632,-8.2,-8
-1.96E+01,-0.64,-0.648,-8.2,-8.4
-1.96E+01,-0.64,-0.624,-8.2,-8
-1.96E+01,-0.64,-0.648,-8.2,-8.4
-1.96E+01,-0.632,-0.624,-8.2,-8
-1.96E+01,-0.632,-0.64,-8.2,-8.4
-1.96E+01,-0.632,-0.624,-8.2,-8
-1.96E+01,-0.632,-0.64,-8.2,-8.4
-1.95E+01,-0.632,-0.624,-8.2,-8
-1.95E+01,-0.632,-0.64,-8.2,-8.4
-1.95E+01,-0.632,-0.624,-8.2,-8
-1.95E+01,-0.632,-0.64,-8.2,-8.4
-1.95E+01,-0.624,-0.616,-8.2,-8
-1.95E+01,-0.624,-0.64,-8.2,-8.4
-1.95E+01,-0.624,-0.616,-8.2,-8
-1.95E+01,-0.624,-0.64,-8.2,-8.4
-1.95E+01,-0.624,-0.608,-8.2,-8
-1.95E+01,-0.624,-0.64,-8.2,-8.6
-1.95E+01,-0.624,-0.608,-8.2,-8
-1.95E+01,-0.624,-0.632,-8.2,-8.6
-1.95E+01,-0.624,-0.608,-8.2,-8
-1.94E+01,-0.616,-0.632,-8.2,-8.6
-1.94E+01,-0.616,-0.608,-8.2,-8
-1.94E+01,-0.616,-0.624,-8.2,-8.6
-1.94E+01,-0.616,-0.608,-8.2,-8
-1.94E+01,-0.616,-0.624,-8.2,-8.6
-1.94E+01,-0.616,-0.6,-8.2,-8
-1.94E+01,-0.616,-0.624,-8.2,-8.6
-1.94E+01,-0.616,-0.6,-8.4,-8
-1.94E+01,-0.608,-0.624,-8.4,-8.6
-1.94E+01,-0.608,-0.6,-8.4,-8
-1.94E+01,-0.608,-0.624,-8.4,-8.6
-1.94E+01,-0.608,-0.6,-8.4,-8
-1.94E+01,-0.608,-0.616,-8.4,-8.6
-1.93E+01,-0.608,-0.6,-8.4,-8
-1.93E+01,-0.608,-0.616,-8.4,-8.6
-1.93E+01,-0.608,-0.592,-8.4,-8.2
-1.93E+01,-0.608,-0.624,-8.4,-8.6
-1.93E+01,-0.608,-0.592,-8.4,-8.2
-1.93E+01,-0.608,-0.616,-8.4,-8.6
-1.93E+01,-0.608,-0.592,-8.4,-8.2
-1.93E+01,-0.6,-0.616,-8.4,-8.6
-1.93E+01,-0.6,-0.592,-8.4,-8.2
-1.93E+01,-0.6,-0.616,-8.4,-8.6
-1.93E+01,-0.6,-0.592,-8.4,-8.2
-1.93E+01,-0.6,-0.616,-8.4,-8.6
-1.93E+01,-0.6,-0.592,-8.4,-8.2
-1.92E+01,-0.6,-0.608,-8.4,-8.6
-1.92E+01,-0.6,-0.592,-8.4,-8.2
-1.92E+01,-0.6,-0.608,-8.4,-8.6
-1.92E+01,-0.6,-0.592,-8.4,-8.2
-1.92E+01,-0.6,-0.608,-8.4,-8.6
-1.92E+01,-0.6,-0.584,-8.4,-8.2
-1.92E+01,-0.6,-0.608,-8.4,-8.6
-1.92E+01,-0.6,-0.584,-8.4,-8.2
-1.92E+01,-0.592,-0.608,-8.4,-8.6
-1.92E+01,-0.592,-0.584,-8.4,-8.2
-1.92E+01,-0.592,-0.608,-8.4,-8.6
-1.92E+01,-0.592,-0.576,-8.4,-8.2
-1.92E+01,-0.592,-0.608,-8.4,-8.6
-1.91E+01,-0.592,-0.584,-8.4,-8.2
-1.91E+01,-0.592,-0.6,-8.4,-8.6
-1.91E+01,-0.592,-0.584,-8.4,-8.2
-1.91E+01,-0.592,-0.6,-8.4,-8.6
-1.91E+01,-0.592,-0.584,-8.4,-8.2
-1.91E+01,-0.592,-0.6,-8.4,-8.6
-1.91E+01,-0.592,-0.584,-8.4,-8.2
-1.91E+01,-0.592,-0.6,-8.4,-8.6
-1.91E+01,-0.592,-0.576,-8.4,-8.2
-1.91E+01,-0.592,-0.6,-8.4,-8.6
-1.91E+01,-0.592,-0.576,-8.4,-8.2
-1.91E+01,-0.592,-0.6,-8.4,-8.8
-1.91E+01,-0.584,-0.576,-8.4,-8.2
-1.90E+01,-0.584,-0.6,-8.4,-8.8
-1.90E+01,-0.584,-0.576,-8.6,-8.2
-1.90E+01,-0.584,-0.6,-8.6,-8.8
-1.90E+01,-0.584,-0.576,-8.6,-8.2
-1.90E+01,-0.584,-0.6,-8.6,-8.8
-1.90E+01,-0.584,-0.576,-8.6,-8.2
-1.90E+01,-0.584,-0.6,-8.6,-8.8
-1.90E+01,-0.584,-0.576,-8.6,-8.2
-1.90E+01,-0.584,-0.592,-8.6,-8.8
-1.90E+01,-0.584,-0.568,-8.6,-8.2
-1.90E+01,-0.584,-0.6,-8.6,-8.8
-1.90E+01,-0.584,-0.576,-8.6,-8.2
-1.90E+01,-0.584,-0.592,-8.6,-8.8
-1.89E+01,-0.584,-0.576,-8.6,-8.2
-1.89E+01,-0.584,-0.592,-8.6,-8.8
-1.89E+01,-0.584,-0.576,-8.6,-8.4
-1.89E+01,-0.584,-0.592,-8.6,-8.8
-1.89E+01,-0.584,-0.576,-8.6,-8.4
-1.89E+01,-0.584,-0.592,-8.6,-8.8
-1.89E+01,-0.584,-0.568,-8.6,-8.4
-1.89E+01,-0.584,-0.592,-8.6,-8.8
-1.89E+01,-0.584,-0.568,-8.6,-8.4
-1.89E+01,-0.584,-0.592,-8.6,-8.8
-1.89E+01,-0.584,-0.568,-8.6,-8.4
-1.89E+01,-0.584,-0.592,-8.6,-8.8
-1.89E+01,-0.584,-0.568,-8.6,-8.4
-1.88E+01,-0.576,-0.592,-8.6,-8.8
-1.88E+01,-0.576,-0.568,-8.6,-8.4
-1.88E+01,-0.576,-0.592,-8.6,-8.8
-1.88E+01,-0.576,-0.568,-8.6,-8.4
-1.88E+01,-0.576,-0.592,-8.6,-8.8
-1.88E+01,-0.576,-0.568,-8.6,-8.4
-1.88E+01,-0.576,-0.592,-8.6,-8.8
-1.88E+01,-0.576,-0.568,-8.6,-8.4
-1.88E+01,-0.576,-0.584,-8.6,-8.8
-1.88E+01,-0.576,-0.568,-8.6,-8.4
-1.88E+01,-0.576,-0.584,-8.6,-8.8
-1.88E+01,-0.576,-0.568,-8.6,-8.4
-1.88E+01,-0.576,-0.584,-8.6,-8.8
-1.87E+01,-0.576,-0.568,-8.6,-8.4
-1.87E+01,-0.576,-0.584,-8.6,-9
-1.87E+01,-0.576,-0.568,-8.6,-8.4
-1.87E+01,-0.576,-0.584,-8.6,-9
-1.87E+01,-0.576,-0.568,-8.6,-8.4
-1.87E+01,-0.576,-0.584,-8.6,-9
-1.87E+01,-0.576,-0.568,-8.6,-8.4
-1.87E+01,-0.576,-0.584,-8.6,-9
-1.87E+01,-0.576,-0.56,-8.6,-8.4
-1.87E+01,-0.576,-0.592,-8.6,-9
-1.87E+01,-0.576,-0.568,-8.6,-8.4
-1.87E+01,-0.576,-0.584,-8.6,-9
-1.87E+01,-0.576,-0.568,-8.8,-8.4
-1.86E+01,-0.576,-0.584,-8.8,-9
-1.86E+01,-0.576,-0.568,-8.8,-8.4
-1.86E+01,-0.576,-0.584,-8.8,-9
-1.86E+01,-0.576,-0.568,-8.8,-8.4
-1.86E+01,-0.576,-0.584,-8.8,-9
-1.86E+01,-0.576,-0.568,-8.8,-8.4
-1.86E+01,-0.576,-0.584,-8.8,-9
-1.86E+01,-0.576,-0.568,-8.8,-8.6
-1.86E+01,-0.576,-0.584,-8.8,-9
-1.86E+01,-0.576,-0.568,-8.8,-8.4
-1.86E+01,-0.576,-0.584,-8.8,-9
-1.86E+01,-0.576,-0.568,-8.8,-8.6
-1.86E+01,-0.576,-0.584,-8.8,-9
-1.85E+01,-0.576,-0.56,-8.8,-8.6
-1.85E+01,-0.576,-0.584,-8.8,-9
-1.85E+01,-0.576,-0.56,-8.8,-8.6
-1.85E+01,-0.576,-0.584,-8.8,-9
-1.85E+01,-0.576,-0.56,-8.8,-8.6
-1.85E+01,-0.576,-0.584,-8.8,-9
-1.85E+01,-0.576,-0.56,-8.8,-8.6
-1.85E+01,-0.576,-0.584,-8.8,-9
-1.85E+01,-0.576,-0.56,-8.8,-8.6
-1.85E+01,-0.576,-0.584,-8.8,-9
-1.85E+01,-0.576,-0.56,-8.8,-8.6
-1.85E+01,-0.576,-0.584,-8.8,-9
-1.85E+01,-0.576,-0.568,-8.8,-8.6
-1.84E+01,-0.576,-0.584,-8.8,-9
-1.84E+01,-0.576,-0.568,-8.8,-8.6
-1.84E+01,-0.576,-0.584,-8.8,-9
-1.84E+01,-0.576,-0.56,-8.8,-8.6
-1.84E+01,-0.576,-0.584,-8.8,-9
-1.84E+01,-0.576,-0.56,-8.8,-8.6
-1.84E+01,-0.576,-0.584,-8.8,-9
-1.84E+01,-0.576,-0.568,-8.8,-8.6
-1.84E+01,-0.576,-0.584,-8.8,-9
-1.84E+01,-0.576,-0.56,-8.8,-8.6
-1.84E+01,-0.576,-0.584,-8.8,-9
-1.84E+01,-0.576,-0.56,-8.8,-8.6
-1.84E+01,-0.576,-0.584,-8.8,-9
-1.83E+01,-0.576,-0.56,-8.8,-8.6
-1.83E+01,-0.576,-0.584,-8.8,-9.2
-1.83E+01,-0.576,-0.56,-8.8,-8.6
-1.83E+01,-0.576,-0.584,-8.8,-9.2
-1.83E+01,-0.576,-0.56,-8.8,-8.6
-1.83E+01,-0.576,-0.584,-8.8,-9.2
-1.83E+01,-0.576,-0.56,-8.8,-8.6
-1.83E+01,-0.576,-0.584,-8.8,-9.2
-1.83E+01,-0.576,-0.56,-9,-8.6
-1.83E+01,-0.576,-0.584,-9,-9.2
-1.83E+01,-0.576,-0.56,-9,-8.6
-1.83E+01,-0.576,-0.584,-9,-9.2
-1.83E+01,-0.576,-0.56,-9,-8.6
-1.82E+01,-0.576,-0.584,-9,-9.2
-1.82E+01,-0.576,-0.568,-9,-8.6
-1.82E+01,-0.576,-0.584,-9,-9.2
-1.82E+01,-0.576,-0.56,-9,-8.6
-1.82E+01,-0.576,-0.584,-9,-9.2
-1.82E+01,-0.576,-0.56,-9,-8.6
-1.82E+01,-0.576,-0.584,-9,-9.2
-1.82E+01,-0.576,-0.56,-9,-8.8
-1.82E+01,-0.576,-0.584,-9,-9.2
-1.82E+01,-0.576,-0.56,-9,-8.8
-1.82E+01,-0.576,-0.584,-9,-9.2
-1.82E+01,-0.576,-0.56,-9,-8.8
-1.82E+01,-0.576,-0.584,-9,-9.2
-1.81E+01,-0.576,-0.56,-9,-8.8
-1.81E+01,-0.576,-0.584,-9,-9.2
-1.81E+01,-0.576,-0.56,-9,-8.8
-1.81E+01,-0.576,-0.584,-9,-9.2
-1.81E+01,-0.576,-0.56,-9,-8.8
-1.81E+01,-0.576,-0.584,-9,-9.2
-1.81E+01,-0.576,-0.568,-9,-8.8
-1.81E+01,-0.576,-0.584,-9,-9.2
-1.81E+01,-0.576,-0.568,-9,-8.8
-1.81E+01,-0.576,-0.584,-9,-9.2
-1.81E+01,-0.576,-0.56,-9,-8.8
-1.81E+01,-0.576,-0.584,-9,-9.2
-1.81E+01,-0.576,-0.56,-9,-8.8
-1.80E+01,-0.576,-0.584,-9,-9.2
-1.80E+01,-0.576,-0.56,-9,-8.8
-1.80E+01,-0.576,-0.584,-9,-9.2
-1.80E+01,-0.576,-0.56,-9,-8.8
-1.80E+01,-0.576,-0.584,-9,-9.2
-1.80E+01,-0.576,-0.56,-9,-8.8
-1.80E+01,-0.576,-0.584,-9,-9.2
-1.80E+01,-0.576,-0.56,-9,-8.8
-1.80E+01,-0.576,-0.584,-9,-9.2
-1.80E+01,-0.576,-0.56,-9,-8.8
-1.80E+01,-0.576,-0.584,-9,-9.2
-1.80E+01,-0.576,-0.568,-9,-8.8
-1.80E+01,-0.576,-0.584,-9,-9.2
-1.79E+01,-0.576,-0.56,-9,-8.8
-1.79E+01,-0.576,-0.584,-9,-9.2
-1.79E+01,-0.576,-0.568,-9,-8.8
-1.79E+01,-0.576,-0.584,-9,-9.2
-1.79E+01,-0.576,-0.56,-9,-8.8
-1.79E+01,-0.576,-0.584,-9,-9.2
-1.79E+01,-0.576,-0.568,-9,-8.8
-1.79E+01,-0.576,-0.584,-9,-9.4
-1.79E+01,-0.576,-0.56,-9,-8.8
-1.79E+01,-0.576,-0.584,-9.2,-9.4
-1.79E+01,-0.576,-0.56,-9.2,-8.8
-1.79E+01,-0.576,-0.584,-9.2,-9.4
-1.79E+01,-0.576,-0.568,-9.2,-8.8
-1.78E+01,-0.576,-0.584,-9.2,-9.4
-1.78E+01,-0.576,-0.568,-9.2,-9
-1.78E+01,-0.576,-0.584,-9.2,-9.4
-1.78E+01,-0.576,-0.568,-9.2,-9
-1.78E+01,-0.576,-0.584,-9.2,-9.4
-1.78E+01,-0.576,-0.568,-9.2,-8.8
-1.78E+01,-0.576,-0.584,-9.2,-9.4
-1.78E+01,-0.576,-0.568,-9.2,-9
-1.78E+01,-0.576,-0.584,-9.2,-9.4
-1.78E+01,-0.576,-0.568,-9.2,-9
-1.78E+01,-0.576,-0.584,-9.2,-9.4
-1.78E+01,-0.576,-0.568,-9.2,-9
-1.78E+01,-0.576,-0.584,-9.2,-9.4
-1.78E+01,-0.576,-0.568,-9.2,-9
-1.77E+01,-0.576,-0.584,-9.2,-9.4
-1.77E+01,-0.576,-0.56,-9.2,-9
-1.77E+01,-0.576,-0.592,-9.2,-9.4
-1.77E+01,-0.576,-0.568,-9.2,-9
-1.77E+01,-0.576,-0.584,-9.2,-9.4
-1.77E+01,-0.576,-0.568,-9.2,-9
-1.77E+01,-0.576,-0.584,-9.2,-9.4
-1.77E+01,-0.576,-0.568,-9.2,-9
-1.77E+01,-0.576,-0.584,-9.2,-9.4
-1.77E+01,-0.576,-0.568,-9.2,-9
-1.77E+01,-0.576,-0.584,-9.2,-9.4
-1.77E+01,-0.576,-0.568,-9.2,-9
-1.77E+01,-0.576,-0.584,-9.2,-9.4
-1.76E+01,-0.576,-0.568,-9.2,-9
-1.76E+01,-0.576,-0.584,-9.2,-9.4
-1.76E+01,-0.576,-0.568,-9.2,-9
-1.76E+01,-0.576,-0.584,-9.2,-9.4
-1.76E+01,-0.576,-0.568,-9.2,-9
-1.76E+01,-0.576,-0.592,-9.2,-9.4
-1.76E+01,-0.576,-0.568,-9.2,-9
-1.76E+01,-0.576,-0.584,-9.2,-9.4
-1.76E+01,-0.576,-0.568,-9.2,-9
-1.76E+01,-0.576,-0.592,-9.2,-9.4
-1.76E+01,-0.576,-0.568,-9.2,-9
-1.76E+01,-0.576,-0.592,-9.2,-9.6
-1.76E+01,-0.576,-0.568,-9.2,-9
-1.75E+01,-0.576,-0.584,-9.2,-9.6
-1.75E+01,-0.576,-0.568,-9.2,-9
-1.75E+01,-0.576,-0.592,-9.2,-9.6
-1.75E+01,-0.576,-0.568,-9.2,-9
-1.75E+01,-0.576,-0.592,-9.2,-9.6
-1.75E+01,-0.576,-0.568,-9.2,-9
-1.75E+01,-0.576,-0.592,-9.4,-9.6
-1.75E+01,-0.576,-0.568,-9.4,-9
-1.75E+01,-0.576,-0.592,-9.4,-9.6
-1.75E+01,-0.576,-0.568,-9.4,-9
-1.75E+01,-0.576,-0.592,-9.4,-9.6
-1.75E+01,-0.576,-0.568,-9.4,-9
-1.75E+01,-0.576,-0.592,-9.4,-9.6
-1.74E+01,-0.576,-0.568,-9.4,-9
-1.74E+01,-0.576,-0.592,-9.4,-9.6
-1.74E+01,-0.576,-0.568,-9.4,-9.2
-1.74E+01,-0.584,-0.592,-9.4,-9.6
-1.74E+01,-0.584,-0.568,-9.4,-9
-1.74E+01,-0.584,-0.592,-9.4,-9.6
-1.74E+01,-0.584,-0.568,-9.4,-9.2
-1.74E+01,-0.584,-0.592,-9.4,-9.6
-1.74E+01,-0.584,-0.568,-9.4,-9
-1.74E+01,-0.584,-0.592,-9.4,-9.6
-1.74E+01,-0.584,-0.568,-9.4,-9.2
-1.74E+01,-0.584,-0.592,-9.4,-9.6
-1.74E+01,-0.584,-0.568,-9.4,-9.2
-1.73E+01,-0.584,-0.592,-9.4,-9.6
-1.73E+01,-0.584,-0.568,-9.4,-9.2
-1.73E+01,-0.584,-0.592,-9.4,-9.6
-1.73E+01,-0.584,-0.568,-9.4,-9.2
-1.73E+01,-0.584,-0.592,-9.4,-9.6
-1.73E+01,-0.584,-0.568,-9.4,-9.2
-1.73E+01,-0.584,-0.592,-9.4,-9.6
-1.73E+01,-0.584,-0.568,-9.4,-9.2
-1.73E+01,-0.584,-0.592,-9.4,-9.6
-1.73E+01,-0.584,-0.568,-9.4,-9.2
-1.73E+01,-0.584,-0.592,-9.4,-9.6
-1.73E+01,-0.584,-0.568,-9.4,-9.2
-1.73E+01,-0.584,-0.592,-9.4,-9.6
-1.72E+01,-0.584,-0.568,-9.4,-9.2
-1.72E+01,-0.584,-0.592,-9.4,-9.6
-1.72E+01,-0.584,-0.568,-9.4,-9.2
-1.72E+01,-0.584,-0.592,-9.4,-9.6
-1.72E+01,-0.584,-0.568,-9.4,-9.2
-1.72E+01,-0.584,-0.592,-9.4,-9.6
-1.72E+01,-0.584,-0.568,-9.4,-9.2
-1.72E+01,-0.584,-0.592,-9.4,-9.8
-1.72E+01,-0.584,-0.568,-9.4,-9.2
-1.72E+01,-0.584,-0.592,-9.4,-9.8
-1.72E+01,-0.584,-0.576,-9.4,-9.2
-1.72E+01,-0.584,-0.592,-9.4,-9.8
-1.72E+01,-0.584,-0.576,-9.4,-9.2
-1.71E+01,-0.584,-0.592,-9.4,-9.8
-1.71E+01,-0.584,-0.576,-9.6,-9.2
-1.71E+01,-0.584,-0.592,-9.6,-9.8
-1.71E+01,-0.584,-0.576,-9.6,-9.2
-1.71E+01,-0.584,-0.592,-9.6,-9.8
-1.71E+01,-0.584,-0.568,-9.6,-9.2
-1.71E+01,-0.584,-0.6,-9.6,-9.8
-1.71E+01,-0.584,-0.576,-9.6,-9.2
-1.71E+01,-0.584,-0.6,-9.6,-9.8
-1.71E+01,-0.584,-0.576,-9.6,-9.4
-1.71E+01,-0.584,-0.592,-9.6,-9.8
-1.71E+01,-0.584,-0.576,-9.6,-9.4
-1.71E+01,-0.584,-0.6,-9.6,-9.8
-1.70E+01,-0.584,-0.576,-9.6,-9.4
-1.70E+01,-0.584,-0.592,-9.6,-9.8
-1.70E+01,-0.584,-0.576,-9.6,-9.4
-1.70E+01,-0.584,-0.6,-9.6,-9.8
-1.70E+01,-0.584,-0.576,-9.6,-9.4
-1.70E+01,-0.584,-0.592,-9.6,-9.8
-1.70E+01,-0.584,-0.576,-9.6,-9.4
-1.70E+01,-0.584,-0.592,-9.6,-9.8
-1.70E+01,-0.584,-0.576,-9.6,-9.4
-1.70E+01,-0.584,-0.6,-9.6,-9.8
-1.70E+01,-0.584,-0.576,-9.6,-9.4
-1.70E+01,-0.584,-0.6,-9.6,-9.8
-1.70E+01,-0.584,-0.576,-9.6,-9.4
-1.69E+01,-0.584,-0.6,-9.6,-9.8
-1.69E+01,-0.584,-0.568,-9.6,-9.4
-1.69E+01,-0.584,-0.6,-9.6,-9.8
-1.69E+01,-0.584,-0.576,-9.6,-9.4
-1.69E+01,-0.584,-0.6,-9.6,-9.8
-1.69E+01,-0.584,-0.576,-9.6,-9.4
-1.69E+01,-0.584,-0.6,-9.6,-9.8
-1.69E+01,-0.584,-0.576,-9.6,-9.4
-1.69E+01,-0.584,-0.6,-9.6,-9.8
-1.69E+01,-0.592,-0.576,-9.6,-9.4
-1.69E+01,-0.592,-0.6,-9.6,-9.8
-1.69E+01,-0.592,-0.576,-9.6,-9.4
-1.69E+01,-0.592,-0.6,-9.6,-9.8
-1.68E+01,-0.592,-0.576,-9.6,-9.4
-1.68E+01,-0.592,-0.6,-9.6,-9.8
-1.68E+01,-0.592,-0.576,-9.6,-9.4
-1.68E+01,-0.592,-0.6,-9.6,-9.8
-1.68E+01,-0.592,-0.576,-9.6,-9.4
-1.68E+01,-0.592,-0.6,-9.6,-9.8
-1.68E+01,-0.592,-0.576,-9.6,-9.4
-1.68E+01,-0.592,-0.6,-9.6,-9.8
-1.68E+01,-0.592,-0.576,-9.6,-9.4
-1.68E+01,-0.592,-0.6,-9.6,-9.8
-1.68E+01,-0.592,-0.576,-9.6,-9.4
-1.68E+01,-0.592,-0.6,-9.8,-9.8
-1.68E+01,-0.592,-0.576,-9.8,-9.4
-1.67E+01,-0.592,-0.6,-9.8,-10
-1.67E+01,-0.592,-0.576,-9.8,-9.4
-1.67E+01,-0.592,-0.6,-9.8,-10
-1.67E+01,-0.592,-0.584,-9.8,-9.6
-1.67E+01,-0.592,-0.6,-9.8,-10
-1.67E+01,-0.592,-0.584,-9.8,-9.4
-1.67E+01,-0.592,-0.6,-9.8,-10
-1.67E+01,-0.592,-0.584,-9.8,-9.6
-1.67E+01,-0.592,-0.6,-9.8,-10
-1.67E+01,-0.592,-0.584,-9.8,-9.6
-1.67E+01,-0.592,-0.6,-9.8,-10
-1.67E+01,-0.592,-0.584,-9.8,-9.6
-1.67E+01,-0.592,-0.6,-9.8,-10
-1.66E+01,-0.592,-0.584,-9.8,-9.6
-1.66E+01,-0.592,-0.6,-9.8,-10
-1.66E+01,-0.592,-0.576,-9.8,-9.6
-1.66E+01,-0.592,-0.6,-9.8,-10
-1.66E+01,-0.592,-0.576,-9.8,-9.6
-1.66E+01,-0.592,-0.608,-9.8,-10
-1.66E+01,-0.592,-0.584,-9.8,-9.6
-1.66E+01,-0.592,-0.608,-9.8,-10
-1.66E+01,-0.592,-0.576,-9.8,-9.6
-1.66E+01,-0.592,-0.6,-9.8,-10
-1.66E+01,-0.592,-0.584,-9.8,-9.6
-1.66E+01,-0.592,-0.6,-9.8,-10
-1.66E+01,-0.592,-0.584,-9.8,-9.6
-1.65E+01,-0.592,-0.6,-9.8,-10
-1.65E+01,-0.592,-0.584,-9.8,-9.6
-1.65E+01,-0.592,-0.608,-9.8,-10
-1.65E+01,-0.592,-0.584,-9.8,-9.6
-1.65E+01,-0.592,-0.6,-9.8,-10
-1.65E+01,-0.592,-0.584,-9.8,-9.6
-1.65E+01,-0.592,-0.608,-9.8,-10
-1.65E+01,-0.592,-0.584,-9.8,-9.6
-1.65E+01,-0.592,-0.608,-9.8,-10
-1.65E+01,-0.592,-0.584,-9.8,-9.6
-1.65E+01,-0.592,-0.608,-9.8,-10
-1.65E+01,-0.592,-0.584,-9.8,-9.6
-1.65E+01,-0.592,-0.608,-9.8,-10
-1.64E+01,-0.592,-0.584,-9.8,-9.6
-1.64E+01,-0.6,-0.608,-9.8,-10
-1.64E+01,-0.6,-0.584,-9.8,-9.6
-1.64E+01,-0.6,-0.608,-9.8,-10
-1.64E+01,-0.6,-0.584,-9.8,-9.6
-1.64E+01,-0.6,-0.608,-9.8,-10.2
-1.64E+01,-0.6,-0.584,-9.8,-9.6
-1.64E+01,-0.6,-0.608,-9.8,-10.2
-1.64E+01,-0.6,-0.584,-9.8,-9.6
-1.64E+01,-0.6,-0.608,-9.8,-10.2
-1.64E+01,-0.6,-0.584,-9.8,-9.6
-1.64E+01,-0.6,-0.608,-9.8,-10.2
-1.64E+01,-0.6,-0.584,-9.8,-9.6
-1.63E+01,-0.6,-0.608,-9.8,-10.2
-1.63E+01,-0.6,-0.584,-10,-9.6
-1.63E+01,-0.6,-0.608,-10,-10.2
-1.63E+01,-0.6,-0.584,-10,-9.8
-1.63E+01,-0.6,-0.608,-10,-10.2
-1.63E+01,-0.6,-0.584,-10,-9.8
-1.63E+01,-0.6,-0.608,-10,-10.2
-1.63E+01,-0.6,-0.584,-10,-9.8
-1.63E+01,-0.6,-0.608,-10,-10.2
-1.63E+01,-0.6,-0.592,-10,-9.8
-1.63E+01,-0.6,-0.608,-10,-10.2
-1.63E+01,-0.6,-0.592,-10,-9.8
-1.63E+01,-0.6,-0.616,-10,-10.2
-1.62E+01,-0.6,-0.592,-10,-9.8
-1.62E+01,-0.6,-0.608,-10,-10.2
-1.62E+01,-0.6,-0.592,-10,-9.8
-1.62E+01,-0.6,-0.608,-10,-10.2
-1.62E+01,-0.6,-0.592,-10,-9.8
-1.62E+01,-0.6,-0.608,-10,-10.2
-1.62E+01,-0.6,-0.592,-10,-9.8
-1.62E+01,-0.6,-0.608,-10,-10.2
-1.62E+01,-0.6,-0.592,-10,-9.8
-1.62E+01,-0.6,-0.608,-10,-10.2
-1.62E+01,-0.6,-0.592,-10,-9.8
-1.62E+01,-0.6,-0.608,-10,-10.2
-1.62E+01,-0.6,-0.592,-10,-9.8
-1.61E+01,-0.6,-0.608,-10,-10.2
-1.61E+01,-0.6,-0.584,-10,-9.8
-1.61E+01,-0.6,-0.616,-10,-10.2
-1.61E+01,-0.6,-0.592,-10,-9.8
-1.61E+01,-0.6,-0.608,-10,-10.2
-1.61E+01,-0.6,-0.592,-10,-9.8
-1.61E+01,-0.6,-0.616,-10,-10.2
-1.61E+01,-0.6,-0.592,-10,-9.8
-1.61E+01,-0.6,-0.616,-10,-10.2
-1.61E+01,-0.6,-0.592,-10,-9.8
-1.61E+01,-0.6,-0.608,-10,-10.2
-1.61E+01,-0.6,-0.592,-10,-9.8
-1.61E+01,-0.6,-0.616,-10,-10.2
-1.60E+01,-0.6,-0.592,-10,-9.8
-1.60E+01,-0.6,-0.616,-10,-10.2
-1.60E+01,-0.6,-0.592,-10,-9.8
-1.60E+01,-0.6,-0.616,-10,-10.4
-1.60E+01,-0.6,-0.592,-10,-9.8
-1.60E+01,-0.6,-0.616,-10,-10.2
-1.60E+01,-0.6,-0.592,-10.2,-9.8
-1.60E+01,-0.6,-0.616,-10.2,-10.4
-1.60E+01,-0.6,-0.584,-10.2,-9.8
-1.60E+01,-0.6,-0.616,-10.2,-10.4
-1.60E+01,-0.6,-0.592,-10.2,-9.8
-1.60E+01,-0.6,-0.616,-10.2,-10.4
-1.60E+01,-0.6,-0.592,-10.2,-9.8
-1.59E+01,-0.6,-0.616,-10.2,-10.4
-1.59E+01,-0.6,-0.592,-10.2,-10
-1.59E+01,-0.608,-0.616,-10.2,-10.4
-1.59E+01,-0.608,-0.592,-10.2,-10
-1.59E+01,-0.608,-0.616,-10.2,-10.4
-1.59E+01,-0.608,-0.592,-10.2,-10
-1.59E+01,-0.608,-0.616,-10.2,-10.4
-1.59E+01,-0.608,-0.592,-10.2,-10
-1.59E+01,-0.608,-0.616,-10.2,-10.4
-1.59E+01,-0.608,-0.6,-10.2,-10
-1.59E+01,-0.608,-0.616,-10.2,-10.4
-1.59E+01,-0.608,-0.6,-10.2,-10
-1.59E+01,-0.608,-0.616,-10.2,-10.4
-1.58E+01,-0.608,-0.6,-10.2,-10
-1.58E+01,-0.608,-0.616,-10.2,-10.4
-1.58E+01,-0.608,-0.592,-10.2,-10
-1.58E+01,-0.608,-0.616,-10.2,-10.4
-1.58E+01,-0.608,-0.592,-10.2,-10
-1.58E+01,-0.608,-0.616,-10.2,-10.4
-1.58E+01,-0.608,-0.592,-10.2,-10
-1.58E+01,-0.608,-0.616,-10.2,-10.4
-1.58E+01,-0.608,-0.592,-10.2,-10
-1.58E+01,-0.608,-0.616,-10.2,-10.4
-1.58E+01,-0.608,-0.6,-10.2,-10
-1.58E+01,-0.608,-0.616,-10.2,-10.4
-1.58E+01,-0.608,-0.6,-10.2,-10
-1.57E+01,-0.608,-0.616,-10.2,-10.4
-1.57E+01,-0.608,-0.6,-10.2,-10
-1.57E+01,-0.608,-0.616,-10.2,-10.4
-1.57E+01,-0.608,-0.6,-10.2,-10
-1.57E+01,-0.608,-0.616,-10.2,-10.4
-1.57E+01,-0.608,-0.6,-10.2,-10
-1.57E+01,-0.608,-0.616,-10.2,-10.4
-1.57E+01,-0.608,-0.6,-10.2,-10
-1.57E+01,-0.608,-0.616,-10.2,-10.4
-1.57E+01,-0.608,-0.6,-10.2,-10
-1.57E+01,-0.608,-0.624,-10.2,-10.4
-1.57E+01,-0.608,-0.592,-10.2,-10
-1.57E+01,-0.608,-0.624,-10.2,-10.4
-1.56E+01,-0.608,-0.6,-10.2,-10
-1.56E+01,-0.608,-0.624,-10.4,-10.6
-1.56E+01,-0.608,-0.6,-10.4,-10.2
-1.56E+01,-0.608,-0.624,-10.4,-10.4
-1.56E+01,-0.608,-0.6,-10.4,-10.2
-1.56E+01,-0.608,-0.624,-10.4,-10.6
-1.56E+01,-0.608,-0.6,-10.4,-10.2
-1.56E+01,-0.608,-0.624,-10.4,-10.6
-1.56E+01,-0.608,-0.6,-10.4,-10.2
-1.56E+01,-0.608,-0.624,-10.4,-10.6
-1.56E+01,-0.608,-0.6,-10.4,-10.2
-1.56E+01,-0.608,-0.624,-10.4,-10.6
-1.56E+01,-0.608,-0.6,-10.4,-10.2
-1.55E+01,-0.608,-0.624,-10.4,-10.6
-1.55E+01,-0.608,-0.6,-10.4,-10.2
-1.55E+01,-0.608,-0.624,-10.4,-10.6
-1.55E+01,-0.608,-0.6,-10.4,-10.2
-1.55E+01,-0.616,-0.624,-10.4,-10.6
-1.55E+01,-0.616,-0.6,-10.4,-10.2
-1.55E+01,-0.616,-0.624,-10.4,-10.6
-1.55E+01,-0.616,-0.6,-10.4,-10.2
-1.55E+01,-0.616,-0.624,-10.4,-10.6
-1.55E+01,-0.616,-0.6,-10.4,-10.2
-1.55E+01,-0.616,-0.624,-10.4,-10.6
-1.55E+01,-0.616,-0.6,-10.4,-10.2
-1.55E+01,-0.616,-0.624,-10.4,-10.6
-1.54E+01,-0.616,-0.6,-10.4,-10.2
-1.54E+01,-0.616,-0.624,-10.4,-10.6
